spawns	name	room	loc_x	loc_y	loc_z	yaw	script	mood	animation_mood	respawn_time	spawn_objvar	special_room	special_room_script	room_objvar	room_objvar_name	room_objvar_value
s	s	s	f	f	f	f	s	s	s	i	s	s	s	s	s	s
object/tangible/region/deliver_region_5.iff		world	83.9686	52	-5390.23		systems.missions.dynamic.deliver_npc_spawner									
object/tangible/region/deliver_region_5.iff		world	74.6127	52	-5382.24		systems.missions.dynamic.deliver_npc_spawner									
object/tangible/region/deliver_region_5.iff		world	73.2491	52	-5329.48		systems.missions.dynamic.deliver_npc_spawner									
object/tangible/region/deliver_region_5.iff		world	59.0963	52	-5342.29		systems.missions.dynamic.deliver_npc_spawner									
object/tangible/region/deliver_region_5.iff		world	134.8688	52	-5333.14		systems.missions.dynamic.deliver_npc_spawner									
object/tangible/region/deliver_region_5.iff		world	39.6087	52	-5345.06		systems.missions.dynamic.deliver_npc_spawner									
object/tangible/region/deliver_region_5.iff		world	70.2339	52	-5316.54		systems.missions.dynamic.deliver_npc_spawner									
object/tangible/region/deliver_region_5.iff		world	114.6899	52	-5404.19		systems.missions.dynamic.deliver_npc_spawner									
object/tangible/region/deliver_region_5.iff		world	123.408	52	-5377.31		systems.missions.dynamic.deliver_npc_spawner									
object/tangible/region/deliver_region_5.iff		world	150.3829	52	-5327.33		systems.missions.dynamic.deliver_npc_spawner									
object/tangible/region/deliver_region_5.iff		world	-1464.81	12	-3561.05		systems.missions.dynamic.deliver_npc_spawner									
object/tangible/region/deliver_region_5.iff		world	-1162.65	12	-3646.5		systems.missions.dynamic.deliver_npc_spawner									
object/tangible/region/deliver_region_5.iff		world	-1145.13	12	-3507.53		systems.missions.dynamic.deliver_npc_spawner									
object/tangible/region/deliver_region_5.iff		world	-1145.53	12	-3656.31		systems.missions.dynamic.deliver_npc_spawner									
object/tangible/region/deliver_region_5.iff		world	-1157.39	12	-3666.66		systems.missions.dynamic.deliver_npc_spawner									
object/tangible/region/deliver_region_5.iff		world	-1077.51	12	-3513.92		systems.missions.dynamic.deliver_npc_spawner									
object/tangible/region/deliver_region_5.iff		world	-1095.68	12	-3640.98		systems.missions.dynamic.deliver_npc_spawner									
object/tangible/region/deliver_region_5.iff		world	-1085.53	12	-3647.54		systems.missions.dynamic.deliver_npc_spawner									
object/tangible/region/deliver_region_5.iff		world	-1076.36	12	-3657.52		systems.missions.dynamic.deliver_npc_spawner									
object/tangible/region/deliver_region_5.iff		world	-1142.24	12	-3672.51		systems.missions.dynamic.deliver_npc_spawner									
object/tangible/region/deliver_region_5.iff		world	-1066.46	12	-3668.09		systems.missions.dynamic.deliver_npc_spawner									
object/tangible/region/deliver_region_5.iff		world	-1033.88	12	-3644.68		systems.missions.dynamic.deliver_npc_spawner									
object/tangible/region/deliver_region_5.iff		world	-1047.35	12	-3665.81		systems.missions.dynamic.deliver_npc_spawner									
object/tangible/region/deliver_region_5.iff		world	-1106.31	12	-3697.59		systems.missions.dynamic.deliver_npc_spawner									
object/tangible/region/deliver_region_5.iff		world	-1068.17	12	-3690.99		systems.missions.dynamic.deliver_npc_spawner									
object/tangible/region/deliver_region_5.iff		world	-1080.55	12	-3696.41		systems.missions.dynamic.deliver_npc_spawner									
object/tangible/region/deliver_region_5.iff		world	-1060.23	12	-3704.2		systems.missions.dynamic.deliver_npc_spawner									
object/tangible/region/deliver_region_5.iff		world	-1041.87	12	-3711.58		systems.missions.dynamic.deliver_npc_spawner									
object/tangible/region/deliver_region_5.iff		world	-1039.09	12	-3723.55		systems.missions.dynamic.deliver_npc_spawner									
object/tangible/region/deliver_region_5.iff		world	-1026.76	12	-3725.49		systems.missions.dynamic.deliver_npc_spawner									
object/tangible/region/deliver_region_5.iff		world	-1010.28	12	-3728.59		systems.missions.dynamic.deliver_npc_spawner									
object/tangible/region/deliver_region_5.iff		world	-1311.62	12	-3674.36		systems.missions.dynamic.deliver_npc_spawner									
object/tangible/region/deliver_region_5.iff		world	-1347.58	12	-3695.99		systems.missions.dynamic.deliver_npc_spawner									
object/tangible/region/deliver_region_5.iff		world	-1213.04	12	-3629.94		systems.missions.dynamic.deliver_npc_spawner									
object/tangible/region/deliver_region_5.iff		world	-1226.87	12	-3628.59		systems.missions.dynamic.deliver_npc_spawner									
object/tangible/region/deliver_region_5.iff		world	-1200.16	12	-3631.89		systems.missions.dynamic.deliver_npc_spawner									
object/tangible/region/deliver_region_5.iff		world	-1396.2	10	-3773.33		systems.missions.dynamic.deliver_npc_spawner									
object/tangible/region/deliver_region_5.iff		world	-1404.76	12	-3636.5		systems.missions.dynamic.deliver_npc_spawner									
object/tangible/region/deliver_region_5.iff		world	-1320.46	12	-3633.41		systems.missions.dynamic.deliver_npc_spawner									
object/tangible/region/deliver_region_5.iff		world	-1283.53	12	-3559.37		systems.missions.dynamic.deliver_npc_spawner									
object/tangible/region/deliver_region_5.iff		world	-1291.57	12	-3618.78		systems.missions.dynamic.deliver_npc_spawner									
object/tangible/region/deliver_region_5.iff		world	-1429	12	-3628.03		systems.missions.dynamic.deliver_npc_spawner									
object/tangible/region/deliver_region_5.iff		world	-1279.47	12	-3584.64		systems.missions.dynamic.deliver_npc_spawner									
object/tangible/region/deliver_region_5.iff		world	-1200.97	12	-3553.44		systems.missions.dynamic.deliver_npc_spawner									
object/tangible/region/deliver_region_5.iff		world	-1216.2	12	-3549.61		systems.missions.dynamic.deliver_npc_spawner									
object/tangible/region/deliver_region_5.iff		world	-1174.92	12	-3635.8		systems.missions.dynamic.deliver_npc_spawner									
object/tangible/region/deliver_region_5.iff		world	-1358.9	12	-3504.1		systems.missions.dynamic.deliver_npc_spawner									
object/tangible/region/deliver_region_5.iff		world	3650.147	5	-4860.75		systems.missions.dynamic.deliver_npc_spawner									
object/tangible/region/deliver_region_5.iff		world	3529.162	5	-4900.65		systems.missions.dynamic.deliver_npc_spawner									
object/tangible/region/deliver_region_5.iff		world	3513.139	4	-4725.08		systems.missions.dynamic.deliver_npc_spawner									
object/tangible/region/deliver_region_5.iff		world	3540.464	4	-4721.74		systems.missions.dynamic.deliver_npc_spawner									
object/tangible/region/deliver_region_5.iff		world	3559.5	4	-4725.87		systems.missions.dynamic.deliver_npc_spawner									
object/tangible/region/deliver_region_5.iff		world	3458.353	4.0308	-4890.75		systems.missions.dynamic.deliver_npc_spawner									
object/tangible/region/deliver_region_5.iff		world	3526.854	4.4412	-4700.74		systems.missions.dynamic.deliver_npc_spawner									
object/tangible/region/deliver_region_5.iff		world	3563.185	5	-4946.05		systems.missions.dynamic.deliver_npc_spawner									
object/tangible/region/deliver_region_5.iff		world	3379.184	5	-4898.03		systems.missions.dynamic.deliver_npc_spawner									
object/tangible/region/deliver_region_5.iff		world	3496.192	5	-4993.49		systems.missions.dynamic.deliver_npc_spawner									
object/tangible/region/deliver_region_5.iff		world	3364.033	4	-4830.19		systems.missions.dynamic.deliver_npc_spawner									
object/tangible/region/deliver_region_5.iff		world	3422.759	4.996	-4981.25		systems.missions.dynamic.deliver_npc_spawner									
object/tangible/region/deliver_region_5.iff		world	3507.534	5	-5002.63		systems.missions.dynamic.deliver_npc_spawner									
object/tangible/region/deliver_region_5.iff		world	3499.602	5	-5019.9		systems.missions.dynamic.deliver_npc_spawner									
object/tangible/region/deliver_region_5.iff		world	1184.744	7	3106.088		systems.missions.dynamic.deliver_npc_spawner									
object/tangible/region/deliver_region_5.iff		world	1288.864	7	3208.826		systems.missions.dynamic.deliver_npc_spawner									
object/tangible/region/deliver_region_5.iff		world	1389.058	7.5	3162.262		systems.missions.dynamic.deliver_npc_spawner									
object/tangible/region/deliver_region_5.iff		world	1337.266	7	3035.448		systems.missions.dynamic.deliver_npc_spawner									
object/tangible/region/deliver_region_5.iff		world	1342.732	7	3038.586		systems.missions.dynamic.deliver_npc_spawner									
object/tangible/region/deliver_region_5.iff		world	1334.272	7	3040.59		systems.missions.dynamic.deliver_npc_spawner									
object/tangible/region/deliver_region_5.iff		world	1312.961	7	3028.244		systems.missions.dynamic.deliver_npc_spawner									
object/tangible/region/deliver_region_5.iff		world	1332.875	7	3031.912		systems.missions.dynamic.deliver_npc_spawner									
object/tangible/region/deliver_region_5.iff		world	1340.324	7	3068.228		systems.missions.dynamic.deliver_npc_spawner									
object/tangible/region/deliver_region_5.iff		world	1378.896	7	3087.881		systems.missions.dynamic.deliver_npc_spawner									
object/tangible/region/deliver_region_5.iff		world	1294.554	7	3002.802		systems.missions.dynamic.deliver_npc_spawner									
object/tangible/region/deliver_region_5.iff		world	1391.317	7.5	3202.543		systems.missions.dynamic.deliver_npc_spawner									
object/tangible/region/deliver_region_5.iff		world	1169.397	7	3063.847		systems.missions.dynamic.deliver_npc_spawner									
object/tangible/region/deliver_region_5.iff		world	1420.156	7	3089.986		systems.missions.dynamic.deliver_npc_spawner									
object/tangible/region/deliver_region_5.iff		world	1448.696	7	3183.321		systems.missions.dynamic.deliver_npc_spawner									
object/tangible/region/deliver_region_5.iff		world	1450.082	7	3202.922		systems.missions.dynamic.deliver_npc_spawner									
object/tangible/region/deliver_region_5.iff		world	1449.891	7	3138.002		systems.missions.dynamic.deliver_npc_spawner									
object/tangible/region/deliver_region_5.iff		world	1495.581	7	3177.878		systems.missions.dynamic.deliver_npc_spawner									
object/tangible/region/deliver_region_5.iff		world	1448.177	7	2974.111		systems.missions.dynamic.deliver_npc_spawner									
object/tangible/region/deliver_region_5.iff		world	1516.085	7	3164.732		systems.missions.dynamic.deliver_npc_spawner									
object/tangible/region/deliver_region_5.iff		world	1752.626	7	3163.329		systems.missions.dynamic.deliver_npc_spawner									
object/tangible/region/deliver_region_5.iff		world	1609.529	10.9973	3163.55		systems.missions.dynamic.deliver_npc_spawner									
object/tangible/region/deliver_region_5.iff		world	1636.624	7	3124.107		systems.missions.dynamic.deliver_npc_spawner									
object/tangible/region/deliver_region_5.iff		world	1639.177	7	3070.966		systems.missions.dynamic.deliver_npc_spawner									
object/tangible/region/deliver_region_5.iff		world	1619.539	11	3228.906		systems.missions.dynamic.deliver_npc_spawner									
object/tangible/region/deliver_region_5.iff		world	1723.471	7	3130.733		systems.missions.dynamic.deliver_npc_spawner									
object/tangible/region/deliver_region_5.iff		world	1615.169	7	3313.631		systems.missions.dynamic.deliver_npc_spawner									
object/tangible/region/deliver_region_5.iff		world	1556.48	7	3324.919		systems.missions.dynamic.deliver_npc_spawner									
object/tangible/region/deliver_region_5.iff		world	1302.377	7	3357.338		systems.missions.dynamic.deliver_npc_spawner									
object/tangible/region/deliver_region_5.iff		world	-5120.75	75	-6594.69		systems.missions.dynamic.deliver_npc_spawner									
object/tangible/region/deliver_region_5.iff		world	-5128.78	75	-6542.42		systems.missions.dynamic.deliver_npc_spawner									
object/tangible/region/deliver_region_5.iff		world	-5095.19	75	-6527.76		systems.missions.dynamic.deliver_npc_spawner									
object/tangible/region/deliver_region_5.iff		world	-5260.24	75	-6510.64		systems.missions.dynamic.deliver_npc_spawner									
object/tangible/region/deliver_region_5.iff		world	-5249.25	75	-6516.55		systems.missions.dynamic.deliver_npc_spawner									
object/tangible/region/deliver_region_5.iff		world	-5251.85	75	-6499.93		systems.missions.dynamic.deliver_npc_spawner									
object/tangible/region/deliver_region_5.iff		world	-5213.66	75	-6474.22		systems.missions.dynamic.deliver_npc_spawner									
object/tangible/region/deliver_region_5.iff		world	-5277.28	75	-6558.48		systems.missions.dynamic.deliver_npc_spawner									
object/tangible/region/deliver_region_5.iff		world	-5219.65	75	-6548.3		systems.missions.dynamic.deliver_npc_spawner									
object/tangible/region/deliver_region_5.iff		world	-5217.62	75	-6578.64		systems.missions.dynamic.deliver_npc_spawner									
object/tangible/region/deliver_region_5.iff		world	-5193.47	75	-6490.09		systems.missions.dynamic.deliver_npc_spawner									
object/tangible/region/deliver_region_5.iff		world	-5176.26	75	-6611.98		systems.missions.dynamic.deliver_npc_spawner									
object/tangible/region/deliver_region_5.iff		world	3857.4	27	2342.4		systems.missions.dynamic.deliver_npc_spawner									
object/tangible/region/deliver_region_5.iff		world	3806	14.1	2359.5		systems.missions.dynamic.deliver_npc_spawner									
object/tangible/region/deliver_region_5.iff		world	3951	54.4	2283.4		systems.missions.dynamic.deliver_npc_spawner									
object/tangible/region/deliver_region_5.iff		world	3779.532	0	2363.1213		systems.missions.dynamic.deliver_npc_spawner									
object/tangible/region/deliver_region_5.iff		world	3780.4395	0	2363.0085		systems.missions.dynamic.deliver_npc_spawner									
object/tangible/region/deliver_region_5.iff		world	3481.9	5	-5002.4		systems.missions.dynamic.deliver_npc_spawner									
object/tangible/region/deliver_region_5.iff		world	3377.6	4	-4753.3		systems.missions.dynamic.deliver_npc_spawner									
object/tangible/region/deliver_region_5.iff		world	3358.4	4	-4649.4		systems.missions.dynamic.deliver_npc_spawner									
object/tangible/region/deliver_region_5.iff		world	3377.5	4	-4752.6		systems.missions.dynamic.deliver_npc_spawner									
object/tangible/region/deliver_region_5.iff		world	3527.1	4	-4721.1		systems.missions.dynamic.deliver_npc_spawner									
object/tangible/region/deliver_region_5.iff		world	3381.4	4	-4675.2		systems.missions.dynamic.deliver_npc_spawner									
