objid	container	server_template_crc	cell_index	px	py	pz	qw	qx	qy	qz	scripts	objvars
i	i	h	i	f	f	f	f	f	f	f	s	p
479722	0	object/building/general/rori_kobola_cave.iff	0	1222.54	97.8349	135.031	-0.435683	0	0.9001	0	theme_park.dungeon.generic_spawner	spawn_table|4|datatables/spawning/poi_spawner/rori/kobolacave.iff|$|
