component	engine
s	s
eng_bezelbok_kessel_runner	tiebomber_engine_s01:
eng_corellian_cruiser_grade_mk1	tiebomber_engine_s01:
eng_corellian_cruiser_grade_mk2	tiebomber_engine_s01:
eng_corellian_deluxe_cruiser_grade_mk1	tiebomber_engine_s01:
eng_crafted_incom_fusialthrust	tiebomber_engine_s01:
eng_crafted_novaldex_eventhorizon	tiebomber_engine_s01:
eng_crafted_qualdex_kyromaster	tiebomber_engine_s01:
eng_cygnus_hd3	tiebomber_engine_s01:
eng_cygnus_hd7	tiebomber_engine_s01:
eng_cygnus_hd8	tiebomber_engine_s01:
eng_cygnus_hd_5	tiebomber_engine_s01:
eng_cygnus_hdx	tiebomber_engine_s01:
eng_damorian_rx7	tiebomber_engine_s01:
eng_freitek_dual_jet	tiebomber_engine_s01:
eng_gallofree_advanced	tiebomber_engine_s01:
eng_gallofree_jx2	tiebomber_engine_s01:
eng_gallofree_jx3	tiebomber_engine_s01:
eng_h17_singularity	tiebomber_engine_s01:
eng_haor_chall_old_engine	tiebomber_engine_s01:
eng_incom_advanced	tiebomber_engine_s01:
eng_incom_advanced_fusialthrust	tiebomber_engine_s01:
eng_incom_e16	tiebomber_engine_s01:
eng_incom_elite	tiebomber_engine_s01:
eng_incom_fusialthrust	tiebomber_engine_s01:
eng_incom_fusialthrust_2	tiebomber_engine_s01:
eng_incom_heavy_fusialthrust	tiebomber_engine_s01:
eng_incom_improved_fusialthrust_2	tiebomber_engine_s01:
eng_incom_light_fusialthrust	tiebomber_engine_s01:
eng_koensayr_advanced	tiebomber_engine_s01:
eng_koensayr_dual_small_ionjet	tiebomber_engine_s01:
eng_koensayr_elite	tiebomber_engine_s01:
eng_koensayr_enhanced_dual_small_ionjet	tiebomber_engine_s01:
eng_koensayr_heavy_ionjet	tiebomber_engine_s01:
eng_koensayr_ionjet	tiebomber_engine_s01:
eng_koensayr_small_ionjet	tiebomber_engine_s01:
eng_koensayr_tuned_small_ionjet	tiebomber_engine_s01:
eng_kongar_defender	tiebomber_engine_s01:
eng_kse_a2x	tiebomber_engine_s01:
eng_kse_a5x	tiebomber_engine_s01:
eng_kse_a7x	tiebomber_engine_s01:
eng_kse_a8x	tiebomber_engine_s01:
eng_kse_advanced	tiebomber_engine_s01:
eng_kse_elite	tiebomber_engine_s01:
eng_kse_improved_a2x	tiebomber_engine_s01:
eng_kuat_a9x	tiebomber_engine_s01:
eng_kuat_f31	tiebomber_engine_s01:
eng_kuat_tc40	tiebomber_engine_s01:
eng_mandal_advanced	tiebomber_engine_s01:
eng_mandal_elite	tiebomber_engine_s01:
eng_mandal_enhanced_heavy	tiebomber_engine_s01:
eng_mandal_firestorm	tiebomber_engine_s01:
eng_mandal_firestorm_2	tiebomber_engine_s01:
eng_mandal_heavy	tiebomber_engine_s01:
eng_mandal_x37_vandal	tiebomber_engine_s01:
eng_mandal_x57_vandal	tiebomber_engine_s01:
eng_mission_reward_imperial_cygnus_megadrive	tiebomber_engine_s01:
eng_mission_reward_neutral_haor_chall_military	tiebomber_engine_s01:
eng_mission_reward_neutral_mandal_inferno	tiebomber_engine_s01:
eng_mission_reward_rebel_incom_military	tiebomber_engine_s01:
eng_mk1	tiebomber_engine_s01:
eng_mk2	tiebomber_engine_s01:
eng_mk3	tiebomber_engine_s01:
eng_mk4	tiebomber_engine_s01:
eng_mk5	tiebomber_engine_s01:
eng_moncal_charged_standard	tiebomber_engine_s01:
eng_moncal_enhanced_light	tiebomber_engine_s01:
eng_moncal_heavy	tiebomber_engine_s01:
eng_moncal_ifs32	tiebomber_engine_s01:
eng_moncal_ifs64	tiebomber_engine_s01:
eng_moncal_improved_heavy	tiebomber_engine_s01:
eng_moncal_light	tiebomber_engine_s01:
eng_moncal_standard	tiebomber_engine_s01:
eng_novaldex_advanced	tiebomber_engine_s01:
eng_novaldex_eventhorizon	tiebomber_engine_s01:
eng_novaldex_light_eventhorizon	tiebomber_engine_s01:
eng_novaldex_singularity	tiebomber_engine_s01:
eng_novaldex_x12	tiebomber_engine_s01:
eng_novaldex_x6	tiebomber_engine_s01:
eng_novaldex_x7	tiebomber_engine_s01:
eng_novaldex_x9	tiebomber_engine_s01:
eng_nubian_221	tiebomber_engine_s01:
eng_nubian_221_racing_mod	tiebomber_engine_s01:
eng_prototype	tiebomber_engine_s01:
eng_qualdex_a10	tiebomber_engine_s01:
eng_qualdex_a13	tiebomber_engine_s01:
eng_qualdex_advanced	tiebomber_engine_s01:
eng_qualdex_b10	tiebomber_engine_s01:
eng_qualdex_elite	tiebomber_engine_s01:
eng_qualdex_igt	tiebomber_engine_s01:
eng_qualdex_kyromaster	tiebomber_engine_s01:
eng_qualdex_small_kyromaster	tiebomber_engine_s01:
eng_quantum_ion_drive	tiebomber_engine_s01:
eng_rendili_demon_mk1	tiebomber_engine_s01:
eng_rendili_elite	tiebomber_engine_s01:
eng_rss_advanced	tiebomber_engine_s01:
eng_rss_elite	tiebomber_engine_s01:
eng_rss_imperial_skyrunner	tiebomber_engine_s01:
eng_rss_imperial_skyrunner_2	tiebomber_engine_s01:
eng_rss_imperial_skyrunner_3	tiebomber_engine_s01:
eng_rss_imperial_skyrunner_4	tiebomber_engine_s01:
eng_sds_imperial_1	tiebomber_engine_s01:
eng_sds_imperial_2	tiebomber_engine_s01:
eng_sds_limited_imperial_1	tiebomber_engine_s01:
eng_seinar_ps56	tiebomber_engine_s01:
eng_sfs_advanced	tiebomber_engine_s01:
eng_sfs_elite	tiebomber_engine_s01:
eng_sfs_imperial_1	tiebomber_engine_s01:
eng_sfs_imperial_2	tiebomber_engine_s01:
eng_sfs_imperial_3	tiebomber_engine_s01:
eng_sfs_imperial_4	tiebomber_engine_s01:
eng_sfs_imperial_5	tiebomber_engine_s01:
eng_sfs_modified_imperial_3	tiebomber_engine_s01:
eng_sfs_performance_imperial_1	tiebomber_engine_s01:
eng_sfs_tuned_imperial_2	tiebomber_engine_s01:
eng_sorosuub_l_337_ion_engine	tiebomber_engine_s01:
eng_sorosuub_tuned_l_337_ion_engine	tiebomber_engine_s01:
eng_sorosuub_u83r_ion_drive	tiebomber_engine_s01:
eng_subpro_light_engines	tiebomber_engine_s01:
eng_surronian_a2	tiebomber_engine_s01:
eng_surronian_a25	tiebomber_engine_s01:
eng_ubrikkian_n2	tiebomber_engine_s01:
eng_reward_kuat_elite	tiebomber_engine_s01:
eng_nova_01	tiebomber_engine_s01:
eng_orion_01	tiebomber_engine_s01:
collection_reward_engine_01_mk1	tiebomber_engine_s01:
collection_reward_engine_01_mk2	tiebomber_engine_s01:
collection_reward_engine_01_mk3	tiebomber_engine_s01:
collection_reward_engine_01_mk4	tiebomber_engine_s01:
collection_reward_engine_01_mk5	tiebomber_engine_s01:
eng_t86_shooting_star	tiebomber_engine_s01:
eng_kuat_m24	tiebomber_engine_s01:
