spawns	name	room	loc_x	loc_y	loc_z	yaw	script	mood	animation_mood	respawn_time	spawn_objvar	special_room	special_room_script	room_objvar	room_objvar_name	room_objvar_value
s	s	s	f	f	f	f	s	s	s	i	s	s	s	s	s	s
durgur_pyne	Durgur Pyne	insurance	2.7	-0.1	5.3	58	npc.static_quest.quest_convo			300	string:quest_table=durgur_pyne					
