objid	container	server_template_crc	cell_index	px	py	pz	qw	qx	qy	qz	scripts	objvars
i	i	h	i	f	f	f	f	f	f	f	s	p
104	0	object/static/structure/naboo/streetlamp_naboo_theed_style_1.iff	0	992.95	6	194.566	0.978031	0	0.20846	0		$|
105	0	object/static/structure/naboo/streetlamp_naboo_theed_style_1.iff	0	1033.94	6	88.6943	0.42666	0	0.904412	0		$|
106	0	object/static/structure/naboo/streetlamp_naboo_theed_style_1.iff	0	991.616	6	38.6973	0.949235	0	0.314567	0		$|
107	0	object/static/structure/naboo/streetlamp_naboo_theed_style_1.iff	0	1092.37	6	60.9116	0.978031	0	0.20846	0		$|
56919	0	object/building/naboo/association_hall_civilian_naboo.iff	0	351.562	6	324.11	0.422132	0	0.906534	0		$|
56931	0	object/static/structure/naboo/planter_naboo_theed_style_1.iff	0	411.678	6	295.384	1	0	0	0		$|
56932	0	object/static/structure/naboo/planter_naboo_theed_style_2.iff	0	420.812	6	306.222	1	0	0	0		$|
79371	0	object/building/naboo/association_hall_civilian_naboo.iff	0	710.396	6	170.47	0.710912	0	-0.703281	0		$|
79372	0	object/building/naboo/association_hall_civilian_naboo.iff	0	764.283	6	103.199	0.00420302	0	0.999991	0		$|
79384	0	object/static/structure/naboo/planter_naboo_theed_style_1.iff	0	616	6	121	0.721369	0	0.692551	0		$|
79386	0	object/static/structure/naboo/planter_naboo_theed_style_1.iff	0	610.438	6	107.482	0.721369	0	0.692551	0		$|
79411	0	object/building/naboo/association_hall_civilian_naboo.iff	0	770.993	6	309.969	0.708097	0	0.706115	0		$|
100316	0	object/static/structure/naboo/obelisk_naboo_theed_style_3.iff	0	806.606	6	507.279	1	0	0	0		$|
100317	0	object/static/structure/naboo/obelisk_naboo_theed_style_1.iff	0	730.184	6	124.197	1	0	0	0		$|
100318	0	object/static/structure/naboo/bridge_naboo_theed_style_1.iff	0	890.963	0.243319	215.728	0.972514	0	0.232843	0		$|
100319	0	object/static/structure/naboo/bridge_naboo_theed_style_1.iff	0	862.936	0.00747681	466.625	0.985585	0	-0.169182	0		$|
100320	0	object/static/structure/naboo/bridge_naboo_theed_style_1.iff	0	848.211	0.258409	100.66	0.961056	0	-0.276355	0		$|
100332	0	object/static/structure/naboo/streetlamp_naboo_theed_style_1.iff	0	583.478	6	293.705	1	0	0	0		$|
106316	0	object/static/structure/naboo/streetlamp_naboo_theed_style_1.iff	0	682.355	6	143.218	1	0	0	0		$|
106320	0	object/static/structure/naboo/streetlamp_naboo_theed_style_1.iff	0	623.024	6	135.276	1	0	0	0		$|
106332	0	object/static/structure/naboo/streetlamp_naboo_theed_style_1.iff	0	853.238	6	14.876	0.983844	0	-0.17903	0		$|
106336	0	object/static/structure/naboo/streetlamp_naboo_theed_style_1.iff	0	822.367	6	98.1245	0.970693	0	-0.240323	0		$|
106338	0	object/static/structure/naboo/streetlamp_naboo_theed_style_1.iff	0	777.811	6	161.644	1	0	0	0		$|
106360	0	object/static/structure/naboo/seawall_intersect_naboo_theed_style_1.iff	0	859.416	0	121.152	0.959662	0	-0.281158	0		$|
124342	0	object/static/structure/general/planter_generic_style_1.iff	0	712.59	6	107.692	1	0	0	0		$|
124343	0	object/static/structure/general/planter_generic_style_2.iff	0	712.344	6	125.153	1	0	0	0		$|
124344	0	object/static/structure/general/planter_generic_style_3.iff	0	711.991	6	144.054	1	0	0	0		$|
124347	0	object/static/structure/general/planter_generic_style_3.iff	0	681.495	6	153.208	1	0	0	0		$|
124348	0	object/static/structure/general/planter_generic_style_2.iff	0	680.441	6	125.864	1	0	0	0		$|
130317	0	object/static/structure/naboo/seawall_straight_naboo_theed_style_4.iff	0	490.159	0.0663107	182.985	0.771246	0	0.636537	0		$|
130321	0	object/static/structure/naboo/seawall_straight_naboo_theed_style_4.iff	0	514.817	0.13216	130.305	0.867819	0	0.49688	0		$|
130323	0	object/static/structure/naboo/seawall_straight_naboo_theed_style_4.iff	0	531.28	0.13216	102.927	0.870293	0	0.492535	0		$|
130324	0	object/static/structure/naboo/seawall_straight_naboo_theed_style_4.iff	0	547.48	0.13216	75.3477	0.867819	0	0.49688	0		$|
130325	0	object/static/structure/naboo/seawall_straight_naboo_theed_style_4.iff	0	564.226	0.13216	48.0942	0.872744	0	0.488178	0		$|
130326	0	object/static/structure/naboo/seawall_stair_naboo_theed_style_1.iff	0	495.7	0.0689778	166.099	0.813878	0	0.581035	0		$|
130332	0	object/static/structure/naboo/seawall_straight_naboo_theed_style_4.iff	0	858.519	0.290849	417.977	0.807793	0	0.589466	0		$|
130333	0	object/static/structure/naboo/seawall_straight_naboo_theed_style_4.iff	0	868.282	0.32006	387.504	0.807793	0	0.589466	0		$|
130336	0	object/static/structure/naboo/seawall_straight_naboo_theed_style_4.iff	0	878.871	0.0981925	333.683	0.813878	0	0.581035	0		$|
130337	0	object/static/structure/naboo/seawall_straight_naboo_theed_style_4.iff	0	889.241	0.098413	303.419	0.813878	0	0.581035	0		$|
130338	0	object/static/structure/naboo/seawall_straight_naboo_theed_style_4.iff	0	899.634	0.098413	273.154	0.813878	0	0.581035	0		$|
130344	0	object/static/structure/naboo/seawall_intersect_naboo_theed_style_1.iff	0	899.767	0	273.72	0.710912	0	0.703281	0		$|
130348	0	object/static/structure/naboo/seawall_straight_naboo_theed_style_2.iff	0	820.637	0.126705	116.795	0.519099	0	0.854714	0		$|
130349	0	object/static/structure/naboo/seawall_straight_naboo_theed_style_2.iff	0	826.542	0.126705	100.998	0.828148	0	0.560509	0		$|
141334	0	object/static/particle/particle_test_4.iff	0	1025.01	-250.712	594.364	0.77051	-0.018242	0.633405	-0.069126		$|
141335	0	object/static/particle/particle_test_5.iff	0	911.098	-437.343	643.462	1	0	0	0		$|
141338	0	object/static/particle/particle_test_4.iff	0	945.839	-258.625	605.197	0.836086	-0.016612	0.54741	-0.032041		$|
141341	0	object/static/particle/particle_test_4.iff	0	869.295	-274.634	620.611	0.63316	-0.107772	0.766253	-0.0187072		$|
141342	0	object/static/particle/particle_test_5.iff	0	975.721	-438	639.413	1	0	0	0		$|
141439	0	object/static/structure/naboo/seawall_straight_naboo_theed_style_3.iff	0	929.307	0.183683	257.131	0.844588	0	-0.535417	0		$|
141440	0	object/static/structure/naboo/seawall_rocks_naboo_theed_style_1.iff	0	938.672	-0.191429	277.574	0.780704	0	-0.624901	0		$|
141442	0	object/static/structure/naboo/seawall_rocks_naboo_theed_style_1.iff	0	929.3	0.419722	302.108	-0.587361	0	0.809325	0		$|
141444	0	object/static/structure/naboo/seawall_straight_naboo_theed_style_4.iff	0	872.559	0.176887	103.735	-0.435683	0	0.9001	0		$|
141446	0	object/static/structure/naboo/seawall_rocks_naboo_theed_style_1.iff	0	895.093	-0.761439	80.1177	-0.39475	0	0.918788	0		$|
141448	0	object/static/structure/naboo/seawall_rocks_naboo_theed_style_1.iff	0	912.836	0.0706887	66.4058	-0.428449	0	0.903566	0		$|
167319	0	object/static/structure/naboo/seawall_rocks_naboo_theed_style_1.iff	0	923.819	0.437294	234.93	0.865324	0	-0.501213	0		$|
167326	0	object/static/structure/naboo/seawall_intersect_naboo_theed_style_1.iff	0	826.215	0	100.25	0.981048	0	-0.193767	0		$|
167327	0	object/static/structure/naboo/seawall_intersect_naboo_theed_style_1.iff	0	834.084	0.114788	78.0557	0.822502	0	0.568762	0		$|
167341	0	object/static/structure/naboo/seawall_straight_naboo_theed_style_4.iff	0	845.447	0.114788	47.3813	0.822502	0	0.568762	0		$|
167342	0	object/static/structure/naboo/seawall_straight_naboo_theed_style_4.iff	0	856.724	0.114788	17.4897	0.822502	0	0.568762	0		$|
167344	0	object/static/structure/naboo/seawall_intersect_naboo_theed_style_1.iff	0	856.927	0.114788	16.2378	0.822502	0	0.568762	0		$|
173326	0	object/static/particle/particle_test_3.iff	0	1017.09	-149.057	537.003	0.640694	-0.0515683	0.76351	-0.0624824		$|
178552	0	object/static/structure/naboo/nboo_imprv_pristine_wall_large_s01.iff	0	1467.56	0.0540388	125.266	0.907837	0	-0.419322	0		$|
178553	0	object/static/structure/naboo/nboo_imprv_pillar_pillar_s01.iff	0	1467.35	-1.22051	125.312	0.419323	0	0.907837	0		$|
178555	0	object/static/structure/naboo/nboo_imprv_pillar_pillar_s01.iff	0	1454.98	8.05309	112.834	2.78E-08	-0.419323	3.89E-08	0.907837		$|
178556	0	object/static/structure/naboo/nboo_imprv_pillar_pillar_s01.iff	0	1461.91	7.75262	122.435	2.78E-08	-0.419323	3.89E-08	0.907837		$|
178557	0	object/static/structure/naboo/nboo_imprv_pillar_pillar_s01.iff	0	1438.44	5.15031	189.741	2.78E-08	-0.419323	3.89E-08	0.907837		$|
185364	0	object/static/structure/naboo/seawall_rocks_naboo_theed_style_1.iff	0	865.842	0.101723	362.134	0.717353	0	0.69671	0		$|
185365	0	object/static/structure/naboo/seawall_straight_naboo_theed_style_4.iff	0	885.792	0.0988835	245.336	0.52762	0	0.849481	0		$|
185366	0	object/static/structure/naboo/seawall_straight_naboo_theed_style_4.iff	0	857.501	0.126705	187.728	0.519099	0	0.854714	0		$|
185369	0	object/static/structure/naboo/seawall_straight_naboo_theed_style_4.iff	0	842.771	0.126705	159.369	0.519099	0	0.854714	0		$|
189544	0	object/building/naboo/salon_naboo.iff	0	1019.86	6.22857	160.629	0.937508	0	0.347963	0		$|
474323	0	object/building/naboo/cloning_facility_naboo.iff	0	257.126	6	205.556	0.999942	0	0.0108051	0		$|
908864	0	object/static/particle/particle_seagulls_flock.iff	0	859.633	6	398.763	1	0	0	0		$|
908865	0	object/static/particle/particle_seagulls_flock.iff	0	440.181	6	396.616	1	0	0	0		$|
1340335	0	object/tangible/furniture/elegant/coffee_table_s01.iff	0	580.016	6	210.683	0.707107	0	-0.707106	0		$|
1340336	0	object/tangible/furniture/elegant/end_table_s01.iff	0	579.64	6	209.224	1	0	0	0		$|
1340337	0	object/tangible/furniture/elegant/end_table_s01.iff	0	579.67	6	212.156	1	0	0	0		$|
1340338	0	object/static/item/item_katana.iff	0	579.89	6.4111	210.041	0.387747	0.591314	-0.591314	-0.387747		$|
1340339	0	object/static/item/item_tank_bubble.iff	0	580.133	6.4111	210.573	0.836463	0	-0.548024	0		$|
1340340	0	object/static/item/item_bottle_fat.iff	0	579.715	6.37947	212.164	1	0	0	0		$|
1340341	0	object/static/item/item_bottle_tall.iff	0	579.698	6.37947	209.184	1	0	0	0		$|
1340342	0	object/static/item/item_katana.iff	0	579.884	6.4111	211.288	0.587407	-0.393641	-0.393641	0.587407		$|
1340343	0	object/static/item/item_fruit_melon.iff	0	579.703	7.26491	209.191	1	0	0	0		$|
1340344	0	object/static/item/item_slave_brazier.iff	0	581.247	7.91981	210.573	0.705834	-0.042401	0.0424009	0.705834		$|
1340345	0	object/static/item/item_katana.iff	0	580.691	8.14117	210.589	3.20E-08	1	0	0		$|
1340346	0	object/tangible/furniture/elegant/coffee_table_s01.iff	0	765.572	6	233.785	-0.000397898	0	1	0		$|
1340347	0	object/tangible/furniture/elegant/end_table_s01.iff	0	767.035	6	233.408	0.707388	0	-0.706825	0		$|
1340348	0	object/tangible/furniture/elegant/end_table_s01.iff	0	764.101	6	233.44	0.707388	0	-0.706825	0		$|
1340350	0	object/static/item/item_tank_bubble.iff	0	765.685	6.4111	233.901	-0.204346	0	0.978899	0		$|
1340351	0	object/static/item/item_bottle_fat.iff	0	764.092	6.37948	233.482	0.707388	0	-0.706825	0		$|
1340352	0	object/static/item/item_bottle_tall.iff	0	767.071	6.37948	233.463	0.707388	0	-0.706825	0		$|
1340354	0	object/static/item/item_fruit_melon.iff	0	767.065	7.26491	233.47	0.707388	0	-0.706825	0		$|
1340355	0	object/static/item/item_slave_brazier.iff	0	763.294	7.74096	234.269	-0.134991	0.15237	-0.649249	0.732827		$|
1340357	0	object/static/item/item_ryyk_blade.iff	0	765.113	6.46249	233.754	-0.228893	0.688984	0.642368	-0.245504		$|
1340358	0	object/static/item/item_ryyk_blade.iff	0	766.205	6.45685	233.893	-0.228088	0.683734	-0.650374	0.239787		$|
1340359	0	object/static/item/item_ryyk_blade.iff	0	763.601	7.98108	233.718	0.27262	0.65244	-0.27262	0.65244		$|
1340360	0	object/static/item/item_ryyk_blade.iff	0	763.044	8.01682	233.71	-0.222967	-0.671034	-0.222967	0.671034		$|
1340362	0	object/building/naboo/shuttleport_naboo.iff	0	267.895	6	76.1606	3.20E-08	0	1	0	structure.municipal.starport:planet_map.map_loc	travel.cost|0|200|travel.ground_time|0|300|travel.is_shuttleport|0|1|travel.point_name|4|Theed Shuttleport B|travel.shuttle_available|0|1|travel.version|0|3|$|
1340373	0	object/building/naboo/shuttleport_naboo.iff	0	732.983	6	206.332	0.707107	0	0.707106	0	structure.municipal.starport:planet_map.map_loc	travel.cost|0|200|travel.ground_time|0|300|travel.is_shuttleport|0|1|travel.point_name|4|Theed Shuttleport C|travel.shuttle_available|0|1|travel.version|0|3|$|
1340399	0	object/static/item/item_container_inorganic_minerals.iff	0	1017.74	6	147.498	0.663731	0	0.747971	0		$|
1340400	0	object/static/item/item_container_energy_gas.iff	0	1012.3	6	142.621	0.777573	0	0.628793	0		$|
1340401	0	object/static/item/item_container_energy_liquid.iff	0	1013.27	6	143.116	0.833712	0	0.552199	0		$|
1340402	0	object/static/item/item_container_energy_radioactive.iff	0	1012.69	6	144.255	0.577609	0	0.816314	0		$|
1340403	0	object/static/item/item_container_organic_food.iff	0	1016.39	6	146.838	0.100626	0	0.994924	0		$|
1340404	0	object/static/item/item_container_organic_hide.iff	0	1015.38	6	146.562	0.865324	0	0.501213	0		$|
1340405	0	object/static/item/item_crate_clothing_small.iff	0	1014.47	6	146.037	0.908966	0	-0.416871	0		$|
1340406	0	object/static/structure/general/data_terminal_free_s1.iff	0	1013.74	6	145.198	0.458047	0	0.888928	0		$|
1340408	0	object/static/structure/naboo/poi_nboo_tent_med.iff	0	1015.58	6	144.408	0.939373	0	0.342898	0		$|
1340410	0	object/static/item/item_wood_staff.iff	0	770.131	7.4139	213.712	0.992198	-0.124675	0	0		$|
1340411	0	object/static/item/item_wood_staff.iff	0	769.981	7.39141	213.726	0.990109	-0.134483	-0.00458866	-0.0397252		$|
1340412	0	object/static/item/item_vibroaxe.iff	0	773.104	7.23921	213.723	0.0571576	0.806003	0.0416745	0.587669		$|
1392931	0	object/static/flora/flora_tree_palm_thk.iff	0	1530.8	-207.682	289.33	0.998538	-0.0299651	0.00134934	-0.0449646		$|
1392933	0	object/static/flora/flora_tree_palm_thk.iff	0	1518.23	5.57604	117.413	0.978929	0.182556	0.0323138	0.0855944		$|
1392935	0	object/static/flora/flora_tree_palm_thk.iff	0	995.933	5.38738	522.913	0.988798	0.0740697	-0.0147737	-0.128737		$|
1392937	0	object/static/flora/flora_tree_palm_thk.iff	0	833.096	-184.661	658.114	0.955119	-0.18987	0.0300956	-0.22537		$|
1677390	0	object/building/naboo/hotel_naboo_theed.iff	0	435.511	6	135.961	1	0	0	0		$|
1677402	0	object/building/naboo/bank_naboo.iff	0	438.301	6	75.1563	-0.707107	0	0.707107	0		$|
1677425	0	object/static/structure/naboo/archway_wide_s01.iff	0	365.625	6	144.161	1	0	0	0		$|
1677428	0	object/building/naboo/parking_garage_naboo_style_1.iff	0	487.906	6	15.7432	0.707109	0	-0.707104	0		$|
1677473	0	object/static/structure/naboo/gate_wide_s02.iff	0	415.436	6	14.5522	1	0	0	0		$|
1677501	0	object/static/structure/naboo/planter_naboo_theed_style_1.iff	0	395.698	6	10.8501	0.995004	0	0.0998333	0		$|
1677713	0	object/static/structure/naboo/bridge_naboo_theed_style_1.iff	0	435.888	0.300092	245.319	0.731427	0	-0.68192	0		$|
1677714	0	object/static/structure/naboo/seawall_straight_naboo_theed_style_4.iff	0	474.67	0.0304036	225.922	0.998988	0	0.0449843	0		$|
1677715	0	object/static/structure/naboo/seawall_intersect_naboo_theed_style_2.iff	0	489.652	0.204055	182.31	0.789993	0	0.613117	0		$|
1677716	0	object/static/structure/naboo/seawall_intersect_naboo_theed_style_2.iff	0	483.358	0.223439	215.206	0.738201	0	0.674581	0		$|
1677717	0	object/static/structure/naboo/planter_naboo_theed_style_2.iff	0	473.526	6	210.387	1	0	0	0		$|
1677718	0	object/static/structure/naboo/bridge_naboo_theed_style_1.iff	0	419.228	0	352.559	0.940943	0	-0.338565	0		$|
1678063	0	object/static/installation/mockup_power_generator_photo_bio_style_1.iff	0	507.294	6	12.4761	0.707109	0	0.707105	0		$|
1678096	0	object/static/structure/naboo/obelisk_naboo_theed_style_1.iff	0	531.303	6	60.3018	1	0	0	0		$|
1688886	0	object/static/structure/naboo/arch_bronze_naboo_theed.iff	0	648	6	212	1	0	0	0		$|
1688889	0	object/static/structure/naboo/arch_triumph_naboo_theed.iff	0	648	6	90	2.01E-07	0	1	0		$|
1692066	0	object/building/naboo/guild_combat_naboo_style_01.iff	0	687.248	6	6.58398	1	0	0	0		$|
1692076	0	object/building/naboo/guild_commerce_naboo_style_01.iff	0	774.452	6	26.2397	1	0	0	0		$|
1692097	0	object/building/naboo/power_generator_naboo_theed.iff	0	1348.81	5.96226	143.118	0.938444	0	0.345432	0		$|
1695351	0	object/building/naboo/bank_naboo.iff	0	1012.79	6	63.8838	0.907837	0	-0.419322	0		$|
1697373	0	object/building/naboo/hotel_naboo_theed.iff	0	1080.17	6	5.58105	-0.345432	0	0.938444	0		$|
1714399	0	object/static/structure/naboo/gate_narrow_s01.iff	0	991.87	6	127.453	0.907837	0	-0.419322	0		$|
1714425	0	object/static/structure/naboo/nboo_imprv_metal_fence_wall_lg_s02.iff	0	1076.64	6	46.9189	0.419322	0	0.907837	0		$|
1714426	0	object/static/structure/naboo/gate_wide_s01.iff	0	1082.14	6	53.377	0.907837	0	-0.419322	0		$|
1714427	0	object/static/structure/naboo/nboo_imprv_metal_fence_wall_lg_s02.iff	0	1087.64	6	59.8359	0.907837	0	-0.419322	0		$|
1714428	0	object/static/structure/naboo/nboo_imprv_metal_fence_wall_lg_s02.iff	0	1132.33	6	21.7905	0.907837	0	-0.419322	0		$|
1714429	0	object/static/structure/naboo/gate_wide_s01.iff	0	1126.82	6	15.3267	0.419322	0	0.907838	0		$|
1714430	0	object/static/structure/naboo/nboo_imprv_metal_fence_wall_lg_s02.iff	0	1121.32	6	8.8667	0.419322	0	0.907838	0		$|
1714529	0	object/static/structure/general/planter_generic_style_1.iff	0	1200.63	6	127.817	-0.679726	0	0.733466	0		$|
1714532	0	object/static/structure/general/planter_generic_style_1.iff	0	1260.21	13.9517	94.1113	0.961991	0	0.273079	0		$|
1714633	0	object/static/structure/general/planter_generic_style_1.iff	0	1315.4	13.9768	48.0479	0.00420379	0	0.999991	0		$|
1714798	0	object/static/structure/naboo/nboo_imprv_short_curved_wall_large_s01.iff	0	703.763	6	39.0151	-0.707106	0	0.707107	0		$|
1714799	0	object/static/structure/naboo/nboo_imprv_short_curved_wall_large_s01.iff	0	678.696	6	47.0161	-3.12E-08	0	1	0		$|
1717748	0	object/static/structure/naboo/gate_narrow_s01.iff	0	1015.16	6	35.7144	0.0299944	0	0.99955	0		$|
1717749	0	object/static/structure/naboo/gate_narrow_s01.iff	0	984.636	6.53759	61.5615	-0.678265	0	0.734817	0		$|
1717750	0	object/static/structure/general/planter_generic_style_2.iff	0	1011.24	6.47434	31.2617	-0.593818	0	0.804599	0		$|
1717753	0	object/static/structure/general/planter_generic_style_2.iff	0	981.899	6.50597	56.7681	0.937508	0	0.347965	0		$|
1717754	0	object/static/structure/naboo/gate_narrow_s01.iff	0	1041.13	6.53171	66.1123	0.728	0	0.685577	0		$|
1717755	0	object/static/structure/general/planter_generic_style_2.iff	0	1045.58	6.40522	62.1924	0.149044	0	0.98883	0		$|
1717757	0	object/static/structure/naboo/gate_narrow_s01.iff	0	1010.58	6.50597	92.1772	0.99955	0	-0.0299939	0		$|
1717759	0	object/static/structure/general/planter_generic_style_2.iff	0	1005.35	6.53759	95.5981	0.41687	0	0.908966	0		$|
1785352	0	object/static/structure/naboo/seawall_corner.iff	0	485.588	0	224.98	0.9992	0	0.0399893	0		$|
1785353	0	object/static/structure/naboo/seawall_straight_naboo_theed_style_1.iff	0	482.617	0	225.218	0.998988	0	0.0449849	0		$|
1785355	0	object/static/structure/naboo/seawall_straight_naboo_theed_style_1.iff	0	483.871	0	215.091	0.682221	0	0.731146	0		$|
1785356	0	object/static/structure/naboo/seawall_straight_naboo_theed_style_1.iff	0	493.101	0.0689778	173.662	0.813878	0	0.581035	0		$|
1785357	0	object/static/structure/naboo/seawall_straight_naboo_theed_style_1.iff	0	498.264	0.0689778	158.593	0.813878	0	0.581035	0		$|
1785358	0	object/static/structure/naboo/seawall_straight_naboo_theed_style_4.iff	0	561.736	0.0505762	14.7993	0.678556	0	0.734548	0		$|
1785361	0	object/static/structure/naboo/seawall_intersect_naboo_theed_style_2.iff	0	497.822	0.221359	157.957	0.852524	0	0.522689	0		$|
1785386	0	object/static/structure/naboo/seawall_intersect_naboo_theed_style_2.iff	0	563.238	0.221359	47.5669	0.76161	0	0.648036	0		$|
1785387	0	object/static/structure/naboo/seawall_intersect_naboo_theed_style_1.iff	0	848.857	0	449.823	0.804835	0	0.593498	0		$|
1785388	0	object/static/structure/naboo/seawall_intersect_naboo_theed_style_1.iff	0	868.91	0	386.526	0.804836	0	0.593497	0		$|
1785389	0	object/static/structure/naboo/seawall_straight_naboo_theed_style_2.iff	0	878.7	0.0988835	230.993	0.52762	0	0.849481	0		$|
1785390	0	object/static/structure/naboo/seawall_intersect_naboo_theed_style_1.iff	0	869.187	0	364.153	0.164647	0	0.986353	0		$|
1785425	0	object/static/structure/naboo/seawall_straight_naboo_theed_style_4.iff	0	828.019	0.126775	130.998	0.519099	0	0.854714	0		$|
1785459	0	object/static/structure/naboo/seawall_intersect_naboo_theed_style_2.iff	0	820.062	0.22756	116.377	0.674876	0	0.737931	0		$|
1785491	0	object/static/structure/naboo/seawall_corner.iff	0	859.349	0.162507	14.4048	0.944279	0	0.329145	0		$|
1785590	0	object/static/structure/naboo/seawall_intersect_naboo_theed_style_1.iff	0	891.642	0	79.4502	0.911039	0	0.412321	0		$|
1785592	0	object/static/structure/naboo/seawall_intersect_naboo_theed_style_1.iff	0	872.891	0	103.04	0.893821	0	0.448423	0		$|
1785593	0	object/static/structure/naboo/seawall_straight_naboo_theed_style_4.iff	0	873.125	0.189807	151.81	0.857709	0	-0.514136	0		$|
1785594	0	object/static/structure/naboo/seawall_straight_naboo_theed_style_4.iff	0	888.19	0.189807	179.995	0.857709	0	-0.514136	0		$|
1785595	0	object/static/structure/naboo/seawall_rocks_naboo_theed_style_1.iff	0	928.58	-0.299405	47.2637	-0.475732	0	0.87959	0		$|
1785596	0	object/static/structure/naboo/seawall_rocks_naboo_theed_style_1.iff	0	942.222	-0.578557	28.687	-0.475352	0.0073559	0.878887	-0.039307		$|
1785599	0	object/static/structure/naboo/seawall_corner.iff	0	856.167	0.200344	122.34	-0.253016	0	0.967463	0		$|
1785601	0	object/static/structure/naboo/seawall_straight_naboo_theed_style_3.iff	0	900.186	0.189807	202.035	0.860269	0	-0.509841	0		$|
1785602	0	object/static/structure/naboo/seawall_intersect_naboo_theed_style_2.iff	0	889.013	0.347851	179.668	0.860269	0	-0.509841	0		$|
1785603	0	object/static/structure/naboo/seawall_intersect_naboo_theed_style_1.iff	0	918.898	0	236.217	0.536088	0	0.844162	0		$|
1785604	0	object/static/structure/naboo/seawall_intersect_naboo_theed_style_1.iff	0	928.118	0	255.352	0.536088	0	0.844162	0		$|
1785605	0	object/static/structure/naboo/seawall_rocks_naboo_theed_style_1.iff	0	921.807	-0.574342	325.269	-0.587332	-0.00809311	0.809285	0.00587351		$|
1785606	0	object/static/structure/naboo/seawall_rocks_naboo_theed_style_1.iff	0	913.916	-1.06361	348.424	-0.587332	-0.00809311	0.809285	0.00587351		$|
1785660	0	object/static/structure/general/planter_generic_style_4.iff	0	1245.11	6	116.009	0.624898	0	0.780706	0		$|
1785689	0	object/tangible/terminal/terminal_mission.iff	0	1277.16	6.41658	89.1187	-0.33603	0	0.941851	0		$|
1785691	0	object/tangible/terminal/terminal_mission.iff	0	1307.21	6.4111	63.436	-0.33603	0	0.941851	0		$|
1785692	0	object/static/structure/general/planter_generic_style_1.iff	0	1171.92	6	151.04	-0.679726	0	0.733466	0		$|
1785694	0	object/static/structure/general/planter_generic_style_4.iff	0	1153.6	6	188.408	0.624898	0	0.780706	0		$|
1785715	0	object/tangible/terminal/terminal_mission.iff	0	695.471	6	46.9907	0.707109	0	-0.707105	0		$|
1785716	0	object/tangible/terminal/terminal_mission.iff	0	678.964	6	46.9639	0.707107	0	0.707107	0		$|
1785717	0	object/tangible/terminal/terminal_mission.iff	0	760.13	6	59.5181	1	0	0	0		$|
1785718	0	object/tangible/terminal/terminal_mission.iff	0	789.283	6	59.2427	1	0	0	0		$|
1785720	0	object/tangible/terminal/terminal_mission.iff	0	688.675	6	175.442	-0.707107	0	0.707107	0		$|
1785721	0	object/tangible/terminal/terminal_mission.iff	0	688.652	6	166.232	-0.707107	0	0.707107	0		$|
1785722	0	object/tangible/terminal/terminal_mission.iff	0	792.732	6	314.42	0.707107	0	0.707107	0		$|
1785723	0	object/tangible/terminal/terminal_mission.iff	0	792.747	6	305.572	0.707107	0	0.707107	0		$|
1785726	0	object/tangible/terminal/terminal_mission.iff	0	365.27	6	306.523	0.431177	0	0.902268	0		$|
1785727	0	object/tangible/terminal/terminal_mission.iff	0	371.236	6	313.467	0.431177	0	0.902268	0		$|
1785728	0	object/tangible/terminal/terminal_mission.iff	0	427.987	6.9912	162.132	0.917121	0	-0.39861	0		$|
1785729	0	object/tangible/terminal/terminal_mission.iff	0	442.583	6.94869	162.38	0.922997	0	0.384807	0		$|
1785915	0	object/static/structure/naboo/streetlamp_naboo_theed_style_1.iff	0	972.786	6.47434	60.6782	0.90261	0	-0.430458	0		$|
1785916	0	object/static/structure/naboo/streetlamp_naboo_theed_style_1.iff	0	1009.6	6.53759	103.934	0.908966	0	-0.416871	0		$|
1785917	0	object/static/structure/naboo/streetlamp_naboo_theed_style_1.iff	0	1052.81	6.50597	67.0884	0.902611	0	-0.430458	0		$|
1785918	0	object/static/structure/naboo/streetlamp_naboo_theed_style_1.iff	0	1015.99	6.47434	23.8433	0.902611	0	-0.430458	0		$|
1805352	0	object/static/structure/naboo/streetlamp_naboo_theed_style_1.iff	0	938.374	6	88.1597	0.902611	0	-0.430458	0		$|
1805353	0	object/static/structure/naboo/streetlamp_naboo_theed_style_1.iff	0	876.2	6	105.448	0.963771	0	-0.266731	0		$|
1805355	0	object/static/structure/naboo/streetlamp_naboo_theed_style_1.iff	0	907.296	6	196.614	0.735088	0	0.677972	0		$|
1805356	0	object/static/structure/naboo/streetlamp_naboo_theed_style_1.iff	0	874.589	6	235.065	0.971338	0	0.237703	0		$|
1805361	0	object/static/structure/naboo/streetlamp_naboo_theed_style_1.iff	0	977.263	6	124.604	0.911039	0	-0.412321	0		$|
1805367	0	object/static/structure/naboo/streetlamp_naboo_theed_style_1.iff	0	1196.14	6	131.075	0.911039	0	-0.412321	0		$|
1805369	0	object/static/structure/naboo/streetlamp_naboo_theed_style_1.iff	0	1204.73	6	78.0771	0.911039	0	-0.412321	0		$|
1805372	0	object/static/structure/naboo/streetlamp_naboo_theed_style_1.iff	0	1205.26	6	52.1392	0.904751	0	-0.42594	0		$|
1805375	0	object/static/structure/naboo/streetlamp_naboo_theed_style_1.iff	0	1350.2	6	25.5073	0.911039	0	-0.412321	0		$|
1805388	0	object/static/structure/naboo/streetlamp_naboo_theed_style_1.iff	0	1123.8	6	8.9082	0.911039	0	-0.412321	0		$|
1805392	0	object/static/structure/naboo/streetlamp_naboo_theed_style_1.iff	0	1550.69	6	32.4268	0.96639	0	-0.257081	0		$|
1805404	0	object/static/structure/naboo/streetlamp_naboo_theed_style_1.iff	0	815.007	6	264.917	1	0	0	0		$|
1805405	0	object/static/structure/naboo/streetlamp_naboo_theed_style_1.iff	0	709.23	6	231.823	1	0	0	0		$|
1805409	0	object/static/structure/naboo/streetlamp_naboo_theed_style_1.iff	0	844.326	6	450.142	0.984727	0	-0.174108	0		$|
1805412	0	object/static/structure/naboo/streetlamp_naboo_theed_style_1.iff	0	864.183	6	385.253	1	0	0	0		$|
1805413	0	object/static/structure/naboo/streetlamp_naboo_theed_style_1.iff	0	881.031	5.62053	486.017	0.988771	0	-0.149438	0		$|
1805420	0	object/static/structure/naboo/streetlamp_naboo_theed_style_1.iff	0	377.183	6	314.928	0.90687	0	-0.42141	0		$|
1805421	0	object/static/structure/naboo/streetlamp_naboo_theed_style_1.iff	0	446.437	6	269.066	0.998488	0	0.0549723	0		$|
1805422	0	object/static/structure/naboo/streetlamp_naboo_theed_style_1.iff	0	424.854	6	225.855	0.999388	0	0.0349929	0		$|
1805424	0	object/static/structure/naboo/streetlamp_naboo_theed_style_1.iff	0	363.873	6	201.169	0.99995	0	-0.00999986	0		$|
1805425	0	object/static/structure/naboo/streetlamp_naboo_theed_style_1.iff	0	305.917	6	188.236	1	0	0	0		$|
1805426	0	object/static/structure/naboo/streetlamp_naboo_theed_style_1.iff	0	302.074	6	250.176	0.956802	0	-0.29074	0		$|
1805427	0	object/static/structure/naboo/streetlamp_naboo_theed_style_1.iff	0	258.322	6	269.79	1	0	0	0		$|
1805428	0	object/static/structure/naboo/streetlamp_naboo_theed_style_1.iff	0	250.292	6	231.338	1	0	0	0		$|
1805431	0	object/static/structure/naboo/streetlamp_naboo_theed_style_1.iff	0	171.887	6	187.076	1	0	0	0		$|
1805432	0	object/static/structure/naboo/streetlamp_naboo_theed_style_1.iff	0	191.452	6	156.664	1	0	0	0		$|
1805447	0	object/static/structure/naboo/streetlamp_naboo_theed_style_1.iff	0	522.936	6.20457	116.719	0.96639	0	-0.257081	0		$|
1805448	0	object/static/structure/naboo/streetlamp_naboo_theed_style_1.iff	0	466.714	6.52328	46.7261	1	0	0	0		$|
1805449	0	object/static/structure/naboo/streetlamp_naboo_theed_style_1.iff	0	466.682	6.50597	103.539	1	0	0	0		$|
1805450	0	object/static/structure/naboo/streetlamp_naboo_theed_style_1.iff	0	409.902	6.53759	103.536	1	0	0	0		$|
1805451	0	object/static/structure/naboo/streetlamp_naboo_theed_style_1.iff	0	409.434	6.47434	46.1548	1	0	0	0		$|
1805453	0	object/static/structure/naboo/streetlamp_naboo_theed_style_1.iff	0	451.032	6	3.6543	1	0	0	0		$|
1805459	0	object/static/structure/naboo/streetlamp_naboo_theed_style_1.iff	0	156.957	6	135.462	1	0	0	0		$|
2125362	0	object/static/structure/naboo/nboo_imprv_pillar_pillar_s01.iff	0	1463.79	-1.20551	121.353	0.419323	0	0.907837	0		$|
2125364	0	object/static/structure/naboo/nboo_imprv_pillar_pillar_s01.iff	0	1455.75	-1.20551	111.665	-0.345431	0	0.938444	0		$|
2776036	0	object/tangible/terminal/terminal_bazaar.iff	0	1027.08	6.55	80.4624	-0.345432	0	0.938444	0		$|
2776037	0	object/tangible/terminal/terminal_bazaar.iff	0	1029.69	6.55	49.8008	0.907837	0	-0.419323	0		$|
2776038	0	object/tangible/terminal/terminal_bazaar.iff	0	998.536	6.55	47.0718	0.938444	0	0.345432	0		$|
2776039	0	object/tangible/terminal/terminal_bazaar.iff	0	996.055	6.55	78.1104	0.419323	0	0.907837	0		$|
2776040	0	object/tangible/terminal/terminal_bazaar.iff	0	460.299	6.55	75.1689	0.707107	0	-0.707106	0		$|
2776041	0	object/tangible/terminal/terminal_bazaar.iff	0	438.324	6.55	53.1519	1	0	0	0		$|
2776042	0	object/tangible/terminal/terminal_bazaar.iff	0	416.284	6.55	75.1987	0.707107	0	0.707106	0		$|
2776043	0	object/tangible/terminal/terminal_bazaar.iff	0	438.309	6.55	97.1289	-3.20E-08	0	1	0		$|
2776044	0	object/tangible/terminal/terminal_bazaar.iff	0	1133.62	6	160.102	0.419322	0	0.907837	0		$|
2776045	0	object/tangible/terminal/terminal_bazaar.iff	0	1125.84	6	150.965	0.419322	0	0.907837	0		$|
2776046	0	object/tangible/furniture/all/frn_bench_generic.iff	0	1131.68	6	157.817	0.419322	0	0.907837	0		$|
2776047	0	object/tangible/furniture/all/frn_bench_generic.iff	0	1127.79	6	153.249	0.419322	0	0.907837	0		$|
2776049	0	object/tangible/furniture/all/frn_bench_generic.iff	0	725.591	6	118.198	0.707107	0	-0.707106	0		$|
2776050	0	object/tangible/furniture/all/frn_bench_generic.iff	0	725.411	6	130.448	0.707107	0	-0.707107	0		$|
2776051	0	object/tangible/furniture/all/frn_bench_generic.iff	0	793.179	6	48.373	0.707107	0	0.707107	0		$|
3495440	0	object/static/item/item_tank_gas.iff	0	257.134	6	119.416	0.833712	0	-0.552199	0		$|
3495441	0	object/static/item/item_tool_turbine_generator.iff	0	256.915	6	116.922	0.833712	0	-0.552199	0		$|
3495442	0	object/static/item/item_comp_blaster_cannon.iff	0	257.126	6	115.551	0.669996	0	0.742364	0		$|
3495443	0	object/static/structure/general/debris_deathstar_small_tube.iff	0	255.926	6	121.186	0.993395	0	-0.114747	0		$|
3495444	0	object/static/structure/general/debris_deathstar_small_chunk.iff	0	258.588	6	115.139	0.833712	0	-0.552199	0		$|
3495445	0	object/static/structure/general/debris_deathstar_small_tube.iff	0	256.635	6	120.484	-0.204347	0	0.978899	0		$|
3495457	0	object/static/structure/general/droid_r2_powerdown.iff	0	256.208	6	118.649	0.493228	0	0.8699	0		$|
3495458	0	object/static/structure/naboo/poi_nboo_tent_med.iff	0	258.469	6	118.897	0.988012	0	-0.15438	0		$|
3495459	0	object/static/structure/general/debris_deathstar_small_tube.iff	0	256.957	6	122.094	-0.540303	0	0.841471	0		$|
3495460	0	object/static/structure/general/debris_deathstar_small_tube.iff	0	257.665	6	121.393	0.713303	0	0.700857	0		$|
3495463	0	object/static/item/item_tank_gas.iff	0	925.937	6	120.054	0.932327	0	0.361615	0		$|
3495464	0	object/static/item/item_tool_turbine_generator.iff	0	922.686	6	124.421	0.780707	0	0.624897	0		$|
3495465	0	object/static/item/item_comp_blaster_cannon.iff	0	921.718	6	125.416	-0.501901	0	0.864925	0		$|
3495466	0	object/static/structure/general/debris_deathstar_small_tube.iff	0	923.68	6	121.327	0.889293	0	-0.457339	0		$|
3495467	0	object/static/structure/general/debris_deathstar_small_chunk.iff	0	920.29	6	124.895	0.780707	0	0.624897	0		$|
3495468	0	object/static/structure/general/debris_deathstar_small_tube.iff	0	924.673	6	121.268	0.153593	0	0.988134	0		$|
3495469	0	object/static/structure/general/droid_r2_powerdown.iff	0	925.523	6	121.18	-0.425218	0	0.905091	0		$|
3495470	0	object/static/structure/naboo/poi_nboo_tent_med.iff	0	922.573	6	121.911	0.449134	0	0.893464	0		$|
3495471	0	object/static/structure/general/debris_deathstar_small_tube.iff	0	923.855	6	122.689	-0.209239	0	0.977864	0		$|
3495472	0	object/static/structure/general/debris_deathstar_small_tube.iff	0	924.85	6	122.628	0.914471	0	0.404651	0		$|
3495473	0	object/static/item/item_comp_blaster_cannon.iff	0	919.486	6	123.955	0.534744	0	0.845014	0		$|
3955353	0	object/tangible/terminal/terminal_bazaar.iff	0	1129.73	6	155.534	0.419322	0	0.907837	0		$|
3955356	0	object/static/structure/naboo/nboo_imprv_short_curved_wall_large_s01.iff	0	1121.36	6	147.467	0.938444	0	0.345432	0		$|
3955357	0	object/static/structure/naboo/nboo_imprv_short_curved_wall_large_s01.iff	0	1137.01	6	153.603	0.907837	0	-0.419322	0		$|
3955360	0	object/static/structure/naboo/nboo_imprv_pillar_pillar_s03.iff	0	1132.76	6	148.684	0.940159	0	0.340735	0		$|
3955361	0	object/static/structure/naboo/nboo_imprv_pillar_pillar_s03.iff	0	1136.75	6	153.379	0.940159	0	0.340735	0		$|
3955363	0	object/tangible/terminal/terminal_bazaar.iff	0	793.149	6	45.2275	0.700004	0	0.714138	0		$|
3955364	0	object/tangible/terminal/terminal_bazaar.iff	0	793.25	6	51.6348	0.700004	0	0.714138	0		$|
4015358	0	object/tangible/terminal/terminal_mission_imperial.iff	0	673.083	6	314.461	0.707107	0	0.707107	0		$|
4105353	0	object/static/structure/general/streetlamp_small_green_style_01.iff	0	1026.28	5.90513	239.446	0.949235	0	0.314567	0		$|
4105354	0	object/static/structure/general/streetlamp_small_green_style_01.iff	0	1067.99	5.87351	204.239	0.930508	0	0.366273	0		$|
4105355	0	object/tangible/terminal/terminal_bazaar.iff	0	1025.29	6	238.375	-0.338946	0	0.940806	0		$|
4105356	0	object/tangible/terminal/terminal_bazaar.iff	0	1067.03	6	202.886	-0.366273	0	0.930508	0		$|
4295615	0	object/tangible/space/content_infrastructure/ground_npc_spawner.iff	0	 627.900390625	6	306.8872070313	0.5403022766	0.8414710164	0	0	conversation.imperial_broker	$|
4295618	0	object/static/structure/naboo/streetlamp_naboo_theed_style_1.iff	0	622.978	6	312.109	1	0	0	0		$|
4295619	0	object/static/structure/naboo/streetlamp_naboo_theed_style_1.iff	0	672.993	6	312.229	1	0	0	0		$|
4305368	0	object/soundobject/soundobject_city_crowd_sentients.iff	0	1282.95	6	57.123	1	0	0	0		$|
4305372	0	object/soundobject/soundobject_city_crowd_sentients.iff	0	1238.54	6	7.27051	1	0	0	0		$|
4305379	0	object/soundobject/soundobject_city_crowd_sentients_large.iff	0	1203.46	6	25.7568	1	0	0	0		$|
4305387	0	object/soundobject/soundobject_city_crowd_medium.iff	0	1220.78	6	98.5371	1	0	0	0		$|
4305388	0	object/soundobject/soundobject_city_crowd_sentients_large.iff	0	1161.52	6	128.026	1	0	0	0		$|
4305405	0	object/tangible/terminal/terminal_mission.iff	0	671	6	101	1	0	0	0		$|
4305413	0	object/tangible/terminal/terminal_mission.iff	0	626	6	101	1	0	0	0		$|
5475479	0	object/building/naboo/guild_theater_naboo_s01.iff	0	351.566	6	85.1631	1	0	0	0		$|
5555411	0	object/static/structure/naboo/streetlamp_naboo_theed_style_1.iff	0	578.794	6	197.516	1	0	0	0		$|
5555418	0	object/static/structure/naboo/streetlamp_naboo_theed_style_1.iff	0	502.127	6	449.247	1	0	0	0		$|
5555444	0	object/static/structure/naboo/streetlamp_naboo_theed_style_1.iff	0	611.444	6	259.826	1	0	0	0		$|
5555445	0	object/static/structure/naboo/streetlamp_naboo_theed_style_1.iff	0	688.82	6	252.318	1	0	0	0		$|
5555474	0	object/static/structure/general/streetlamp_small_style_01.iff	0	626.793	13.3838	313.244	1	0	0	0		$|
5555475	0	object/static/structure/general/streetlamp_small_style_01.iff	0	669.281	13.3622	313.203	1	0	0	0		$|
5555484	0	object/static/structure/general/streetlamp_small_style_01.iff	0	701.789	8.39462	38.5005	1	0	0	0		$|
5555485	0	object/static/structure/general/streetlamp_small_style_01.iff	0	672.755	8.37684	38.5483	1	0	0	0		$|
5555486	0	object/static/structure/general/streetlamp_small_style_01.iff	0	788.802	8.40333	58.4292	1	0	0	0		$|
5555487	0	object/static/structure/general/streetlamp_small_style_01.iff	0	760.156	8.40333	58.4468	1	0	0	0		$|
5555498	0	object/static/structure/naboo/streetlamp_naboo_theed_style_1.iff	0	895.683	6	273.562	0.703845	0	0.710354	0		$|
5555513	0	object/static/structure/general/streetlamp_large_green_style_02.iff	0	725.244	6	124.219	0.707108	0	-0.707106	0		$|
5555514	0	object/static/structure/naboo/streetlamp_naboo_theed_style_1.iff	0	729.833	6	287.553	1	0	0	0		$|
5625356	0	object/static/structure/naboo/streetlamp_naboo_theed_style_1.iff	0	1264.77	6	91.5068	0.904752	0	-0.42594	0		$|
5625357	0	object/static/structure/naboo/streetlamp_naboo_theed_style_1.iff	0	1311.73	6	51.8696	0.904752	0	-0.42594	0		$|
5625365	0	object/static/structure/naboo/streetlamp_naboo_theed_style_1.iff	0	1085.15	6	59.8652	0.90261	0	-0.430458	0		$|
5625380	0	object/static/structure/naboo/streetlamp_naboo_theed_style_1.iff	0	562.399	6.31623	47.4336	0.996802	0	-0.0799147	0		$|
5625384	0	object/static/structure/general/streetlamp_small_blue_style_02.iff	0	502.787	2.48987	168.892	0.985585	0	-0.169182	0		$|
5625385	0	object/static/structure/general/streetlamp_small_blue_style_02.iff	0	500.151	2.4841	176.415	0.984727	0	-0.174108	0		$|
5625419	0	object/static/structure/general/streetlamp_small_red_style_01.iff	0	509.366	5.87351	12.3579	1	0	0	0		$|
5625421	0	object/static/structure/general/streetlamp_small_blue_style_01.iff	0	473.819	10.5853	15.4546	-0.00579635	0	0	0.999983		$|
5695358	0	object/static/structure/general/streetlamp_small_style_01.iff	0	665.818	27.1335	212.122	0.924909	0	0	0.380188		$|
5695359	0	object/static/structure/general/streetlamp_small_style_01.iff	0	630.191	27.141	211.786	0.928665	0	0	-0.37092		$|
5695360	0	object/static/structure/general/streetlamp_small_style_01.iff	0	665.843	27.1223	90.1157	0.922997	0	0	0.384808		$|
5695361	0	object/static/structure/general/streetlamp_small_style_01.iff	0	630.188	27.1545	89.8872	0.932328	0	0	-0.361615		$|
5695362	0	object/static/structure/naboo/streetlamp_naboo_theed_style_1.iff	0	663.283	6	20.4619	1	0	0	0		$|
5785352	0	object/static/structure/naboo/streetlamp_naboo_theed_style_1.iff	0	844.677	6	163.078	0.854921	0	-0.518758	0		$|
5785353	0	object/static/structure/naboo/streetlamp_naboo_theed_style_1.iff	0	886.238	6	311.021	0.987591	0	-0.157046	0		$|
5785354	0	object/static/structure/naboo/streetlamp_naboo_theed_style_1.iff	0	484.547	6	224.944	0.731418	0	-0.681929	0		$|
5785356	0	object/tangible/crafting/station/public_food_station.iff	0	1105.63	6	13.1689	0.938444	0	0.345432	0		$|
5785362	0	object/tangible/crafting/station/public_clothing_station.iff	0	1082.05	6	33.8496	0.423857	0	0.905729	0		$|
5785365	0	object/tangible/crafting/station/public_structure_station.iff	0	1071.33	6	43.1807	0.907837	0	-0.419323	0		$|
5785368	0	object/tangible/crafting/station/public_weapon_station.iff	0	1082.38	6	69.9307	-0.345432	0	0.938444	0		$|
5785372	0	object/tangible/crafting/station/public_food_station.iff	0	421.546	6	113.5	0	0	1	0		$|
5785375	0	object/tangible/crafting/station/public_clothing_station.iff	0	452.403	6	113.2	-0.707107	0	0.707107	0		$|
5785377	0	object/tangible/crafting/station/public_structure_station.iff	0	487.3	6	98.0503	-0.707107	0	0.707107	0		$|
5785378	0	object/tangible/crafting/station/public_structure_station.iff	0	487.3	6	92.6626	-0.707107	0	0.707107	0		$|
5785379	0	object/tangible/crafting/station/public_weapon_station.iff	0	481.6	6	80.5654	0.707107	0	-0.707106	0		$|
5785380	0	object/tangible/crafting/station/public_weapon_station.iff	0	481.6	6	74.6514	-0.707107	0	0.707107	0		$|
5785381	0	object/tangible/crafting/station/public_weapon_station.iff	0	481.6	6	69.0879	-0.707107	0	0.707107	0		$|
6015355	0	object/static/structure/naboo/streetlamp_naboo_theed_style_1.iff	0	923.648	6	245.642	0.976976	0	0.213348	0		$|
6015356	0	object/static/structure/naboo/streetlamp_naboo_theed_style_1.iff	0	874.927	6.25298	155.07	0.973666	0	0.227978	0		$|
6015402	0	object/static/structure/general/streetlamp_small_style_01.iff	0	145.861	24.9149	221.999	1	0	0	0		$|
6015407	0	object/static/structure/general/streetlamp_medium_blue_style_02.iff	0	314.645	6.34785	137.255	0.707109	0	-0.707104	0		$|
6015422	0	object/static/structure/general/streetlamp_large_green_style_02.iff	0	502.232	6	66.8784	0.707107	0	-0.707106	0		$|
6015438	0	object/static/structure/general/streetlamp_small_blue_style_01.iff	0	752.214	14.8814	319.618	1	0	0	0		$|
6015439	0	object/static/structure/general/streetlamp_small_blue_style_01.iff	0	752.235	14.8866	300.226	1	0	0	0		$|
6015444	0	object/static/structure/general/streetlamp_small_blue_style_01.iff	0	891.355	5.87351	512.564	0.995004	0	0.0998334	0		$|
6015448	0	object/static/structure/general/streetlamp_small_blue_style_01.iff	0	598.79	13.7784	184.653	-0.000796363	0	0	1		$|
6015450	0	object/static/structure/naboo/streetlamp_naboo_theed_style_1.iff	0	515.346	6.97614	592.523	1	0	0	0		$|
6015451	0	object/static/structure/naboo/streetlamp_naboo_theed_style_1.iff	0	540.734	6.95533	636.912	0.92388	0	-0.382683	0		$|
6015452	0	object/static/structure/naboo/streetlamp_naboo_theed_style_1.iff	0	548.974	6.98109	673.073	1	0	0	0		$|
6015453	0	object/static/structure/naboo/streetlamp_naboo_theed_style_1.iff	0	572.421	6.98031	707.569	0.707107	0	-0.707106	0		$|
6015454	0	object/static/structure/naboo/streetlamp_naboo_theed_style_1.iff	0	723.756	6.96759	707.678	1	0	0	0		$|
6015455	0	object/static/structure/naboo/streetlamp_naboo_theed_style_1.iff	0	747.265	6.98031	672.414	0.997189	0	-0.0749297	0		$|
6015456	0	object/static/structure/naboo/streetlamp_naboo_theed_style_1.iff	0	773.882	6.94868	618.152	0.995004	0	-0.0998334	0		$|
6015457	0	object/static/structure/naboo/streetlamp_naboo_theed_style_1.iff	0	780.713	6.97107	592.593	1	0	0	0		$|
6015458	0	object/static/structure/general/streetlamp_small_blue_style_01.iff	0	895.045	5.87351	511.79	0.990428	0.00817273	0.134695	0.029034		$|
6015471	0	object/static/structure/general/streetlamp_small_style_01.iff	0	771.68	17.1868	213.597	1	0	0	0		$|
6015472	0	object/static/structure/naboo/streetlamp_naboo_theed_style_1.iff	0	721.99	6	324.541	1	0	0	0		$|
6015474	0	object/static/structure/general/streetlamp_medium_style_02.iff	0	790.155	8.42345	305.436	0.707107	0	0.707107	0		$|
6015476	0	object/static/structure/general/streetlamp_small_style_01.iff	0	446.682	6.88105	167.528	1	0	0	0		$|
6015477	0	object/static/structure/general/streetlamp_small_style_01.iff	0	424.361	6.92488	167.499	1	0	0	0		$|
6336368	0	object/tangible/terminal/terminal_mission_scout.iff	0	1275.72	6.4111	90.1899	-0.345432	0	0.938444	0		$|
6336370	0	object/tangible/terminal/terminal_mission_artisan.iff	0	1274.44	6.37947	91.4297	-0.345432	0	0.938444	0		$|
6336372	0	object/tangible/terminal/terminal_mission_entertainer.iff	0	1272.9	6.41722	92.4204	-0.33603	0	0.941851	0		$|
6336374	0	object/tangible/terminal/terminal_mission_scout.iff	0	1308.44	6.39237	62.1558	-0.345432	0	0.938444	0		$|
6336376	0	object/tangible/terminal/terminal_mission_artisan.iff	0	1309.96	6.39237	61.166	-0.345432	0	0.938444	0		$|
6336378	0	object/tangible/terminal/terminal_mission_entertainer.iff	0	1310.99	6.39237	59.7388	-0.33603	0	0.941851	0		$|
6336380	0	object/tangible/terminal/terminal_mission_scout.iff	0	623	6	101	1	0	0	0		$|
6336382	0	object/tangible/terminal/terminal_mission_artisan.iff	0	620	6	101	1	0	0	0		$|
6336384	0	object/tangible/terminal/terminal_mission_entertainer.iff	0	618	6	101	1	0	0	0		$|
6336386	0	object/tangible/terminal/terminal_mission_scout.iff	0	674	6	101	1	0	0	0		$|
6336388	0	object/tangible/terminal/terminal_mission_artisan.iff	0	677	6	101	1	0	0	0		$|
6336390	0	object/tangible/terminal/terminal_mission_entertainer.iff	0	680	6	101	1	0	0	0		$|
6336392	0	object/tangible/terminal/terminal_mission_scout.iff	0	420.032	6	155.739	1	0	0	0		$|
6336394	0	object/tangible/terminal/terminal_mission_artisan.iff	0	417.032	6	155.739	1	0	0	0		$|
6336396	0	object/tangible/terminal/terminal_mission_entertainer.iff	0	415.032	6	155.739	1	0	0	0		$|
6336398	0	object/tangible/terminal/terminal_mission_scout.iff	0	450.217	6	155.69	1	0	0	0		$|
6336400	0	object/tangible/terminal/terminal_mission_artisan.iff	0	453.217	6	155.69	1	0	0	0		$|
6336402	0	object/tangible/terminal/terminal_mission_entertainer.iff	0	456.217	6	155.69	1	0	0	0		$|
6336404	0	object/tangible/terminal/terminal_mission_artisan.iff	0	786.927	6	58.9346	1	0	0	0		$|
6336406	0	object/tangible/terminal/terminal_mission_artisan.iff	0	761.921	6	58.9468	1	0	0	0		$|
6336408	0	object/tangible/terminal/terminal_mission_scout.iff	0	790.645	6	300.859	0.707107	0	0.707107	0		$|
6336410	0	object/tangible/terminal/terminal_mission_scout.iff	0	790.492	6	319.313	0.707107	0	0.707106	0		$|
6336412	0	object/tangible/terminal/terminal_mission_scout.iff	0	699.271	6	39.4146	1	0	0	0		$|
6336414	0	object/tangible/terminal/terminal_mission_scout.iff	0	675.166	6	39.4326	1	0	0	0		$|
6336416	0	object/tangible/terminal/terminal_mission_artisan.iff	0	361.081	6	305.702	0.42838	0	0.903599	0		$|
6336418	0	object/tangible/terminal/terminal_mission_entertainer.iff	0	359.673	6	303.842	0.432892	0	0.901446	0		$|
6336420	0	object/tangible/terminal/terminal_mission_artisan.iff	0	371.547	6	318.012	0.42838	0	0.903599	0		$|
6336422	0	object/tangible/terminal/terminal_mission_entertainer.iff	0	373.355	6	319.481	0.432892	0	0.901446	0		$|
6336439	0	object/static/structure/naboo/poi_nboo_tent_small.iff	0	605.816	6	269.762	1	0	0	0		$|
6336442	0	object/tangible/furniture/elegant/chest_s01.iff	0	604.354	6	271.069	-3.20E-08	0	1	0		$|
6336443	0	object/tangible/furniture/elegant/chest_s01.iff	0	604.188	6	268.156	0	0	1	0		$|
6336444	0	object/tangible/furniture/elegant/chair_s01.iff	0	605.799	6	271.985	0.267499	0	0.963558	0		$|
6645417	0	object/soundobject/soundobject_city_crowd_small.iff	0	629.73	6	183.599	1	0	0	0		$|
6695352	0	object/static/structure/naboo/bridge_stairs_s03.iff	0	1358.04	5.9005	14.2471	0.938444	0	0.34543	0		$|
6695353	0	object/static/structure/naboo/enclosed_walkway_s02.iff	0	1367.98	5.8839	5.81592	-0.345432	0	0.938444	0		$|
6695357	0	object/static/structure/naboo/elevated_walkway_cap_s01.iff	0	1374.48	5.91662	0.255371	0.938444	0	0.345433	0		$|
6695358	0	object/static/structure/naboo/elevated_walkway_cap_s01.iff	0	1361.48	5.9005	11.3516	0.938444	0	0.345433	0		$|
6695393	0	object/soundobject/soundobject_city_crowd_small.iff	0	1120.29	6	0.67627	1	0	0	0		$|
6695397	0	object/soundobject/soundobject_city_crowd_small.iff	0	1022.42	6	73.5098	1	0	0	0		$|
6695406	0	object/soundobject/soundobject_city_crowd_small.iff	0	791.983	6	103.623	1	0	0	0		$|
7085352	0	object/static/naboo/waterfall_200m.iff	0	360.841	7.65096	406.014	0.906837	0.00668653	-0.421423	-0.00240596		$|
7085353	0	object/static/naboo/waterfall_200m.iff	0	286.974	8.01628	326.015	0.939373	0	-0.342898	0		$|
7085354	0	object/static/naboo/waterfall_200m.iff	0	56.854	7.97748	241.344	0.989506	-3.15E-10	-0.144492	-5.97E-10		$|
7085356	0	object/static/naboo/waterfall_200m.iff	0	378.251	0.710781	391.644	1	0	0	0		$|
7085357	0	object/static/naboo/waterfall_200m.iff	0	853.085	7.53422	553.299	0.9992	0	0.0399893	0		$|
7085358	0	object/static/naboo/waterfall_200m.iff	0	934.809	8.4422	546.161	0.99639	0	0.0848976	0		$|
7085359	0	object/static/naboo/waterfall_200m.iff	0	1015.07	7.59539	521.577	0.995951	-0.00104144	0.0898942	0.000130859		$|
7085360	0	object/static/naboo/waterfall_200m.iff	0	1489.17	8.09724	141.455	0.937718	-0.00186196	0.347383	-0.00270944		$|
7085361	0	object/static/naboo/waterfall_200m.iff	0	1504.57	8.03524	132.687	0.967663	0	0.252245	0		$|
7265371	0	object/soundobject/soundobject_city_crowd_medium.iff	0	753.479	6	67.8716	1	0	0	0		$|
8075583	0	object/tangible/terminal/terminal_mission_imperial.iff	0	672.97	6	316.259	0.707107	0	0.707107	0		$|
8075590	0	object/tangible/furniture/imperial/table_s1.iff	0	1207.85	6	132.782	1	0	0	0		$|
8075591	0	object/tangible/furniture/imperial/table_s1.iff	0	1216.02	6	132.996	1	0	0	0		$|
8075592	0	object/tangible/terminal/terminal_mission_imperial.iff	0	1223.65	6	131.994	-0.382683	0	0.92388	0		$|
8075594	0	object/tangible/terminal/terminal_mission_imperial.iff	0	1225.97	6	130.112	-0.382683	0	0.92388	0		$|
8075596	0	object/tangible/terminal/terminal_mission_imperial.iff	0	1227.77	6	128.499	-0.382683	0	0.92388	0		$|
8075598	0	object/static/structure/naboo/poi_nboo_tent_med.iff	0	1224.46	6.10646	129.359	0.92388	0	-0.382683	0		$|
8075599	0	object/static/item/item_carbine_imperial_e11.iff	0	1207.94	6.79057	133.576	-0.40554	0.579256	0.579256	-0.40554		$|
8075600	0	object/static/item/item_carbine_imperial_e11.iff	0	1216.16	6.78347	133.705	0.447368	-0.547597	0.547597	-0.447367		$|
8075601	0	object/static/item/item_diagnostic_screen.iff	0	1215.71	6.75895	133.623	0.998201	0	0.0599641	0		$|
8075602	0	object/static/item/item_pistol_imperial_scout.iff	0	1207.49	6.78	133.483	0.259416	-0.655109	0.661589	-0.256585		$|
8075603	0	object/static/item/item_pistol_imperial_scout.iff	0	1208.14	6.79	133.21	0.685068	-0.289301	-0.346695	0.571655		$|
8185431	0	object/static/structure/general/skeleton_human_body.iff	0	68.397	-210.245	1846.3	1	0	0	0		$|
8185432	0	object/static/structure/general/skeleton_human_headandbody.iff	0	67.8052	-210.294	1847.86	1	0	0	0		$|
8185435	0	object/static/structure/tatooine/skeleton_krayt_foot.iff	0	66.894	-210.229	1847.18	0.90687	0	0	-0.42141		$|
8185436	0	object/static/structure/naboo/gungan_pillar_ruined_s01.iff	0	66.9551	-210.515	1846.16	0.983844	0	0	0.17903		$|
8185437	0	object/static/structure/general/skeleton_human_head.iff	0	67.5088	-209.889	1846.03	1	0	0	0		$|
8185438	0	object/static/structure/general/skeleton_human_head.iff	0	67.3486	-209.912	1846.18	0.674876	0	0.737931	0		$|
8185439	0	object/static/structure/general/skeleton_ithorian_head.iff	0	67.7695	-210.068	1846.69	1	0	0	0		$|
8305375	0	object/static/structure/naboo/nboo_imprv_short_curved_wall_small_s01.iff	0	1547.91	-196.423	647.139	1	0	0	0		$|
8305376	0	object/static/structure/naboo/nboo_imprv_short_curved_wall_small_s01.iff	0	1548.81	-196.65	654.634	0.0507747	0	0.99871	0		$|
8305379	0	object/static/structure/general/bench_generic_style_1.iff	0	1549.67	-196.552	649.201	0.941075	0	-0.338197	0		$|
8305380	0	object/static/structure/general/bench_generic_style_1.iff	0	1547.28	-196.558	652.379	0.362358	0	0.932039	0		$|
8305381	0	object/tangible/furniture/all/frn_all_tree_potted_s2.iff	0	1549.2	-197.22	646.533	0.777573	0	0.628793	0		$|
8305382	0	object/tangible/furniture/all/frn_all_tree_potted_s2.iff	0	1545.43	-197.304	654.018	-0.179793	0.00572472	0.98359	-0.013864		$|
8305383	0	object/static/flora/flora_tree_lok_mkpud.iff	0	1549.11	-197.412	652.492	1	0	0	0		$|
8305384	0	object/static/flora/flora_tree_lok_mkpud.iff	0	1545.35	-197.414	649.749	1	0	0	0		$|
8305385	0	object/static/flora/flora_tree_lok_mkpud.iff	0	1550.39	-196.286	648.171	1	0	0	0		$|
8315434	0	object/static/structure/naboo/poi_nboo_tent_hut_s01.iff	0	712.271	6	76.6064	1	0	0	0		$|
8315437	0	object/static/item/item_container_energy_liquid.iff	0	708.976	6	79.8647	1	0	0	0		$|
8315438	0	object/static/item/item_container_energy_liquid.iff	0	709.102	6	79.5464	1	0	0	0		$|
8315439	0	object/static/item/item_container_energy_solid.iff	0	708.479	6	79.3853	1	0	0	0		$|
8315440	0	object/static/structure/tatooine/debris_tatt_crate_metal_1.iff	0	707.772	6	77.2271	0.958244	0	-0.285952	0		$|
8315441	0	object/static/structure/tatooine/debris_tatt_drum_dented_1.iff	0	707.812	6	78.167	1	0	0	0		$|
8315442	0	object/tangible/furniture/tatooine/frn_tato_table_small_style_01.iff	0	712.436	6	75.7988	1	0	0	0		$|
8315444	0	object/tangible/furniture/all/frn_all_rug_rectangle_large_style_01.iff	0	712.417	5.96101	75.7241	1	0	0	0		$|
8315445	0	object/static/structure/naboo/streetlamp_naboo_theed_style_1.iff	0	715.656	6	80.1479	0.911039	0	-0.412321	0		$|
8315446	0	object/static/item/item_con_drink_flask.iff	0	712.184	6.60083	76.0493	1	0	0	0		$|
8315447	0	object/static/item/item_con_plate_s1_full.iff	0	712.548	6.63246	75.9512	1	0	0	0		$|
8315448	0	object/static/item/item_data_disk.iff	0	714.771	6.94869	77.6172	1	0	0	0		$|
8315449	0	object/static/item/item_data_disk.iff	0	714.689	6.94869	77.7144	1	0	0	0		$|
8315450	0	object/static/item/item_datapad_s1.iff	0	714.908	6.91706	77.7505	1	0	0	0		$|
8315451	0	object/static/item/item_document.iff	0	712.232	6.63246	75.5542	0.581683	0	0.813416	0		$|
8725352	0	object/static/structure/general/streetlamp_small_style_01.iff	0	350.834	6.5456	66.0054	1	0	0	0		$|
8865395	0	object/static/structure/naboo/garden_gazebo_lg_s01.iff	0	987.731	6	33.5684	1	0	0	0		$|
8865400	0	object/static/structure/naboo/nboo_imprv_tall_curved_wall_large_s01.iff	0	986.681	6	26.1758	0.99955	0	-0.0299955	0		$|
8865401	0	object/static/structure/naboo/nboo_imprv_tall_curved_wall_large_s01.iff	0	987.802	6	40.3325	0.0391935	0	0.999232	0		$|
8865414	0	object/static/structure/naboo/wall_a1_naboo_theed_style_1.iff	0	988.408	4.15875	46.8027	0.908966	0	-0.416871	0		$|
8865415	0	object/static/structure/naboo/wall_a1_naboo_theed_style_1.iff	0	1000.56	4.10932	36.4424	0.908966	0	-0.416871	0		$|
8865416	0	object/tangible/furniture/ep3_rewards/ep3_kash_reward_sordaan_hunting_trophy.iff	0	988.527	9.69204	36.5259	0.99955	0	0.0299954	0		$|
8865417	0	object/tangible/furniture/ep3_rewards/ep3_kash_reward_sordaan_hunting_trophy.iff	0	990.682	9.73139	34.3789	0.731689	0	0.681639	0		$|
8865418	0	object/tangible/furniture/ep3_rewards/ep3_kash_reward_trophy_bantha_kash.iff	0	981.439	9.55124	37.7163	0.416147	0	0.909297	0		$|
8865419	0	object/tangible/furniture/ep3_rewards/ep3_kash_reward_trophy_bolotaur.iff	0	996.902	9.75278	32.8525	0.90754	0	-0.419966	0		$|
8865420	0	object/tangible/furniture/ep3_rewards/ep3_kash_reward_trophy_katarn.iff	0	991.641	7.06077	28.7524	0.934691	0	-0.355461	0		$|
8865421	0	object/tangible/furniture/ep3_rewards/ep3_kash_reward_trophy_kkorrwrot.iff	0	992.58	9.72372	28.1328	0.909447	0.0083079	-0.41534	-0.0181914		$|
8865422	0	object/tangible/furniture/ep3_rewards/ep3_kash_reward_trophy_minstyngar.iff	0	982.561	7.19203	37.4243	0.416147	0	0.909297	0		$|
8865423	0	object/tangible/furniture/ep3_rewards/ep3_kash_reward_trophy_mouf.iff	0	985.732	9.58239	42.8315	0.420688	0	0.907205	0		$|
8865424	0	object/tangible/furniture/ep3_rewards/ep3_kash_reward_trophy_uller.iff	0	989.798	9.5535	24.7324	0.909629	0	-0.415423	0		$|
8865425	0	object/tangible/furniture/ep3_rewards/ep3_kash_reward_trophy_walluga.iff	0	977.67	9.76126	33.5562	0.416147	0	0.909297	0		$|
8905466	0	object/static/structure/naboo/nboo_imprv_flagpole_s01.iff	0	688.968	18.7227	185.082	1	0	0	0		$|
8905467	0	object/static/structure/naboo/nboo_imprv_flagpole_s01.iff	0	688.692	18.7227	156.241	1	0	0	0		$|
8905468	0	object/static/structure/naboo/nboo_imprv_flagpole_s01.iff	0	717.398	14.6446	218.428	1	0	0	0		$|
8905469	0	object/static/structure/naboo/nboo_imprv_bannerpole_s01.iff	0	632.003	9.28815	327.253	1	0	0	0		$|
8905470	0	object/static/structure/naboo/nboo_imprv_bannerpole_s01.iff	0	663.913	9.28815	327.281	-3.20E-08	0	1	0		$|
8905471	0	object/static/structure/naboo/nboo_imprv_flagpole_s01.iff	0	656.921	107.874	796.832	1	0	0	0		$|
8905472	0	object/static/structure/naboo/nboo_imprv_flagpole_s01.iff	0	792.716	18.3871	295.685	1	0	0	0		$|
8905473	0	object/static/structure/naboo/nboo_imprv_flagpole_s01.iff	0	792.614	18.3871	324.413	1	0	0	0		$|
8905475	0	object/static/structure/naboo/nboo_imprv_flagpole_s01.iff	0	435.292	31.982	135.505	1	0	0	0		$|
8905476	0	object/static/structure/naboo/nboo_imprv_flagpole_s01.iff	0	750.056	18.7389	81.4316	1	0	0	0		$|
8905477	0	object/static/structure/naboo/nboo_imprv_flagpole_s01.iff	0	778.939	18.7389	81.6685	1	0	0	0		$|
8905478	0	object/static/structure/naboo/nboo_imprv_flagpole_s01.iff	0	1150.81	14.6742	14.2544	1	0	0	0		$|
8905479	0	object/static/structure/naboo/nboo_imprv_flagpole_s01.iff	0	1081.33	31.7035	6.58447	1	0	0	0		$|
8905484	0	object/static/structure/naboo/nboo_imprv_flagpole_s01.iff	0	1255.22	50.3857	110.074	1	0	0	0		$|
8905485	0	object/static/structure/naboo/nboo_imprv_flagpole_s01.iff	0	1334.1	50.2965	42.5796	1	0	0	0		$|
8905491	0	object/static/structure/naboo/fountain_naboo_style_1.iff	0	472.912	6	126.055	1	0	0	0		$|
9525415	0	object/static/structure/general/bench_generic_style_1.iff	0	656.673	27.0147	802.271	1	0	0	0		$|
9525416	0	object/static/structure/general/streetlamp_medium_style_02.iff	0	656.499	39.7111	795.928	-0.000796363	0	0	1		$|
9525531	0	object/tangible/crafting/station/public_food_station.iff	0	1205.73	6	54.1094	0.411596	0	0.911367	0		$|
9525532	0	object/static/structure/general/droid_21bmedical_powerdown.iff	0	1206.57	6	51.0742	0.989506	0	0.144492	0		$|
9525535	0	object/tangible/crafting/station/public_food_station.iff	0	1188.65	6	29.6987	0.416872	0	0.908965	0		$|
9525536	0	object/tangible/crafting/station/public_weapon_station.iff	0	1183.92	6	23.457	0.416147	0	0.909297	0		$|
9525537	0	object/tangible/crafting/station/public_clothing_station.iff	0	1186.59	6	26.3096	-0.345888	0	0.938276	0		$|
9525539	0	object/tangible/furniture/modern/chair_modern_style_01.iff	0	682.821	52.8249	717.153	0.711476	0	-0.702711	0		$|
9525540	0	object/tangible/furniture/modern/chair_modern_style_01.iff	0	679.81	52.8249	717.292	0.702712	0	0.711474	0		$|
9525541	0	object/tangible/furniture/modern/chair_modern_style_01.iff	0	681.321	52.8249	718.787	-0.00159202	0	0.999999	0		$|
9525542	0	object/tangible/furniture/modern/table_modern_style_01.iff	0	681.287	52.8249	717.25	0.939099	0	0.343646	0		$|
9525543	0	object/static/item/item_con_bowl_serving_full.iff	0	681.501	53.7104	717.653	0.939099	0	0.343646	0		$|
9525544	0	object/static/item/item_con_bowl_full.iff	0	681.598	53.7104	717.341	0.939099	0	0.343646	0		$|
9525545	0	object/tangible/furniture/modern/table_modern_style_01.iff	0	688.557	52.8002	710.47	0.919102	0	-0.394019	0		$|
9525546	0	object/tangible/furniture/modern/chair_modern_style_01.iff	0	688.429	52.799	709	0.999359	0	0.0357889	0		$|
9525547	0	object/tangible/furniture/modern/chair_modern_style_01.iff	0	690.022	52.8637	710.258	0.775426	0	-0.631439	0		$|
9525548	0	object/tangible/furniture/modern/chair_modern_style_01.iff	0	688.748	52.799	711.997	-0.0357891	0	0.999359	0		$|
9525549	0	object/static/item/item_glass_bluemilk.iff	0	688.823	52.9255	710.22	0	0	1	0		$|
9525550	0	object/static/item/item_con_plate_s1_full.iff	0	688.997	53.6844	710.485	0	0	1	0		$|
9525551	0	object/static/item/item_bottle_pear.iff	0	688.518	53.6845	710.399	0	0	1	0		$|
9525571	0	object/static/structure/general/droid_droideka_powerdown.iff	0	1199.17	6	40.0034	0.609791	0	0.792563	0		$|
9525579	0	object/tangible/furniture/modern/chair_modern_style_01.iff	0	674.451	52.8987	708.869	0.999958	0	-0.00920326	0		$|
9525580	0	object/tangible/furniture/modern/chair_modern_style_01.iff	0	674.423	52.8987	711.896	0.00920313	0	0.999958	0		$|
9525581	0	object/tangible/furniture/modern/chair_modern_style_01.iff	0	672.906	52.8987	710.342	0.716795	0	0.697284	0		$|
9525582	0	object/tangible/furniture/modern/table_modern_style_01.iff	0	674.446	52.8987	710.347	0.900447	0	-0.434965	0		$|
9525583	0	object/static/item/item_bottle_fat.iff	0	674.186	53.808	710.539	0.434965	0	0.900447	0		$|
9525584	0	object/static/item/item_glass_empty.iff	0	673.986	53.808	710.183	0.434965	0	0.900447	0		$|
56911	0	object/building/naboo/filler_building_naboo_theed_style_2.iff	0	894.938	6	519.226	-0.115538	0	0.993303	0		$|
56918	0	object/building/naboo/filler_building_naboo_theed_style_2.iff	0	461.519	6	273.782	0.847252	0	-0.531191	0		$|
79367	0	object/building/naboo/filler_building_naboo_theed_style_4.iff	0	697.274	6	291.546	0.708096	0	-0.706116	0		$|
79421	0	object/building/naboo/filler_building_naboo_theed_style_4.iff	0	758.952	6	243.668	0.00579702	0	0.999983	0		$|
79422	0	object/building/naboo/filler_building_naboo_theed_style_4.iff	0	780.874	6	272.821	0.695447	0	0.718578	0		$|
79423	0	object/building/naboo/filler_building_naboo_theed_style_4.iff	0	718.436	6	291.198	0.701969	0	0.712209	0		$|
121328	0	object/building/naboo/filler_building_naboo_theed_style_10.iff	0	694.19	6	125.037	0.710921	0	-0.703272	0		$|
121333	0	object/building/naboo/filler_building_naboo_theed_style_10.iff	0	712.684	6	91.6885	-0.0107971	0	0.999942	0		$|
1677430	0	object/building/naboo/thm_nboo_block_bldg_32x16_style_01.iff	0	438.337	6	12.2974	1	0	0	0		$|
1677435	0	object/building/naboo/thm_nboo_block_bldg_64x32_s02.iff	0	543.979	5.94944	18.3145	0.734818	0	-0.678264	0		$|
1677442	0	object/building/naboo/thm_nboo_block_bldg_64x32_style_01.iff	0	378.662	6	11.6753	1	0	0	0		$|
1677503	0	object/building/naboo/thm_nboo_block_bldg_64x32_s02.iff	0	303.016	6	8.5874	3.48E-07	0	1	0		$|
1677602	0	object/building/naboo/filler_building_naboo_theed_style_3.iff	0	201.672	6	178.738	0.70711	0	-0.707104	0		$|
1677606	0	object/building/naboo/thm_nboo_block_bldg_32x16_style_02.iff	0	151.07	6	152.138	0.707109	0	0.707105	0		$|
1677691	0	object/building/naboo/filler_building_naboo_theed_style_10.iff	0	491.771	6	67.0181	0.707107	0	0.707107	0		$|
1677694	0	object/building/naboo/filler_building_naboo_theed_style_4.iff	0	497.548	6	97.4219	1	0	0	0		$|
1677772	0	object/building/naboo/thm_nboo_block_bldg_32x16_style_01.iff	0	262.97	6	281.574	3.20E-08	0	1	0		$|
1677774	0	object/building/naboo/thm_nboo_block_bldg_32x16_style_02.iff	0	155.915	6	229.843	0.963771	0	-0.266731	0		$|
1677778	0	object/building/naboo/filler_building_naboo_theed_style_8.iff	0	289.728	6	281.125	1	0	0	0		$|
1677786	0	object/building/naboo/filler_building_naboo_theed_style_10.iff	0	311.353	6	256.364	-0.468594	0	0.883413	0		$|
1677793	0	object/building/naboo/thm_nboo_block_bldg_64x32_s02.iff	0	130.573	6	187.741	0.714421	0	0.699716	0		$|
1677796	0	object/building/naboo/thm_nboo_block_bldg_64x32_style_01.iff	0	201.936	6.0023	254.209	0.223882	0	0.974616	0		$|
1697358	0	object/building/naboo/hospital_naboo_style01.iff	0	1126.24	6	66.4424	0.938444	0	0.345432	0	theme_park.dungeon.generic_spawner	spawn_table|4|datatables/spawning/ep3/ep3_theed_medical_center.iff|$|
1697385	0	object/building/naboo/thm_nboo_block_bldg_32x16_style_01.iff	0	1000.88	6	144.395	0.419322	0	0.907837	0		$|
1697387	0	object/building/naboo/thm_nboo_block_bldg_32x16_style_02.iff	0	1183.41	6	33.6392	0.907837	0	-0.419322	0		$|
1697390	0	object/building/naboo/thm_nboo_block_bldg_64x32_s02.iff	0	971.771	6	99.0464	0.907837	0	-0.419322	0		$|
1697399	0	object/building/naboo/filler_building_naboo_theed_style_5.iff	0	1047.29	6	34.0405	0.938444	0	0.345432	0		$|
1697417	0	object/building/naboo/thm_nboo_block_bldg_64x32_s02.iff	0	1508.62	6	14.5371	0.883413	0	-0.468594	0		$|
1697427	0	object/building/naboo/filler_building_naboo_theed_style_9.iff	0	1557.45	6	38.5742	-0.50622	0	0.862404	0		$|
1714366	0	object/building/naboo/filler_building_naboo_theed_style_5.iff	0	1196.48	6	68.5186	0.907837	0	-0.419323	0	theme_park.dungeon.generic_spawner	spawn_table|4|datatables/spawning/poi_spawner/naboo/theednpc.iff|$|
1714769	0	object/building/naboo/filler_building_naboo_theed_style_10.iff	0	766.313	6	162.031	0.703272	0	0.710921	0		$|
1714772	0	object/building/naboo/filler_building_naboo_theed_style_4.iff	0	771.772	6	203.735	0.999983	0	-0.00579694	0		$|
1717482	0	object/building/naboo/thm_nboo_block_bldg_64x32_style_01.iff	0	591.042	6	143.115	0.92388	0	0.382683	0		$|
1717485	0	object/building/naboo/thm_nboo_block_bldg_64x32_s02.iff	0	595.779	6	253.406	0.707122	0	0.707091	0		$|
1717490	0	object/building/naboo/thm_nboo_block_bldg_32x16_style_01.iff	0	591.978	6	306.538	0.707124	0	0.707089	0		$|
1717492	0	object/building/naboo/thm_nboo_block_bldg_32x16_style_02.iff	0	595.238	6	347.373	0.707121	0	-0.707092	0		$|
1717536	0	object/building/naboo/filler_building_naboo_theed_style_4.iff	0	589.861	6	204.22	-0.707107	0	0.707107	0		$|
1717576	0	object/building/naboo/filler_building_naboo_theed_style_10.iff	0	699.346	6	252.195	-0.707107	0	0.707107	0		$|
1717579	0	object/building/naboo/filler_building_naboo_theed_style_2.iff	0	598.781	6	184.601	-0.337447	0	0.941344	0		$|
1717658	0	object/building/naboo/thm_nboo_block_bldg_64x32_style_01.iff	0	831.343	6	298.274	0.707109	0	-0.707105	0		$|
1717666	0	object/building/naboo/filler_building_naboo_theed_style_5.iff	0	709.98	6	324.503	1	0	0	0		$|
5125660	0	object/building/naboo/filler_building_naboo_theed_style_2.iff	0	260.825	6	107.504	0.876821	0	0.480817	0		$|
8725355	0	object/building/naboo/thm_nboo_block_bldg_64x32_style_01.iff	0	378.259	6	214.128	-0.0618635	0	0.998085	0		$|
