objid	container	server_template_crc	cell_index	px	py	pz	qw	qx	qy	qz	scripts	objvars
i	i	h	i	f	f	f	f	f	f	f	s	p
61	0	object/building/naboo/cantina_naboo.iff	0	884.011	-192	565.697	-0.468594	0	0.883413	0		$|
148	0	object/static/structure/naboo/nboo_imprv_pillar_pillar_s03.iff	0	1029.18	-193.4	595.212	0.0749297	0	0.997189	0		$|
151	0	object/static/flora/flora_tree_palm_fngi.iff	0	1181.91	-194.194	451.522	0.902611	0	-0.430458	0		$|
152	0	object/static/flora/flora_tree_palm_thk.iff	0	1181.43	-192	449.829	0.791654	0	0.61097	0		$|
322	0	object/static/structure/naboo/nboo_imprv_pristine_wall_large_s01.iff	0	862.422	-192	661.43	0.92388	0	-0.382683	0		$|
148344	0	object/static/structure/naboo/streetlamp_naboo_theed_style_1.iff	0	868.499	-196	611.32	0.987654	0	0.156652	0		$|
148345	0	object/static/structure/naboo/nboo_imprv_lattice_wall_short_s01.iff	0	942.756	-192	546.807	-0.398244	0	0.91728	0		$|
148346	0	object/static/structure/naboo/nboo_imprv_pillar_lattice_s01.iff	0	941.432	-192	548.211	-0.381947	0	0.924185	0		$|
148349	0	object/static/structure/naboo/nboo_imprv_pillar_lattice_s01.iff	0	936.332	-192	543.382	0.92388	0	0.382683	0		$|
148350	0	object/static/structure/naboo/nboo_imprv_lattice_wall_short_s01.iff	0	935.134	-192	542.188	0.92388	0	-0.382683	0		$|
148351	0	object/static/structure/naboo/streetlamp_naboo_theed_style_1.iff	0	942.232	-192	549.736	0.92388	0	-0.382683	0		$|
148353	0	object/static/structure/naboo/streetlamp_naboo_theed_style_1.iff	0	865.311	-192	494.02	0.956802	0	-0.29074	0		$|
148375	0	object/static/item/item_music_microphone_s1.iff	0	1111.14	-192	516.764	-0.343646	0	0.939099	0		$|
148377	0	object/static/structure/dantooine/dant_hide_tanning_s02.iff	0	1094.24	-192	469.372	0.913089	0	0.407761	0		$|
148388	0	object/soundobject/soundobject_cantina_medium.iff	0	981.355	-192	656.969	1	0	0	0		$|
1153892	0	object/static/structure/general/droid_r4_powerdown.iff	0	1096.75	-192	555.823	0.825336	0	-0.564642	0		$|
1153905	0	object/tangible/furniture/all/frn_all_toolchest_med_s01.iff	0	1095.32	-192	554.821	0.385543	0	0.92269	0		$|
1153920	0	object/static/item/item_jar_berries.iff	0	1186.47	-191.684	452.3	-0.148651	0	0.98889	0		$|
1153921	0	object/static/item/item_jar_guts.iff	0	1186.69	-191.684	452.307	-0.148651	0	0.98889	0		$|
1153925	0	object/tangible/crafting/station/public_structure_station.iff	0	1081.97	-192	541.084	0.382683	0	0.92388	0		$|
1153931	0	object/static/creature/naboo_gualama.iff	0	1085.83	-192	664.951	-0.286715	0	0.958016	0		$|
1154040	0	object/static/item/item_container_inorganic_minerals.iff	0	922.634	-192	638.205	0.370181	0	0.92896	0		$|
1154042	0	object/static/item/item_container_inorganic_chemicals.iff	0	923.655	-192	638.439	0.955337	0	-0.29552	0		$|
1154043	0	object/static/item/item_medic_bacta_tank.iff	0	923.164	-192	639.155	0.855127	0	0.518418	0		$|
1154047	0	object/static/item/item_medic_bacta_tank.iff	0	922.606	-192	639.526	0.983844	0	0.17903	0		$|
1154049	0	object/static/structure/naboo/poi_nboo_tent_small.iff	0	923.583	-192	639.204	0.924909	0	0.380189	0		$|
1154059	0	object/static/item/item_bacta_ampules.iff	0	923.737	-191.684	639.912	0.683341	0.683341	0.181783	-0.181783		$|
1259938	0	object/building/military/military_imperial_detachment_hq.iff	0	1272.94	-196.627	276.336	0.997189	0	-0.0749297	0		$|
1260047	0	object/building/military/military_base_shed_imperial_barracks_s01.iff	0	1289.73	-197.069	299.1	-0.652136	0	0.758102	0		$|
1260054	0	object/building/military/military_base_shed_imperial_style_officer_s01.iff	0	1250.18	-197.302	293.123	0.758103	0	0.652135	0		$|
1260061	0	object/static/structure/military/military_wall_med_imperial_16_style_01.iff	0	1265.18	-197.475	274.152	0.758103	0	0.652135	0		$|
1260062	0	object/static/structure/military/military_wall_med_imperial_16_style_01.iff	0	1274.29	-197.304	267.437	0.997189	0	-0.0749297	0		$|
1260063	0	object/static/structure/military/military_wall_med_imperial_16_style_01.iff	0	1281	-197.299	276.542	0.75811	0	0.652127	0		$|
1260065	0	object/static/structure/military/military_wall_med_imperial_16_style_01.iff	0	1287.72	-197.24	285.648	0.997189	0	-0.0749297	0		$|
1260066	0	object/static/structure/military/military_wall_med_imperial_16_style_01.iff	0	1256.08	-197.564	280.866	0.997189	0	-0.0749297	0		$|
1260067	0	object/static/structure/military/military_wall_med_imperial_style_01.iff	0	1298.15	-197.274	290.258	0.892608	0	-0.450834	0		$|
1260068	0	object/static/structure/military/military_wall_med_imperial_style_01.iff	0	1244.75	-197.749	282.189	0.949957	0	0.312382	0		$|
1260069	0	object/static/structure/military/military_wall_med_imperial_16_style_01.iff	0	1299.47	-197.23	301.584	0.758103	0	0.652135	0		$|
1260070	0	object/static/structure/military/military_wall_med_imperial_16_style_01.iff	0	1240.14	-197.68	292.617	0.758101	0	0.652137	0		$|
1260073	0	object/static/structure/military/military_wall_med_imperial_style_01.iff	0	1294.32	-197.027	308.896	0.997189	0	-0.0749297	0		$|
1260074	0	object/static/structure/military/military_wall_med_imperial_style_01.iff	0	1242.9	-197.466	301.125	0.997189	0	-0.0749297	0		$|
1260075	0	object/static/structure/corellia/corl_imprv_wall_4x16_s03.iff	0	1282.45	-196.94	307.103	0.997189	0	-0.0749297	0		$|
1260076	0	object/static/structure/corellia/corl_imprv_wall_4x16_s03.iff	0	1254.77	-197.229	302.918	0.997189	0	-0.0749297	0		$|
1260077	0	object/static/structure/military/military_column_med_imperial_style_01.iff	0	1282.2	-197.238	268.633	0.997189	0	-0.0749297	0		$|
1260078	0	object/static/structure/military/military_column_med_imperial_style_01.iff	0	1266.38	-197.4	266.241	0.997189	0	-0.0749297	0		$|
1260079	0	object/static/structure/military/military_column_med_imperial_style_01.iff	0	1279.81	-197.262	284.453	0.997189	0	-0.0749297	0		$|
1260080	0	object/static/structure/military/military_column_med_imperial_style_01.iff	0	1263.99	-197.444	282.062	0.997189	0	-0.0749297	0		$|
1260081	0	object/static/structure/military/military_column_med_imperial_style_01.iff	0	1248.17	-197.704	279.67	0.997189	0	-0.0749297	0		$|
1260082	0	object/static/structure/military/military_column_med_imperial_style_01.iff	0	1241.34	-197.784	284.707	0.997189	0	-0.0749297	0		$|
1260083	0	object/static/structure/military/military_column_med_imperial_style_01.iff	0	1238.95	-197.529	300.527	0.997189	0	-0.0749297	0		$|
1260084	0	object/static/structure/military/military_column_med_imperial_style_01.iff	0	1246.86	-197.389	301.723	0.997189	0	-0.0749297	0		$|
1260085	0	object/static/structure/military/military_column_med_imperial_style_01.iff	0	1290.36	-196.954	308.298	0.997189	0	-0.0749297	0		$|
1260086	0	object/static/structure/military/military_column_med_imperial_style_01.iff	0	1298.27	-197.1	309.494	0.997189	0	-0.0749297	0		$|
1260087	0	object/static/structure/military/military_column_med_imperial_style_01.iff	0	1300.67	-197.31	293.673	0.997189	0	-0.0749297	0		$|
1260088	0	object/static/structure/military/military_column_med_imperial_style_01.iff	0	1295.63	-197.259	286.844	0.997189	0	-0.0749297	0		$|
1260089	0	object/static/structure/military/military_column_weak_imperial_style_01.iff	0	1262.68	-197.101	304.114	0.997189	0	-0.0749297	0		$|
1260090	0	object/static/structure/military/military_column_weak_imperial_style_01.iff	0	1274.54	-196.949	305.907	0.997189	0	-0.0749297	0		$|
1260092	0	object/static/structure/corellia/corl_power_transformer_s02.iff	0	1286.6	-196.868	288.685	0.997189	0	-0.0749297	0		$|
1260093	0	object/static/structure/corellia/corl_power_box_node.iff	0	1290.8	-196.864	289.313	0.754832	0	0.655918	0		$|
1260094	0	object/static/structure/corellia/corl_power_box_node.iff	0	1251.9	-197.091	283.463	-0.655918	0	0.754832	0		$|
1260095	0	object/static/structure/corellia/corl_power_transformer_s02.iff	0	1256.09	-197.118	284.091	0.0749299	0	0.997189	0		$|
1260096	0	object/static/structure/corellia/corl_power_arial_prime.iff	0	1268.9	-196.455	268.673	0.761354	0	0.648337	0		$|
1260097	0	object/static/structure/tatooine/debris_tatt_drum_storage_1.iff	0	1261.45	-196.919	282.91	0.997189	0	-0.0749297	0		$|
1260098	0	object/static/structure/tatooine/debris_tatt_drum_storage_1.iff	0	1260.63	-196.922	282.801	0.997189	0	-0.0749297	0		$|
1260099	0	object/static/structure/tatooine/debris_tatt_crate_metal_1.iff	0	1261.03	-196.024	282.888	1	0	0	0		$|
1260100	0	object/static/structure/tatooine/debris_tatt_crate_1.iff	0	1262.44	-196.925	283.219	0.674876	0	0.737931	0		$|
1260101	0	object/static/structure/tatooine/debris_tatt_drum_storage_2.iff	0	1261.4	-196.943	283.619	0.995953	0	-0.0898786	0		$|
1260106	0	object/static/vehicle/static_lambda_shuttle.iff	0	1250.89	-196.586	268.485	0.877582	0	-0.479426	0		$|
1340273	0	object/static/item/item_cage_bamboo.iff	0	1088.35	-192	663.401	0.324796	0	0.945784	0		$|
1340274	0	object/static/creature/tatooine_worrt.iff	0	1088.35	-191.905	663.421	-0.444661	0	0.895699	0		$|
1741358	0	object/building/naboo/housing_naboo_style_1.iff	0	938.042	-189.438	597.057	0.92388	0	-0.382683	0		$|
1741384	0	object/static/structure/naboo/nboo_imprv_pillar_pillar_s01.iff	0	876.312	-192	675.216	0.92388	0	0.382683	0		$|
1741385	0	object/static/structure/naboo/nboo_imprv_pristine_wall_large_s02.iff	0	905.217	-192	685.892	0.0749299	0	0.997189	0		$|
1741387	0	object/static/structure/naboo/nboo_imprv_pristine_wall_large_s02.iff	0	876.874	-192	675.94	0.287775	0	0.957698	0		$|
1741392	0	object/static/structure/naboo/nboo_imprv_pillar_pillar_s01.iff	0	863.024	-192	662.009	0.382684	0	0.923879	0		$|
1741396	0	object/static/structure/naboo/nboo_imprv_pillar_pillar_s01.iff	0	904.18	-192.001	685.582	0.766321	0	0.642458	0		$|
1741397	0	object/static/structure/naboo/nboo_imprv_pillar_pillar_s01.iff	0	885.835	-192	681.461	0.820964	0	0.57098	0		$|
1741416	0	object/building/naboo/housing_naboo_style_3.iff	0	898.192	-192	480.927	0.951507	0	-0.307627	0		$|
1741419	0	object/static/structure/naboo/nboo_imprv_lattice_wall_long_s01.iff	0	874.845	-192	483.527	-0.270098	0	0.962833	0		$|
1741420	0	object/static/structure/naboo/nboo_imprv_pillar_lattice_s01.iff	0	870.714	-192	486.104	-0.28451	0	0.958673	0		$|
1741421	0	object/static/structure/naboo/nboo_imprv_pillar_lattice_s01.iff	0	864.163	-192	490.918	-0.495574	0	0.868566	0		$|
1741422	0	object/static/structure/naboo/gate_narrow_s02.iff	0	867.299	-192	488.28	-0.317882	0	0.94813	0		$|
1741423	0	object/static/structure/naboo/nboo_imprv_lattice_wall_long_s01.iff	0	861.529	-192	495.213	0.868566	0	0.495574	0		$|
1741424	0	object/static/structure/naboo/nboo_imprv_lattice_wall_long_s01.iff	0	859.808	-192.142	503.722	0.672587	0	0.740018	0		$|
1741425	0	object/static/structure/naboo/nboo_imprv_lattice_wall_long_s01.iff	0	882.946	-192	480.84	-0.0299956	0	0.99955	0		$|
1741432	0	object/static/structure/naboo/gate_narrow_s02.iff	0	938.855	-192	545.848	0.92388	0	-0.382683	0		$|
1741434	0	object/static/structure/naboo/nboo_imprv_lattice_wall_long_s01.iff	0	947.63	-192	541.986	-0.382683	0	0.92388	0		$|
1741435	0	object/static/structure/naboo/nboo_imprv_pillar_lattice_s01.iff	0	944.009	-192	545.484	0.92388	0	0.382683	0		$|
1741436	0	object/static/structure/naboo/nboo_imprv_pillar_lattice_s01.iff	0	934.122	-192	541.178	0.92388	0	0.382683	0		$|
1741452	0	object/building/naboo/bank_naboo.iff	0	981.321	-192.261	566	0.92388	0	0.382683	0		$|
1741453	0	object/building/naboo/guild_combat_naboo_style_01.iff	0	1003.73	-192	631.966	0.384073	0	0.923303	0		$|
1741463	0	object/building/naboo/guild_university_naboo_style_01.iff	0	1033.66	-192	661.066	0.372686	0	0.927957	0		$|
1741473	0	object/building/naboo/hotel_naboo_theed.iff	0	1114.54	-192	667.689	-0.394384	0	0.918946	0		$|
1741484	0	object/building/naboo/association_hall_civilian_naboo.iff	0	1100.08	-192	593.053	0.92548	0	-0.378797	0		$|
13028580	1741484	object/cell/cell.iff	1	0	0	0	1	0	0	0		$|
13028581	1741484	object/cell/cell.iff	2	0	0	0	1	0	0	0		$|
13028582	1741484	object/cell/cell.iff	3	0	0	0	1	0	0	0		$|
13028583	1741484	object/cell/cell.iff	4	0	0	0	1	0	0	0		$|
13028584	1741484	object/cell/cell.iff	5	0	0	0	1	0	0	0		$|
13028585	1741484	object/cell/cell.iff	6	0	0	0	1	0	0	0		$|
13028586	1741484	object/cell/cell.iff	7	0	0	0	1	0	0	0		$|
13028587	1741484	object/cell/cell.iff	8	0	0	0	1	0	0	0		$|
13028588	1741484	object/cell/cell.iff	9	0	0	0	1	0	0	0	systems.elevator.button_check	$|
13028589	1741484	object/cell/cell.iff	10	0	0	0	1	0	0	0		$|
8346077	13028589	object/tangible/space/content_infrastructure/ground_npc_spawner.iff	10	-.699684262275696	1.52990818023682	-11.0761671066284	1	0	0	0	conversation.naboo_imperial_trainer_1	$|
1741502	0	object/building/naboo/guild_commerce_naboo_style_01.iff	0	1072.15	-192	557.081	0.92388	0	-0.382683	0		$|
1741512	0	object/building/naboo/cloning_facility_naboo.iff	0	1235.81	-192	407.563	0.996157	0	-0.0875865	0		$|
5036496	0	object/tangible/space/content_infrastructure/ground_npc_spawner.iff	0	1113.53466796875	-192	523.03515625	.76484215259552	0	-.644217789173126	0.00		$|
5036497	0	object/tangible/space/content_infrastructure/ground_npc_spawner.iff	0	1116.814453125	-192	542.84814453125	.76484215259552	0	-.644217729568481	0.00		$|
91575	0	object/tangible/space/content_infrastructure/ground_npc_spawner.iff	0	1097.19970703125	-192	537.34765625	1	0	0	0	conversation.greeter_kadaara_imperial_officer	$|
91576	0	object/tangible/space/content_infrastructure/ground_npc_spawner.iff	0	1108.5478515625	-192	565.0087890625	.315322309732437	0	.948984622955322	0	conversation.greeter_kadaara_mistress	$|
1741535	0	object/building/naboo/starport_naboo.iff	0	1199.29	-192	520.328	0.761613	0	-0.648033	0	structure.municipal.starport:theme_park.dungeon.generic_spawner	travel.air_time|0|60|travel.cost|0|150|travel.ground_time|0|300|travel.point_name|4|Kaadara Starport|travel.shuttle_available|0|1|travel.version|0|3|spawn_table|4|datatables/spawning/building_spawns/kaadara_starport.iff|$|
13028663	1741535	object/cell/cell.iff	1	0	0	0	1	0	0	0		$|
13028664	1741535	object/cell/cell.iff	2	0	0	0	1	0	0	0		$|
13028665	1741535	object/cell/cell.iff	3	0	0	0	1	0	0	0		$|
13028666	1741535	object/cell/cell.iff	4	0	0	0	1	0	0	0		$|
13028667	1741535	object/cell/cell.iff	5	0	0	0	1	0	0	0		$|
13028668	1741535	object/cell/cell.iff	6	0	0	0	1	0	0	0		$|
13028669	1741535	object/cell/cell.iff	7	0	0	0	1	0	0	0		$|
13028670	1741535	object/cell/cell.iff	8	0	0	0	1	0	0	0		$|
13028671	1741535	object/cell/cell.iff	9	0	0	0	1	0	0	0		$|
13028672	1741535	object/cell/cell.iff	10	0	0	0	1	0	0	0		$|
13028673	1741535	object/cell/cell.iff	11	0	0	0	1	0	0	0		$|
13028674	1741535	object/cell/cell.iff	12	0	0	0	1	0	0	0		$|
13028675	1741535	object/cell/cell.iff	13	0	0	0	1	0	0	0		$|
13028676	1741535	object/cell/cell.iff	14	0	0	0	1	0	0	0		$|
13028677	1741535	object/cell/cell.iff	15	0	0	0	1	0	0	0		$|
13028678	1741535	object/cell/cell.iff	16	0	0	0	1	0	0	0		$|
11019480	13028666	object/tangible/terminal/terminal_space.iff	4	1.94578778743744	.639421224594116	61.2369804382324	1.00	0.00	0.00	0.00	space.terminal.terminal_space	$|
11019481	13028666	object/tangible/terminal/terminal_space.iff	4	-2.39033246040344	.639422535896301	61.2409172058105	1.00	0.00	0.00	0.00	space.terminal.terminal_space	$|
11019482	13028666	object/tangible/terminal/terminal_space.iff	4	-2.38489127159119	.639422297477722	55.5486907958984	0.00	0.00	1.00	0.00	space.terminal.terminal_space	$|
11019483	13028666	object/tangible/terminal/terminal_space.iff	4	1.87441527843475	.639420866966248	55.3451156616211	0.00	0.00	1.00	0.00	space.terminal.terminal_space	$|
4295480	13028666	object/tangible/space/content_infrastructure/ground_npc_spawner.iff	4	9.95971965789795	.639421999454498	67.7167510986328	0.00	0.00	1.00	0.00	conversation.chassis_npc	$|
4795487	13028671	object/tangible/space/content_infrastructure/ground_npc_spawner.iff	9	-30.326343536377	1.63942182064056	51.5528259277344	1.00	0.00	1.00	0.00		$|
11019484	13028672	object/tangible/terminal/terminal_space.iff	10	-42.8350028991699	1.63942158222198	51.2345352172852	.461750596761703	0.00	.887011706829071	0.00	space.terminal.terminal_space	$|
11019485	13028672	object/tangible/terminal/terminal_space.iff	10	-40.694652557373	1.63942241668701	46.6948623657227	1.00	0.00	0.00	0.00	space.terminal.terminal_space	$|
11019486	13028672	object/tangible/terminal/terminal_space.iff	10	-37.9800796508789	1.63942134380341	49.6453437805176	.70710676908493	0.00	-.707111656665802	0.00	space.terminal.terminal_space	$|
1741551	0	object/static/structure/tatooine/antenna_tatt_style_2.iff	0	1126.62	-192	555.717	-0.00579701	0	0.999983	0		$|
1741552	0	object/static/structure/tatooine/antenna_tatt_style_2.iff	0	1118.53	-192	509.927	-0.00579701	0	0.999983	0		$|
1741553	0	object/building/naboo/shuttleport_naboo.iff	0	1041.24	-192	457.604	0.920007	0	0.391903	0	structure.municipal.starport:planet_map.map_loc	travel.cost|0|200|travel.ground_time|0|300|travel.is_shuttleport|0|1|travel.point_name|4|Kaadara Shuttleport A|travel.shuttle_available|0|1|travel.version|0|3|$|
1741554	0	object/building/naboo/parking_garage_naboo_style_1.iff	0	1013.11	-192	429.889	0.368784	0	0.929516	0		$|
1744377	0	object/static/structure/naboo/elevated_walkway_cap_s01.iff	0	893.909	-200.29	689.953	0.822276	0	0.569089	0		$|
1744378	0	object/static/structure/naboo/elevated_walkway_cap_s01.iff	0	889.681	-207.166	701.184	0.822276	0	0.569089	0		$|
1744379	0	object/static/structure/naboo/elevated_walkway_cap_s01.iff	0	886.158	-207.166	710.543	0.822276	0	0.569089	0		$|
1744380	0	object/static/structure/naboo/bridge_stairs_s01.iff	0	892.499	-200.29	693.697	0.822276	0	0.569089	0		$|
1744381	0	object/static/structure/naboo/bridge_stairs_s01.iff	0	884.75	-207.166	714.287	0.822276	0	0.569089	0		$|
1744382	0	object/static/structure/naboo/elevated_walkway_s01.iff	0	887.92	-207.166	705.863	0.822276	0	0.569089	0		$|
1744385	0	object/static/structure/naboo/gate_wide_s01.iff	0	894.911	-192	683.62	0.995004	0	-0.0998333	0		$|
1744388	0	object/static/structure/naboo/gate_wide_s01.iff	0	869.6	-192	668.502	0.92388	0	-0.382683	0		$|
1744390	0	object/static/structure/naboo/gate_narrow_s02.iff	0	873.304	-192	644.259	0.382683	0	0.92388	0		$|
1744391	0	object/static/structure/naboo/nboo_imprv_pillar_lattice_s01.iff	0	875.736	-192	646.812	0.92388	0	0.382683	0		$|
1744392	0	object/static/structure/naboo/nboo_imprv_pillar_lattice_s01.iff	0	870.771	-192	641.827	0.92388	0	0.382683	0		$|
1744395	0	object/static/structure/naboo/gate_narrow_s02.iff	0	901.582	-192	670.878	0.264513	0	0.964382	0		$|
1744396	0	object/static/structure/naboo/nboo_imprv_pillar_lattice_s01.iff	0	898.525	-192	669.148	0.86896	0	0.494882	0		$|
1744397	0	object/static/structure/naboo/nboo_imprv_pillar_lattice_s01.iff	0	904.572	-192	672.748	0.86896	0	0.494882	0		$|
1744398	0	object/static/structure/naboo/nboo_imprv_metal_fence_wall_lg_s01.iff	0	911.016	-192	674.641	0.998201	0	-0.059964	0		$|
1744401	0	object/static/structure/naboo/nboo_imprv_metal_fence_wall_lg_s02.iff	0	905.371	-192	673.052	0.990216	0	-0.139543	0		$|
1744402	0	object/static/structure/naboo/nboo_imprv_metal_fence_wall_lg_s02.iff	0	897.736	-192	668.727	0.35012	0	0.936705	0		$|
1744404	0	object/static/structure/naboo/nboo_imprv_metal_fence_wall_lg_s02.iff	0	893.105	-192	664.675	0.401083	0	0.916042	0		$|
1744405	0	object/static/structure/naboo/nboo_imprv_metal_fence_wall_lg_s02.iff	0	876.303	-192	647.403	0.92388	0	-0.382683	0		$|
1744407	0	object/static/structure/naboo/nboo_imprv_metal_fence_wall_lg_s02.iff	0	880.655	-192	651.785	0.92388	0	-0.382683	0		$|
1744408	0	object/static/structure/naboo/nboo_imprv_metal_fence_wall_lg_s02.iff	0	865.752	-192	636.852	0.382683	0	0.92388	0		$|
1744409	0	object/static/structure/naboo/nboo_imprv_metal_fence_wall_lg_s02.iff	0	870.104	-192	641.233	0.382683	0	0.92388	0		$|
1744410	0	object/static/structure/naboo/nboo_imprv_metal_fence_wall_sml_s01.iff	0	884.526	-205.134	722.376	-0.58323	0	0.812307	0		$|
1744411	0	object/static/structure/naboo/nboo_imprv_metal_fence_wall_sml_s01.iff	0	879.832	-205.039	720.41	-0.58323	0	0.812308	0		$|
1744412	0	object/static/structure/naboo/nboo_imprv_pillar_lattice_s01.iff	0	884.307	-205.829	723.049	-0.581359	0	0.813647	0		$|
1744413	0	object/static/structure/naboo/nboo_imprv_pillar_lattice_s01.iff	0	879.6	-205.829	721.055	-0.581359	0	0.813647	0		$|
1744426	0	object/static/structure/naboo/bridge_stairs_s01.iff	0	862.514	-199.328	677.045	0.856318	0	0.516449	0		$|
1744427	0	object/static/structure/naboo/elevated_walkway_s01.iff	0	856.447	-206.205	688.542	0.856318	0	0.516449	0		$|
1744429	0	object/static/structure/naboo/elevated_walkway_cap_s01.iff	0	864.38	-199.286	673.506	0.856318	0	0.516449	0		$|
1744430	0	object/static/structure/naboo/elevated_walkway_cap_s01.iff	0	858.781	-206.205	684.122	0.856318	0	0.516449	0		$|
1744431	0	object/static/structure/naboo/elevated_walkway_cap_s01.iff	0	854.115	-206.176	692.965	0.856318	0	0.516449	0		$|
1744440	0	object/static/structure/naboo/nboo_imprv_pillar_pillar_s01.iff	0	941.931	-192	501.359	0.86896	0	0.494882	0		$|
1744441	0	object/static/structure/naboo/nboo_imprv_pristine_wall_large_s01.iff	0	952.15	-192	484.161	0.86896	0	0.494882	0		$|
1744442	0	object/static/structure/naboo/nboo_imprv_pillar_pillar_s01.iff	0	952.644	-192	483.297	0.86896	0	0.494882	0		$|
1744444	0	object/static/structure/naboo/nboo_imprv_pristine_wall_large_s01.iff	0	962.493	-192	466.426	0.866475	0	0.499221	0		$|
1744445	0	object/static/structure/naboo/nboo_imprv_pristine_wall_large_s01.iff	0	988.622	-191.977	436.147	0.920006	0	0.391903	0		$|
1744446	0	object/static/structure/naboo/nboo_imprv_pillar_pillar_s01.iff	0	976.189	-191.969	449.301	0.941851	0	-0.33603	0		$|
1744447	0	object/static/structure/naboo/nboo_imprv_pillar_pillar_s01.iff	0	962.89	-191.97	465.575	-0.42838	0	0.903599	0		$|
1744448	0	object/static/structure/naboo/nboo_imprv_pristine_wall_large_s01.iff	0	975.557	-191.969	450.076	0.903599	0	0.42838	0		$|
1744449	0	object/static/structure/naboo/nboo_imprv_pillar_pillar_s01.iff	0	989.152	-192.045	435.614	-0.380189	0	0.924909	0		$|
1744450	0	object/static/installation/mockup_power_generator_wind_style_1.iff	0	1047.78	-192	426.404	0.405235	0	0.914213	0		$|
1744451	0	object/static/installation/mockup_power_generator_wind_style_1.iff	0	1077.97	-192	404.437	0.841485	0	-0.54028	0		$|
1744453	0	object/static/installation/mockup_power_generator_photo_bio_style_1.iff	0	1101.36	-192	410.516	-0.378059	0	0.925781	0		$|
1744454	0	object/static/installation/mockup_power_generator_wind_style_1.iff	0	1099.37	-192	402.212	-0.315322	0	0.948985	0		$|
1744466	0	object/static/structure/tatooine/debris_tatt_crate_metal_1.iff	0	971.899	-191.304	473.674	-0.183163	0	0.983083	0		$|
1744467	0	object/static/structure/tatooine/debris_tatt_drum_storage_1.iff	0	971.129	-192	474.247	0.893107	0	-0.449845	0		$|
1744468	0	object/static/structure/tatooine/debris_tatt_crate_metal_1.iff	0	972.359	-191.552	473.121	-0.538585	0.317972	0.678621	-0.385088		$|
1744469	0	object/static/structure/tatooine/debris_tatt_crate_1.iff	0	971.868	-192	473.685	0.928369	0	-0.37166	0		$|
1744471	0	object/static/structure/tatooine/debris_tatt_pipe_widemouth.iff	0	973.138	-192	472.231	-0.484504	0	0.874789	0		$|
1744472	0	object/static/structure/tatooine/debris_tatt_pipe_dual_unconnected.iff	0	969.973	-192	475.45	-0.703846	0	0.710353	0		$|
1744474	0	object/static/structure/tatooine/debris_tatt_pipe_widemouth.iff	0	969.5	-192	475.93	0.707108	0	-0.707106	0		$|
1744475	0	object/static/installation/mockup_power_generator_photo_bio_style_1.iff	0	984.984	-192	457.318	-0.382683	0	0.92388	0		$|
1744477	0	object/static/structure/naboo/nboo_imprv_pristine_wall_large_s02.iff	0	996.013	-192	453.408	0.92388	0	-0.382683	0		$|
1744478	0	object/static/structure/naboo/nboo_imprv_pillar_pillar_s01.iff	0	988.467	-192.198	445.84	0.92388	0	0.382683	0		$|
1744481	0	object/static/structure/naboo/wall_naboo_theed_style_1.iff	0	1052	-193.806	436	0.92388	0	-0.382683	0		$|
1744482	0	object/static/structure/naboo/wall_naboo_theed_style_1.iff	0	1051.95	-193.803	435.978	0.382683	0	0.92388	0		$|
1744483	0	object/static/structure/naboo/wall_naboo_theed_style_1.iff	0	1067	-193.806	450	-0.382684	0	0.923879	0		$|
1744485	0	object/static/structure/naboo/wall_naboo_theed_style_1.iff	0	1063.13	-193.806	406.152	0.976397	0	0.215984	0		$|
1744487	0	object/static/structure/naboo/gate_narrow_s02.iff	0	1040.86	-192	418.148	-0.382683	0	0.92388	0		$|
1744488	0	object/static/structure/naboo/wall_naboo_theed_style_1.iff	0	1082.33	-193.806	397.16	0.976397	0	0.215984	0		$|
1744489	0	object/static/structure/naboo/wall_naboo_theed_style_1.iff	0	1103.67	-193.806	397.117	1	0	0	0		$|
1744491	0	object/static/structure/naboo/wallend_naboo_theed_style_1.iff	0	1110.99	-193.806	405.063	0.92388	0	-0.382683	0		$|
1744493	0	object/static/structure/naboo/wallend_naboo_theed_style_1.iff	0	1104.38	-193.806	412.882	-0.380188	0	0.924909	0		$|
1744494	0	object/static/structure/naboo/wallend_naboo_theed_style_1.iff	0	1082.26	-193.806	434.831	-0.382684	0	0.923879	0		$|
1744495	0	object/static/structure/naboo/wallend_naboo_theed_style_1.iff	0	1103.99	-193.806	413.251	0.924909	0	0.380188	0		$|
1744496	0	object/static/structure/naboo/gate_narrow_s02.iff	0	1093.18	-192	424.023	0.92388	0	0.382683	0		$|
1744498	0	object/static/installation/mockup_mining_gas_harvester_style_1.iff	0	1054.75	-192	414.691	0.535416	0	0.844589	0		$|
1744499	0	object/static/installation/mockup_factory_item_style_1.iff	0	1089.19	-192	404.105	0.705196	0	0.709013	0		$|
1744501	0	object/static/installation/mockup_factory_machine_style_1.iff	0	1069.31	-191.869	426.819	0.92388	0	-0.382683	0		$|
1744502	0	object/static/structure/naboo/nboo_imprv_pillar_pillar_s03.iff	0	1039.6	-193.4	584.73	0.988771	0	0.149438	0		$|
1744503	0	object/static/structure/naboo/nboo_imprv_short_curved_wall_large_s01.iff	0	1030.82	-192	576.36	0.999388	0	0.0349929	0		$|
1744504	0	object/static/structure/naboo/nboo_imprv_pillar_pillar_s03.iff	0	1030.13	-193.4	576.236	0.997551	0	-0.0699428	0		$|
1744505	0	object/static/structure/naboo/nboo_imprv_short_curved_wall_large_s01.iff	0	1048.27	-192	592.755	-0.0349929	0	0.999388	0		$|
1744506	0	object/static/structure/naboo/nboo_imprv_pillar_pillar_s03.iff	0	1047.17	-193.4	592.541	0.0699428	0	0.997551	0		$|
1744508	0	object/static/structure/naboo/nboo_imprv_pillar_pillar_s03.iff	0	1064.48	-193.4	609.623	0.0699428	0	0.997551	0		$|
1744509	0	object/static/structure/naboo/nboo_imprv_short_curved_wall_large_s01.iff	0	1048.2	-192	592.729	0.999388	0	0.0349929	0		$|
1744510	0	object/static/structure/naboo/nboo_imprv_pillar_pillar_s03.iff	0	1057	-193.4	601.087	0.990901	0	0.13459	0		$|
1744511	0	object/static/structure/naboo/nboo_imprv_short_curved_wall_large_s01.iff	0	1065.42	-192	609.78	0.999388	0	0.0349929	0		$|
1744512	0	object/static/structure/naboo/nboo_imprv_pillar_pillar_s03.iff	0	1074.16	-193.4	618.192	0.992198	0	0.124675	0		$|
1744513	0	object/static/structure/naboo/nboo_imprv_pillar_pillar_s03.iff	0	1082.03	-193.4	626.203	0.0449848	0	0.998988	0		$|
1744514	0	object/static/structure/naboo/nboo_imprv_short_curved_wall_large_s01.iff	0	1082.83	-192	626.303	-0.0349929	0	0.999388	0		$|
1744515	0	object/static/structure/naboo/nboo_imprv_short_curved_wall_large_s01.iff	0	1082.46	-192	626.164	0.999388	0	0.0349929	0		$|
1744516	0	object/static/structure/naboo/nboo_imprv_pillar_pillar_s03.iff	0	1091.2	-193.4	634.564	0.990901	0	0.13459	0		$|
1744517	0	object/static/structure/naboo/nboo_imprv_pillar_pillar_s03.iff	0	1072.04	-193.4	636.885	-0.139543	0	0.990216	0		$|
1744518	0	object/static/structure/naboo/nboo_imprv_short_curved_wall_large_s01.iff	0	1080.84	-192	645.219	-0.0349929	0	0.999388	0		$|
1744519	0	object/static/structure/naboo/nboo_imprv_pillar_pillar_s03.iff	0	1081.46	-193.4	645.368	0.0898785	0	0.995953	0		$|
1744520	0	object/static/structure/naboo/nboo_imprv_short_curved_wall_large_s01.iff	0	1063.39	-192	628.828	0.999388	0	0.0349929	0		$|
1744521	0	object/static/structure/naboo/nboo_imprv_pillar_pillar_s03.iff	0	1064.34	-193.4	629.01	0.997888	0	-0.0649542	0		$|
1744523	0	object/static/structure/naboo/nboo_imprv_pillar_pillar_s03.iff	0	1047.14	-193.4	611.733	0.999388	0	-0.0349928	0		$|
1744524	0	object/static/structure/naboo/nboo_imprv_short_curved_wall_large_s01.iff	0	1063.46	-192	628.854	-0.0349929	0	0.999388	0		$|
1744525	0	object/static/structure/naboo/nboo_imprv_pillar_pillar_s03.iff	0	1054.67	-193.4	620.505	-0.149438	0	0.988771	0		$|
1744526	0	object/static/structure/naboo/nboo_imprv_short_curved_wall_large_s01.iff	0	1046.48	-192	611.65	-0.0349929	0	0.999388	0		$|
1744527	0	object/static/structure/naboo/nboo_imprv_pillar_pillar_s03.iff	0	1037.76	-193.4	603.373	-0.13459	0	0.990901	0		$|
1744529	0	object/static/structure/naboo/nboo_imprv_short_curved_wall_large_s01.iff	0	1029.13	-192	595.194	0.999388	0	0.0349929	0		$|
1744530	0	object/static/structure/naboo/nboo_imprv_short_curved_wall_large_s01.iff	0	1029.21	-192	595.207	-0.0349929	0	0.999388	0		$|
1744531	0	object/static/structure/naboo/nboo_imprv_pillar_pillar_s03.iff	0	1020.43	-193.4	586.812	-0.144492	0	0.989506	0		$|
1744532	0	object/static/structure/naboo/planter_naboo_theed_style_1.iff	0	1042.33	-192	606.823	0.803801	0	-0.594899	0		$|
1744535	0	object/static/structure/naboo/planter_naboo_theed_style_1.iff	0	1024.84	-192	591.253	0.984589	0	0.174882	0		$|
1744536	0	object/static/structure/naboo/planter_naboo_theed_style_1.iff	0	1034.65	-192	580.528	-0.493002	0	0.870028	0		$|
1744537	0	object/static/structure/naboo/planter_naboo_theed_style_1.iff	0	1052.6	-192	597.096	0.967967	0	0.251077	0		$|
1744545	0	object/static/structure/naboo/planter_naboo_theed_style_1.iff	0	1059.22	-192	624.766	-0.643086	0	0.765794	0		$|
1744546	0	object/static/structure/naboo/planter_naboo_theed_style_1.iff	0	1069.9	-192	613.777	0.264234	0	0.964459	0		$|
1744547	0	object/static/structure/naboo/planter_naboo_theed_style_1.iff	0	1077.15	-192	641.253	0.90104	0	0.433735	0		$|
1744548	0	object/static/structure/naboo/planter_naboo_theed_style_1.iff	0	1086.75	-192	630.262	0.313554	0	0.94957	0		$|
1744551	0	object/static/structure/naboo/streetlamp_naboo_theed_style_1.iff	0	1054.19	-192	618.759	0.989506	0	0.144492	0		$|
1744558	0	object/static/structure/naboo/streetlamp_naboo_theed_style_1.iff	0	1057.42	-192	602.772	0.990901	0	0.13459	0		$|
1744560	0	object/static/structure/naboo/streetlamp_naboo_theed_style_1.iff	0	1028.53	-192	576.011	0.997551	0	-0.0699428	0		$|
1744561	0	object/static/structure/naboo/streetlamp_naboo_theed_style_1.iff	0	1020.52	-192	585.165	1	0	0	0		$|
1744562	0	object/static/structure/naboo/streetlamp_naboo_theed_style_1.iff	0	1091.66	-192	636.097	0.990901	0	0.13459	0		$|
1744563	0	object/static/structure/naboo/streetlamp_naboo_theed_style_1.iff	0	1083.07	-192	645.718	0.995953	0	-0.0898786	0		$|
1744598	0	object/static/structure/naboo/fountain_naboo_style_1.iff	0	1055.84	-192.118	610.615	0.924909	0	-0.380188	0		$|
1744605	0	object/static/flora/potted_plant_flowers_purple.iff	0	1051.59	-191.968	607.82	0.648882	0	0.760889	0		$|
1744606	0	object/static/flora/potted_plant_flowers_purple.iff	0	1053	-191.968	606.396	-0.345735	0	0.938332	0		$|
1744607	0	object/static/flora/potted_plant_flowers_purple.iff	0	1060.11	-191.968	613.43	0.891077	0	-0.453853	0		$|
1744608	0	object/static/flora/potted_plant_flowers_purple.iff	0	1058.7	-191.968	614.851	-0.503471	0	0.864012	0		$|
1744609	0	object/static/structure/naboo/obelisk_naboo_theed_style_1.iff	0	1038.69	-192	593.764	0.92388	0	0.382683	0		$|
1744610	0	object/static/structure/naboo/obelisk_naboo_theed_style_1.iff	0	1073.2	-192	627.906	0.92388	0	0.382683	0		$|
1744629	0	object/tangible/furniture/all/frn_all_chair_wooden_s1.iff	0	866	-206.854	742	1	0	0	0		$|
1744632	0	object/tangible/furniture/all/frn_all_chair_wooden_s1.iff	0	864	-206.88	742	1	0	0	0		$|
1744633	0	object/tangible/furniture/tatooine/frn_tato_cafe_parasol.iff	0	865	-206.869	742	0.979061	-0.203567	0	0		$|
1744634	0	object/tangible/furniture/all/frn_all_chair_wooden_s1.iff	0	883.722	-206.441	743.256	0.984727	0	-0.174108	0		$|
1744635	0	object/tangible/furniture/all/frn_all_chair_wooden_s1.iff	0	881.844	-206.475	742.568	0.984727	0	-0.174108	0		$|
1744636	0	object/tangible/furniture/tatooine/frn_tato_cafe_parasol.iff	0	882.734	-206.48	743.329	0.966906	-0.165976	-0.190973	-0.0327819		$|
1744640	0	object/tangible/furniture/all/frn_all_chair_wooden_s1.iff	0	848.758	-207.196	748.202	0.979061	0	0.203567	0		$|
1744641	0	object/tangible/furniture/all/frn_all_chair_wooden_s1.iff	0	846.917	-207.166	749.001	0.979061	0	0.203567	0		$|
1744642	0	object/tangible/furniture/tatooine/frn_tato_cafe_parasol.iff	0	847.739	-207.017	748.592	0.95856	-0.199305	0.199305	-0.0414395		$|
1744643	0	object/tangible/furniture/all/frn_all_chair_wooden_s1.iff	0	884.093	-206.921	755.73	1	0	0	0		$|
1744644	0	object/tangible/furniture/all/frn_all_chair_wooden_s1.iff	0	882.093	-207.005	755.73	1	0	0	0		$|
1744645	0	object/tangible/furniture/tatooine/frn_tato_cafe_parasol.iff	0	883.093	-206.962	755.73	0.979061	-0.203567	0	0		$|
1744646	0	object/tangible/furniture/all/frn_all_chair_wooden_s1.iff	0	856.918	-207.652	756.814	1	0	0	0		$|
1744647	0	object/tangible/furniture/all/frn_all_chair_wooden_s1.iff	0	854.918	-207.657	756.814	1	0	0	0		$|
1744648	0	object/tangible/furniture/tatooine/frn_tato_cafe_parasol.iff	0	855.918	-207.656	756.814	0.979061	-0.203567	0	0		$|
1744649	0	object/tangible/furniture/all/frn_all_chair_wooden_s1.iff	0	852.085	-206.324	733.43	1	0	0	0		$|
1744650	0	object/tangible/furniture/all/frn_all_chair_wooden_s1.iff	0	850.085	-206.3	733.43	1	0	0	0		$|
1744651	0	object/tangible/furniture/tatooine/frn_tato_cafe_parasol.iff	0	851.085	-206.313	733.43	0.979061	-0.203567	0	0		$|
1744688	0	object/static/structure/naboo/nboo_imprv_metal_fence_wall_sml_s01.iff	0	851.357	-203.331	703.995	-0.537693	0	0.843141	0		$|
1744689	0	object/static/structure/naboo/nboo_imprv_metal_fence_wall_sml_s01.iff	0	846.782	-203.331	701.841	-0.537693	0	0.843141	0		$|
1744690	0	object/static/structure/naboo/nboo_imprv_pillar_lattice_s01.iff	0	851.065	-204.038	704.64	-0.535752	0	0.844376	0		$|
1744691	0	object/static/structure/naboo/nboo_imprv_pillar_lattice_s01.iff	0	846.482	-204.038	702.457	-0.535752	0	0.844376	0		$|
1744692	0	object/static/structure/naboo/bridge_stairs_s01.iff	0	851.989	-206.215	697.053	0.854922	0	0.518757	0		$|
1744721	0	object/static/structure/general/skeleton_human_head.iff	0	706.998	-208.359	761.893	0.865324	0	-0.501213	0		$|
1744722	0	object/static/structure/general/skeleton_bith_head.iff	0	707.173	-208.327	762.067	0.994493	0	-0.104807	0		$|
1744723	0	object/static/structure/tatooine/pillar_watto_junkshop.iff	0	708.431	-209.174	762.813	0.771246	0	-0.636537	0		$|
1744724	0	object/static/structure/tatooine/pillar_watto_junkshop.iff	0	707.864	-210.042	761.08	0.819648	0	-0.572867	0		$|
1744726	0	object/static/structure/tatooine/pillar_watto_junkshop.iff	0	706.223	-210.841	761.118	0.819648	0	-0.572867	0		$|
1744772	0	object/tangible/furniture/all/frn_all_chair_wooden_s1.iff	0	1064.55	-192	699.804	1	0	0	0		$|
1744773	0	object/tangible/furniture/all/frn_all_chair_wooden_s1.iff	0	1062.55	-192	699.804	1	0	0	0		$|
1744774	0	object/tangible/furniture/tatooine/frn_tato_cafe_parasol.iff	0	1063.55	-192	699.804	0.979061	-0.203567	0	0		$|
1744779	0	object/tangible/furniture/all/frn_all_chair_wooden_s1.iff	0	1051.59	-192	704.627	0.984727	0	0.174108	0		$|
1744780	0	object/tangible/furniture/all/frn_all_chair_wooden_s1.iff	0	1049.71	-192.012	705.313	0.984727	0	0.174108	0		$|
1744781	0	object/tangible/furniture/tatooine/frn_tato_cafe_parasol.iff	0	1050.65	-191.934	704.955	0.964107	-0.200458	0.170463	0.0354427		$|
1744782	0	object/tangible/furniture/all/frn_all_chair_wooden_s1.iff	0	1073.66	-192	706.031	0.985585	0	-0.169182	0		$|
1744783	0	object/tangible/furniture/all/frn_all_chair_wooden_s1.iff	0	1071.77	-192	705.366	0.985585	0	-0.169182	0		$|
1744784	0	object/tangible/furniture/tatooine/frn_tato_cafe_parasol.iff	0	1072.76	-191.878	705.632	0.96183	-0.215084	-0.165105	-0.0369206		$|
1744785	0	object/static/structure/naboo/nboo_imprv_lattice_wall_long_s01.iff	0	1047.2	-192	679.117	0.932184	0	-0.361985	0		$|
1744788	0	object/static/structure/naboo/nboo_imprv_lattice_wall_long_s01.iff	0	1080.34	-192	682.497	-0.326595	0	0.945164	0		$|
1744789	0	object/static/structure/naboo/nboo_imprv_lattice_wall_long_s01.iff	0	1054.77	-192	683.063	0.991959	0	-0.126563	0		$|
1744790	0	object/static/structure/naboo/nboo_imprv_pillar_lattice_s01.iff	0	1059.5	-192	684.239	0.993745	0	-0.111669	0		$|
1744791	0	object/static/structure/naboo/nboo_imprv_lattice_wall_long_s01.iff	0	1072.24	-192	685.641	-0.0180962	0	0.999836	0		$|
1744792	0	object/static/structure/naboo/nboo_imprv_pillar_lattice_s01.iff	0	1067.21	-192	685.74	0.999836	0	0.018096	0		$|
1744793	0	object/static/structure/naboo/gate_narrow_s02.iff	0	1063.3	-192	685.138	0.996226	0	-0.0867933	0		$|
1744794	0	object/static/structure/naboo/nboo_imprv_lattice_wall_long_s01.iff	0	973.54	-192	664.731	0.937509	0	-0.347962	0		$|
1744795	0	object/static/structure/naboo/nboo_imprv_lattice_wall_long_s01.iff	0	1006.31	-192	665.663	-0.373425	0	0.92766	0		$|
1744796	0	object/static/structure/naboo/nboo_imprv_lattice_wall_long_s01.iff	0	981.227	-192	668.473	0.994291	0	-0.1067	0		$|
1744797	0	object/static/structure/naboo/nboo_imprv_pillar_lattice_s01.iff	0	986.107	-192	669.497	0.999122	0	-0.04189	0		$|
1744798	0	object/static/structure/naboo/nboo_imprv_lattice_wall_long_s01.iff	0	998.63	-192	669.408	-0.0280933	0	0.999605	0		$|
1744799	0	object/static/structure/naboo/nboo_imprv_pillar_lattice_s01.iff	0	993.605	-192	669.705	0.999452	0	0.0330909	0		$|
1765354	0	object/static/structure/naboo/nboo_imprv_pillar_pillar_s01.iff	0	1051.87	-190.938	435.858	0.92388	0	-0.382683	0		$|
1785428	0	object/tangible/furniture/modern/table_modern_style_01.iff	0	885.384	-192	661.094	0.92766	0	-0.373426	0		$|
1785431	0	object/tangible/furniture/elegant/love_seat_s01.iff	0	882.087	-192	657.899	0.920006	0	0.391903	0		$|
1785432	0	object/tangible/furniture/elegant/love_seat_s01.iff	0	886.798	-192	662.508	-0.391908	0	0.920004	0		$|
1785451	0	object/tangible/furniture/elegant/couch_s01.iff	0	884.916	-192	657.899	0.92388	0	-0.382683	0		$|
1785453	0	object/tangible/furniture/modern/table_modern_style_01.iff	0	883.501	-192	659.314	0.92388	0	0.382683	0		$|
1785465	0	object/tangible/furniture/elegant/couch_s01.iff	0	887.037	-192	660.021	0.92388	0	-0.382683	0		$|
1785471	0	object/tangible/furniture/modern/table_modern_style_01.iff	0	882.251	-192	676.195	0.995004	0	0.0998333	0		$|
1785474	0	object/tangible/furniture/elegant/love_seat_s01.iff	0	880.291	-192	676.593	0.632981	0	0.774167	0		$|
1785475	0	object/tangible/furniture/elegant/love_seat_s01.iff	0	882.648	-192	678.154	-0.0998351	0	0.995004	0		$|
1785480	0	object/static/flora/potted_plant_flowers_purple.iff	0	883.537	-192	656.336	-0.607842	0	0.794058	0		$|
1785481	0	object/static/flora/potted_plant_flowers_purple.iff	0	888.563	-192	661.255	0.99487	0	-0.101165	0		$|
1785503	0	object/tangible/furniture/modern/table_modern_style_01.iff	0	879.025	-192	667.902	0.825111	0	-0.564971	0		$|
1785504	0	object/tangible/furniture/elegant/love_seat_s01.iff	0	880.887	-192	667.18	0.825111	0	-0.564971	0		$|
1785505	0	object/tangible/furniture/elegant/love_seat_s01.iff	0	877.16	-192	668.626	0.564971	0	0.825111	0		$|
1785506	0	object/tangible/furniture/elegant/love_seat_s01.iff	0	878.3	-192	666.036	0.982936	0	0.183947	0		$|
1785507	0	object/tangible/furniture/elegant/love_seat_s01.iff	0	879.746	-192	669.766	-0.183949	0	0.982936	0		$|
1785509	0	object/static/structure/naboo/nboo_imprv_metal_fence_wall_sml_s02.iff	0	875.596	-192	666.548	0.758102	0	0.652136	0		$|
1785512	0	object/static/structure/naboo/nboo_imprv_metal_fence_wall_sml_s02.iff	0	878.8	-192	659.184	-0.382683	0	0.92388	0		$|
1785514	0	object/static/structure/naboo/nboo_imprv_metal_fence_wall_sml_s01.iff	0	875.995	-192	663.383	0.748236	0	0.663433	0		$|
1785517	0	object/static/structure/naboo/nboo_imprv_metal_fence_wall_sml_s02.iff	0	893.083	-192	670.955	0.707107	0	-0.707106	0		$|
1785518	0	object/static/structure/naboo/nboo_imprv_metal_fence_wall_sml_s02.iff	0	891.251	-192	676.219	0.857504	0	0.514477	0		$|
1785524	0	object/static/structure/naboo/planter_naboo_theed_style_1.iff	0	887.422	-192	678.423	0.989905	0	-0.141734	0		$|
1785526	0	object/static/structure/naboo/planter_naboo_theed_style_1.iff	0	890.472	-192	665.149	1	0	-0.000697757	0		$|
1785528	0	object/static/structure/naboo/planter_naboo_theed_style_1.iff	0	877.12	-192	671.722	0.813229	0	-0.581944	0		$|
1785536	0	object/tangible/furniture/modern/table_modern_style_01.iff	0	887.994	-192	668.399	0.995953	0	0.0898786	0		$|
1785537	0	object/tangible/furniture/elegant/love_seat_s01.iff	0	887.634	-192	666.432	0.995953	0	0.0898786	0		$|
1785538	0	object/tangible/furniture/elegant/love_seat_s01.iff	0	888.353	-192	670.367	-0.0898786	0	0.995953	0		$|
1785539	0	object/tangible/furniture/elegant/love_seat_s01.iff	0	886.026	-192	668.758	0.640691	0	0.767799	0		$|
1785540	0	object/tangible/furniture/elegant/love_seat_s01.iff	0	889.961	-192	668.04	0.7678	0	-0.640689	0		$|
1785543	0	object/static/flora/potted_plant_flowers_purple.iff	0	878.589	-192	675.643	0.894026	0	-0.448014	0		$|
1785544	0	object/static/flora/potted_plant_flowers_purple.iff	0	884.271	-192	679.518	-0.0298637	0	0.999554	0		$|
1785552	0	object/static/flora/flora_tree_palm_thk.iff	0	930.825	-192	626.893	0.997189	0	-0.0749296	0		$|
1785553	0	object/static/flora/flora_tree_palm_fngi.iff	0	952.896	-192	645.588	0.351529	0	0.936177	0		$|
1785566	0	object/static/flora/flora_tree_palm_sm.iff	0	1045.73	-192	694.273	0.534231	0	0.845338	0		$|
1785568	0	object/static/flora/flora_tree_palm_fngi.iff	0	1027.28	-192	693.918	0.322371	0	0.946613	0		$|
1785569	0	object/static/flora/flora_tree_palm_sm.iff	0	1026.52	-192	692.724	0.322371	0	0.946613	0		$|
1785582	0	object/static/flora/flora_tree_palm_sm.iff	0	986.927	-191.857	669.131	0.989408	0.00934185	-0.0743451	-0.124324		$|
1785583	0	object/static/flora/flora_tree_palm_sm.iff	0	992.67	-191.668	669.45	0.079076	-0.14403	0.986341	-0.0115471		$|
1785584	0	object/static/flora/flora_tree_palm_sm.iff	0	986.888	-192	669.97	0.989408	0.009342	-0.074345	-0.124324		$|
1785585	0	object/static/flora/flora_tree_palm_sm.iff	0	992.631	-191.811	670.289	0.079076	-0.14403	0.986341	-0.011547		$|
1785586	0	object/static/flora/flora_tree_palm_thk.iff	0	999.481	-192	681.211	0.323648	0	0.946178	0		$|
1785587	0	object/static/flora/flora_tree_palm_fngi.iff	0	994.605	-192	690.528	0.323648	0	0.946178	0		$|
1785588	0	object/static/flora/flora_tree_palm_fngi.iff	0	997.864	-192	690.903	0.562788	0	0.826601	0		$|
1785589	0	object/static/flora/flora_tree_palm_fngi.iff	0	1057.84	-192	690.222	-0.410932	0	0.911666	0		$|
1785591	0	object/static/flora/flora_tree_palm_thk.iff	0	1040.97	-192	702.287	0.837457	0	0.546503	0		$|
1785626	0	object/tangible/furniture/all/frn_all_table_s02.iff	0	990.852	-192	646.826	1	0	0	0		$|
1785629	0	object/tangible/furniture/all/frn_all_table_s02.iff	0	989.852	-192	645.826	1	0	0	0		$|
1785630	0	object/tangible/furniture/all/frn_all_table_s02.iff	0	988.852	-192	644.826	1	0	0	0		$|
1785633	0	object/static/item/item_bowl_carved.iff	0	990.951	-191.241	647.092	-0.695564	0	0.718464	0		$|
1785634	0	object/static/item/item_fruit_melon.iff	0	990.875	-191.21	647.123	-0.68799	-0.192466	0.699679	0.00872899		$|
1785635	0	object/static/item/item_fruit_melon.iff	0	991.036	-191.21	647.178	-0.697656	0.077099	0.707168	0.085128		$|
1785636	0	object/static/item/item_fruit_melon.iff	0	991.01	-191.21	647.023	-0.692772	-0.062288	0.714145	-0.078644		$|
1785637	0	object/static/item/item_bread_loaf.iff	0	987.161	-191.924	644.386	0.038974	0	0.99924	0		$|
1785638	0	object/static/item/item_cheese_wheel_s1_partial.iff	0	987.354	-191.861	644.292	0.00556199	0.387431	0.506932	0.769991		$|
1785639	0	object/static/item/item_fruit_melon.iff	0	987.365	-191.988	644.5	0.199539	-0.110959	0.964601	-0.131974		$|
1785640	0	object/static/item/item_fruit_melon.iff	0	987.517	-191.956	644.329	0.244677	-0.036543	0.938348	0.241456		$|
1785641	0	object/static/item/item_basket_shallow.iff	0	987.365	-192.019	644.387	0.012391	0	0.999923	0		$|
1785642	0	object/static/item/item_bread_loaf.iff	0	987.533	-191.956	644.573	0.409943	0	0.912111	0		$|
1785643	0	object/static/item/item_cheese_wheel_s1_partial.iff	0	987.304	-191.925	644.657	-0.486089	0	0.873909	0		$|
1785644	0	object/static/item/item_fruit_melon.iff	0	987.272	-191.956	644.15	-0.050677	-0.139668	0.968221	0.201179		$|
1785645	0	object/static/item/item_bread_loaf.iff	0	987.503	-191.956	644.129	0.789971	0.108287	-0.603239	-0.017949		$|
1785646	0	object/static/structure/tatooine/debris_tatt_crate_metal_1.iff	0	967.683	-191.304	477.766	-0.475031	0	0.879969	0		$|
1785647	0	object/static/structure/tatooine/debris_tatt_drum_storage_1.iff	0	968.801	-192	476.715	0.422854	0	0.906198	0		$|
1785649	0	object/static/structure/tatooine/debris_tatt_crate_1.iff	0	967.973	-192	477.468	0.9391	0	-0.343645	0		$|
1785650	0	object/static/structure/tatooine/debris_tatt_crate_1.iff	0	967.118	-192	478.156	0.852524	0	-0.522687	0		$|
1785654	0	object/static/item/item_bottle_tall.iff	0	989.732	-191.241	645.516	1	0	0	0		$|
1785655	0	object/static/item/item_bottle_fat.iff	0	989.766	-191.241	646.08	1	0	0	0		$|
1785657	0	object/static/item/item_bottle_fat.iff	0	989.473	-191.241	645.861	1	0	0	0		$|
1785659	0	object/static/item/item_bottle_tall.iff	0	990.209	-191.304	645.894	1	0	0	0		$|
1785661	0	object/static/item/item_bottle_tall.iff	0	988.523	-191.273	644.633	1	0	0	0		$|
1785662	0	object/static/item/item_bottle_fat.iff	0	988.907	-191.273	644.635	1	0	0	0		$|
1785666	0	object/static/item/item_con_bowl_full.iff	0	990.539	-191.273	646.655	0.819648	0	-0.572868	0		$|
1785667	0	object/static/item/item_container_organic_food.iff	0	993.056	-192	645.482	0.92388	0	-0.382683	0		$|
1785668	0	object/static/item/item_container_organic_food.iff	0	992.668	-192	645.099	0.92388	0	-0.382683	0		$|
1785672	0	object/static/item/item_glass_white.iff	0	988.921	-192	644.937	0.859455	0	0.511211	0		$|
1785673	0	object/static/item/item_glass_white.iff	0	988.734	-192	644.972	0.859455	0	0.511211	0		$|
1785674	0	object/static/item/item_glass_white.iff	0	988.779	-192	645.104	0.859455	0	0.511211	0		$|
1785675	0	object/static/item/item_glass_white.iff	0	988.95	-192	645.22	0.859455	0	0.511211	0		$|
1785681	0	object/tangible/furniture/all/frn_all_lamp_candlestick_free_s02.iff	0	991.025	-191.241	646.539	1	0	0	0		$|
1785682	0	object/tangible/furniture/all/frn_all_lamp_candlestick_free_s02.iff	0	990.077	-191.241	645.515	1	0	0	0		$|
1785683	0	object/tangible/furniture/all/frn_all_lamp_candlestick_free_s02.iff	0	989.189	-191.146	644.634	1	0	0	0		$|
1785748	0	object/tangible/furniture/all/frn_all_table_s03.iff	0	978.69	-192	661.481	0.997888	0	-0.0649542	0		$|
1785750	0	object/tangible/furniture/modern/sofa_chair_modern_style_01.iff	0	978.928	-192	659.499	0.997888	0	-0.0649543	0		$|
1785751	0	object/tangible/furniture/modern/sofa_chair_modern_style_01.iff	0	978.43	-192	663.462	0.0649542	0	0.997888	0		$|
1785752	0	object/tangible/furniture/modern/sofa_chair_modern_style_01.iff	0	976.707	-192	661.221	0.751544	0	0.659683	0		$|
1785765	0	object/tangible/furniture/all/frn_all_table_s03.iff	0	980.672	-192	661.738	0.995004	0	-0.0998326	0		$|
1785767	0	object/tangible/furniture/modern/sofa_chair_modern_style_01.iff	0	980.414	-192	663.721	0.0649542	0	0.997888	0		$|
1785768	0	object/tangible/furniture/modern/sofa_chair_modern_style_01.iff	0	980.932	-192	659.755	0.997888	0	-0.0649542	0		$|
1785769	0	object/tangible/furniture/modern/sofa_chair_modern_style_01.iff	0	982.656	-192	661.995	-0.659684	0	0.751543	0		$|
1785782	0	object/static/flora/flora_tree_palm_fngi.iff	0	1002.36	-192	665.782	0.763666	0	-0.645611	0		$|
1785783	0	object/static/flora/flora_tree_palm_sm.iff	0	994.734	-192	652.024	-0.0281335	0	0.999604	0		$|
1785784	0	object/static/flora/flora_tree_palm_sm.iff	0	983.148	-192	640.582	-0.612433	0	0.790522	0		$|
1785785	0	object/static/flora/flora_tree_palm_thk.iff	0	974.708	-192	649.964	0.976561	0	-0.215242	0		$|
1785786	0	object/static/flora/flora_tree_palm_fngi.iff	0	982.608	-192	658.563	0.601043	0	0.799217	0		$|
1785787	0	object/tangible/furniture/all/frn_all_tiki_torch_s1.iff	0	988	-192	671	1	0	0	0		$|
1785788	0	object/tangible/furniture/all/frn_all_tiki_torch_s1.iff	0	992	-192	671	1	0	0	0		$|
1785800	0	object/tangible/furniture/all/frn_all_table_s03.iff	0	998.4	-192	656.862	0.52939	0	0.848379	0		$|
1785801	0	object/tangible/furniture/modern/sofa_chair_modern_style_01.iff	0	999.403	-192	658.593	-0.259512	0	0.96574	0		$|
1785802	0	object/tangible/furniture/modern/sofa_chair_modern_style_01.iff	0	1000.13	-192	655.86	0.866384	0	-0.499379	0		$|
1785803	0	object/tangible/furniture/modern/sofa_chair_modern_style_01.iff	0	996.669	-192	657.865	0.499379	0	0.866384	0		$|
1785804	0	object/tangible/furniture/modern/sofa_chair_modern_style_01.iff	0	997.398	-192	655.131	0.96574	0	0.259512	0		$|
1785805	0	object/tangible/furniture/all/frn_all_table_s03.iff	0	985.214	-192	655.517	0.830488	0	0.557037	0		$|
1785806	0	object/tangible/furniture/modern/sofa_chair_modern_style_01.iff	0	984.587	-192	657.416	0.158909	0	0.987293	0		$|
1785807	0	object/tangible/furniture/modern/sofa_chair_modern_style_01.iff	0	987.113	-192	656.144	-0.585756	0	0.810487	0		$|
1785808	0	object/tangible/furniture/modern/sofa_chair_modern_style_01.iff	0	983.315	-192	654.889	0.810487	0	0.585756	0		$|
1785809	0	object/tangible/furniture/modern/sofa_chair_modern_style_01.iff	0	985.842	-192	653.618	0.987293	0	-0.158909	0		$|
1785810	0	object/static/flora/potted_plant_flowers_orange.iff	0	994.743	-192	648.741	0.585924	0	0.810366	0		$|
1785811	0	object/static/flora/potted_plant_flowers_orange.iff	0	986.883	-192	641.051	0.81697	0	-0.57668	0		$|
1785812	0	object/tangible/furniture/all/frn_all_table_s03.iff	0	978	-192	646	0.999388	0	-0.034992	0		$|
1785813	0	object/tangible/furniture/modern/sofa_chair_modern_style_01.iff	0	976	-192	646	0.707107	0	0.707107	0		$|
1785814	0	object/tangible/furniture/modern/sofa_chair_modern_style_01.iff	0	978	-192	648	0	0	1	0		$|
1785815	0	object/tangible/furniture/modern/sofa_chair_modern_style_01.iff	0	978	-192	644	1	0	0	0		$|
1785816	0	object/tangible/furniture/modern/sofa_chair_modern_style_01.iff	0	980	-192	646	-0.707107	0	0.707107	0		$|
1785818	0	object/tangible/furniture/all/frn_all_table_s02.iff	0	978	-192	646	1	0	0	0		$|
1785819	0	object/tangible/furniture/modern/sofa_chair_modern_style_01.iff	0	975.521	-192	654.229	0.884489	0	-0.466561	0		$|
1785820	0	object/tangible/furniture/modern/sofa_chair_modern_style_01.iff	0	972.22	-192	656.486	0.466561	0	0.88449	0		$|
1785821	0	object/tangible/furniture/modern/sofa_chair_modern_style_01.iff	0	974.999	-192	657.007	-0.29552	0	0.955337	0		$|
1785822	0	object/tangible/furniture/modern/sofa_chair_modern_style_01.iff	0	972.742	-192	653.708	0.955336	0	0.29552	0		$|
1785823	0	object/tangible/furniture/all/frn_all_table_s02.iff	0	973.871	-192	655.357	0.955336	0	0.29552	0		$|
1785824	0	object/tangible/furniture/modern/sofa_chair_modern_style_01.iff	0	998.224	-192	668.163	0.109444	0	0.993993	0		$|
1785825	0	object/tangible/furniture/modern/sofa_chair_modern_style_01.iff	0	999.093	-192	664.258	0.993993	0	-0.109444	0		$|
1785826	0	object/tangible/furniture/modern/sofa_chair_modern_style_01.iff	0	996.707	-192	665.776	0.780248	0	0.625471	0		$|
1785827	0	object/tangible/furniture/modern/sofa_chair_modern_style_01.iff	0	1000.61	-192	666.646	-0.625471	0	0.780248	0		$|
1785828	0	object/tangible/furniture/all/frn_all_table_s02.iff	0	998.659	-192	666.211	-0.625471	0	0.780248	0		$|
1785850	0	object/static/flora/flora_tree_palm_sm.iff	0	915.675	-192	643.642	0.67667	0	0.736287	0		$|
1785851	0	object/static/flora/flora_tree_palm_fngi.iff	0	917.77	-192	641.576	0.972716	0	-0.232	0		$|
1785860	0	object/static/structure/naboo/nboo_imprv_pillar_pillar_s01.iff	0	994.071	-192	597.2	0.382683	0	0.92388	0		$|
1785861	0	object/static/structure/naboo/archway_wide_s01.iff	0	987.729	-192	603.557	0.92388	0	0.382681	0		$|
1785862	0	object/static/structure/naboo/nboo_imprv_pillar_pillar_s01.iff	0	981.373	-192	609.907	0.923879	0	0.382684	0		$|
1785863	0	object/static/structure/naboo/nboo_imprv_pillar_pillar_s01.iff	0	968.638	-192	597.193	0.92388	0	-0.382683	0		$|
1785864	0	object/static/structure/naboo/archway_wide_s01.iff	0	975.001	-192	603.557	0.92388	0	-0.382683	0		$|
1785893	0	object/static/structure/naboo/nboo_imprv_pillar_pillar_s01.iff	0	950.144	-192	578.759	0.92388	0	0.382683	0		$|
1785894	0	object/static/structure/naboo/archway_wide_s01.iff	0	943.787	-192	572.417	0.923879	0	-0.382685	0		$|
1785895	0	object/static/structure/naboo/nboo_imprv_pillar_pillar_s01.iff	0	937.437	-192	566.061	0.92388	0	-0.382683	0		$|
1785896	0	object/static/structure/naboo/nboo_imprv_pillar_pillar_s01.iff	0	950.15	-192	553.325	-0.382683	0	0.92388	0		$|
1785897	0	object/static/structure/naboo/archway_wide_s01.iff	0	943.787	-192	559.689	-0.382683	0	0.92388	0		$|
1785898	0	object/static/structure/naboo/nboo_imprv_pillar_pillar_s01.iff	0	968.559	-192	534.8	0.92388	0	-0.382683	0		$|
1785899	0	object/static/structure/naboo/archway_wide_s01.iff	0	974.9	-192	528.443	-0.382681	0	0.92388	0		$|
1785900	0	object/static/structure/naboo/nboo_imprv_pillar_pillar_s01.iff	0	981.256	-192	522.094	-0.382684	0	0.92388	0		$|
1785901	0	object/static/structure/naboo/nboo_imprv_pillar_pillar_s01.iff	0	993.992	-192	534.807	0.382683	0	0.92388	0		$|
1785902	0	object/static/structure/naboo/archway_wide_s01.iff	0	987.628	-192	528.443	0.382683	0	0.92388	0		$|
1785904	0	object/static/structure/naboo/nboo_imprv_pillar_pillar_s01.iff	0	1012.5	-192	553.255	-0.382683	0	0.92388	0		$|
1785905	0	object/static/structure/naboo/archway_wide_s01.iff	0	1018.85	-192	559.597	0.382685	0	0.923879	0		$|
1785906	0	object/static/structure/naboo/nboo_imprv_pillar_pillar_s01.iff	0	1025.2	-192	565.954	0.382683	0	0.92388	0		$|
1785907	0	object/static/structure/naboo/nboo_imprv_pillar_pillar_s01.iff	0	1012.49	-192	578.689	0.92388	0	0.382683	0		$|
1785908	0	object/static/structure/naboo/archway_wide_s01.iff	0	1018.85	-192	572.325	0.92388	0	0.382683	0		$|
2776052	0	object/tangible/furniture/all/frn_bench_generic.iff	0	1275.29	-192	499.167	0.997189	0	0.0749297	0		$|
2776053	0	object/tangible/furniture/all/frn_bench_generic.iff	0	1278.45	-192	516.836	-0.0799147	0	0.996802	0		$|
2776054	0	object/tangible/furniture/all/frn_bench_generic.iff	0	1060.81	-192	609.858	0.656219	0	0.754571	0		$|
2776055	0	object/tangible/furniture/all/frn_bench_generic.iff	0	1059.32	-192	607.092	0.382683	0	0.92388	0		$|
2776056	0	object/tangible/furniture/all/frn_bench_generic.iff	0	1056.52	-192	605.699	0.0799147	0	0.996802	0		$|
2776057	0	object/tangible/furniture/all/frn_bench_generic.iff	0	1050.96	-192	611.331	0.754832	0	-0.655918	0		$|
2776058	0	object/tangible/furniture/all/frn_bench_generic.iff	0	1052.38	-192	614.129	0.92388	0	-0.382683	0		$|
2776059	0	object/tangible/furniture/all/frn_bench_generic.iff	0	1055.16	-192	615.535	0.997189	0	-0.0749297	0		$|
3145355	0	object/tangible/terminal/terminal_mission_bounty.iff	0	1095.8	-192	532.305	0.707107	0	-0.707106	0		$|
3145357	0	object/tangible/terminal/terminal_mission_bounty.iff	0	1095.79	-192	530.307	-0.707107	0	0.707107	0		$|
3145359	0	object/tangible/terminal/terminal_mission.iff	0	1098.13	-192	531.18	0.707107	0	0.707107	0		$|
3145361	0	object/tangible/terminal/terminal_mission.iff	0	1098.17	-192	525.158	0.707107	0	0.707107	0		$|
3145367	0	object/tangible/terminal/terminal_mission_bounty.iff	0	831.319	-192	581.537	0.86896	0	0.494882	0		$|
3145369	0	object/tangible/terminal/terminal_mission_bounty.iff	0	829.884	-192	583.877	0.870293	0	0.492535	0		$|
3555404	0	object/static/creature/corellia_durni.iff	0	1058.55	-191.937	490.562	0.911039	0	0.412321	0		$|
3555405	0	object/static/item/item_cage_bamboo.iff	0	1058.7	-192	490.7	0.939373	0	-0.342898	0		$|
3555406	0	object/static/item/item_medic_bacta_tank.iff	0	1059.9	-192	488.605	0.90687	0	0.42141	0		$|
3555407	0	object/static/item/item_medic_bacta_tank.iff	0	1059.47	-192	489.099	0.963771	0	0.266731	0		$|
3555408	0	object/static/item/item_container_organic_food.iff	0	1058.7	-192	489.951	0.896052	0	0.443948	0		$|
3555409	0	object/static/item/item_tool_handheld_viewscreen_s2.iff	0	1058.88	-191.273	490.758	0.768054	0	0.640386	0		$|
3555414	0	object/static/structure/tatooine/debris_tatt_drum_dented_1.iff	0	952.423	-192	644.489	0.986418	0	-0.164252	0		$|
3555415	0	object/static/structure/tatooine/debris_tatt_drum_dented_1.iff	0	952.621	-192	643.28	-0.00920342	0	0.999958	0		$|
3555416	0	object/static/item/item_food_fish.iff	0	952.216	-190.893	644.262	0.724836	0	0.688921	0		$|
3555417	0	object/static/item/item_food_fish.iff	0	952.502	-190.893	644.767	0.13538	0	0.990794	0		$|
3555418	0	object/static/item/item_bowl_plain.iff	0	952.562	-190.862	644.352	1	0	0	0		$|
3555419	0	object/static/item/item_con_barrel_lg_s1.iff	0	951.764	-192	642.356	1	0	0	0		$|
3555420	0	object/static/structure/general/camp_lawn_chair_s01.iff	0	924.026	-192	640.729	0.63329	0	0.773915	0		$|
3555422	0	object/static/structure/general/camp_stool_tall_s01.iff	0	923.907	-192.095	639.955	1	0	0	0		$|
3555423	0	object/static/structure/general/camp_stool_tall_s01.iff	0	925.229	-192	639.332	1	0	0	0		$|
3555424	0	object/static/structure/general/camp_lawn_chair_s01.iff	0	1183.79	-192	450.821	0.19945	0	0.979908	0		$|
3555425	0	object/static/structure/general/campfire_smoldering.iff	0	1186.03	-192	450.637	1	0	0	0		$|
3555426	0	object/static/structure/general/camp_spit_s01.iff	0	1186.07	-192	450.569	1	0	0	0		$|
3555427	0	object/static/structure/general/camp_stool_tall_s01.iff	0	1185.54	-192	452.085	1	0	0	0		$|
3555428	0	object/static/structure/general/camp_stool_tall_s01.iff	0	1187.27	-192	451.592	1	0	0	0		$|
3555429	0	object/static/structure/general/camp_stool_short_s01.iff	0	1187.85	-192	449.623	1	0	0	0		$|
3555430	0	object/static/structure/tatooine/debris_tatt_crate_metal_1.iff	0	1186.56	-192	452.364	0.988771	0	0.149438	0		$|
3555431	0	object/static/structure/tatooine/debris_tatt_drum_storage_2.iff	0	1184.17	-192	451.384	-0.362358	0	0.932039	0		$|
3955391	0	object/static/structure/naboo/nboo_imprv_pristine_wall_sml_s03.iff	0	1097.16	-192	533.32	0.707107	0	-0.707106	0		$|
3955392	0	object/static/structure/naboo/nboo_imprv_pillar_pillar_s03.iff	0	1095	-192.492	528.157	1	0	0	0		$|
3955393	0	object/static/structure/naboo/nboo_imprv_pillar_pillar_s02.iff	0	1097.14	-192.492	522.309	-3.20E-08	0	1	0		$|
3955394	0	object/static/structure/naboo/nboo_imprv_pillar_pillar_s02.iff	0	1097.15	-192.492	534.301	0.707108	0	0.707105	0		$|
4105610	0	object/building/naboo/guild_theater_naboo_s01.iff	0	1228.88	-192	621.332	0.707108	0	0.707106	0		$|
4105626	0	object/tangible/terminal/terminal_mission.iff	0	1098.14	-192	528.106	0.707107	0	0.707107	0		$|
4105632	0	object/tangible/terminal/terminal_bazaar.iff	0	1272.05	-192	501.592	0.648338	0	0.761352	0		$|
4105633	0	object/tangible/terminal/terminal_bazaar.iff	0	1272.53	-192	504.554	0.648338	0	0.761352	0		$|
4105634	0	object/tangible/terminal/terminal_bazaar.iff	0	1273.94	-192	512.446	0.648338	0	0.761352	0		$|
4105635	0	object/tangible/terminal/terminal_bazaar.iff	0	1274.42	-192	515.409	0.648338	0	0.761352	0		$|
4105643	0	object/static/structure/naboo/nboo_imprv_pillar_pillar_s01.iff	0	1271.15	-192	498.69	-0.0799147	4.48E-10	0.996802	-3.22E-10		$|
4105644	0	object/static/structure/naboo/nboo_imprv_pillar_pillar_s01.iff	0	1274.59	-192	518.14	0.648337	0	0.761354	0		$|
4105650	0	object/static/structure/naboo/nboo_imprv_metal_fence_wall_lg_s02.iff	0	1277.99	-192.83	497.647	-0.079915	0	0.996802	0		$|
4105651	0	object/static/structure/naboo/nboo_imprv_metal_fence_wall_lg_s02.iff	0	1281.34	-192.83	517.199	-0.079915	0	0.996802	0		$|
4105652	0	object/static/structure/naboo/nboo_imprv_metal_fence_wall_lg_s02.iff	0	1278.96	-192.83	503.632	0.648338	0	0.761354	0		$|
4105653	0	object/static/structure/naboo/nboo_imprv_metal_fence_wall_lg_s02.iff	0	1280.37	-192.83	511.094	0.761352	0	-0.648339	0		$|
4105654	0	object/static/structure/naboo/streetlamp_naboo_theed_style_1.iff	0	1272.9	-192	508.552	0.99639	0	0.0848976	0		$|
4105655	0	object/static/structure/naboo/fountain_naboo_style_1.iff	0	1287	-192.275	488	1	0	0	0		$|
4105658	0	object/static/structure/naboo/nboo_imprv_short_curved_wall_large_s01.iff	0	1287	-192	482	1	0	0	0		$|
4105659	0	object/static/structure/naboo/nboo_imprv_short_curved_wall_large_s01.iff	0	1279	-192	490	0.707107	0	0.707106	0		$|
4105662	0	object/static/structure/naboo/nboo_imprv_short_curved_wall_small_s01.iff	0	1279	-192	491	1	0	0	0		$|
4105663	0	object/static/structure/naboo/nboo_imprv_short_curved_wall_small_s01.iff	0	1291	-192	495	0.707107	0	0.707106	0		$|
4105664	0	object/static/structure/naboo/nboo_imprv_pillar_pillar_s03.iff	0	1294.97	-193.311	490.989	-3.20E-08	0	1	0		$|
4105665	0	object/static/structure/naboo/nboo_imprv_pillar_pillar_s03.iff	0	1279	-193.311	491	1	0	0	0		$|
4105667	0	object/static/structure/naboo/nboo_imprv_pillar_pillar_s03.iff	0	1291	-193.311	495	-3.20E-08	0	1	0		$|
4105668	0	object/static/structure/naboo/nboo_imprv_pillar_pillar_s03.iff	0	1283	-193.311	495	1	0	0	0		$|
4105669	0	object/static/structure/naboo/streetlamp_naboo_theed_style_1.iff	0	1287	-192	480	1	0	0	0		$|
4105670	0	object/static/flora/potted_plant_flowers_orange.iff	0	1295.01	-192	492.913	-0.60976	0	0.792586	0		$|
4105671	0	object/static/flora/potted_plant_flowers_orange.iff	0	1293.03	-192	494.907	-0.474536	0	0.880236	0		$|
4105672	0	object/static/flora/potted_plant_flowers_orange.iff	0	1293.49	-192	493.482	0.981259	0	-0.192693	0		$|
4105673	0	object/static/flora/potted_plant_flowers_orange.iff	0	1280.97	-192	494.974	-0.264815	0	0.964299	0		$|
4105674	0	object/static/flora/potted_plant_flowers_orange.iff	0	1278.91	-192	493.051	0.999896	0	0.0143943	0		$|
4105675	0	object/static/flora/potted_plant_flowers_orange.iff	0	1280.54	-192	493.5	-0.197486	0	0.980306	0		$|
4245370	0	object/tangible/furniture/modern/sofa_chair_modern_style_01.iff	0	1272.01	-191.405	587.322	0.967663	0	0.252245	0		$|
4245371	0	object/tangible/furniture/all/frn_all_table_s02.iff	0	1272.99	-191.405	589.069	0.967663	0	0.252245	0		$|
4245372	0	object/tangible/furniture/modern/sofa_chair_modern_style_01.iff	0	1271.24	-191.405	590.046	0.505877	0	0.862606	0		$|
4245373	0	object/tangible/furniture/all/frn_all_table_s03.iff	0	1272.99	-191.405	589.069	0.975897	0	0.21823	0		$|
4245374	0	object/tangible/furniture/modern/sofa_chair_modern_style_01.iff	0	1274.73	-191.405	588.091	0.862605	0	-0.505878	0		$|
4245375	0	object/tangible/furniture/modern/sofa_chair_modern_style_01.iff	0	1273.96	-191.405	590.815	-0.252245	0	0.967663	0		$|
4245376	0	object/tangible/furniture/modern/sofa_chair_modern_style_01.iff	0	1283.09	-191.417	586.735	0.974794	0	-0.223106	0		$|
4245377	0	object/tangible/furniture/all/frn_all_table_s02.iff	0	1282.22	-191.417	588.536	0.974794	0	-0.223106	0		$|
4245378	0	object/tangible/furniture/modern/sofa_chair_modern_style_01.iff	0	1280.42	-191.417	587.665	0.847043	0	0.531524	0		$|
4245379	0	object/tangible/furniture/all/frn_all_table_s03.iff	0	1282.22	-191.417	588.536	0.96639	0	-0.25708	0		$|
4245380	0	object/tangible/furniture/modern/sofa_chair_modern_style_01.iff	0	1284.02	-191.417	589.406	-0.531523	0	0.847044	0		$|
4245381	0	object/tangible/furniture/modern/sofa_chair_modern_style_01.iff	0	1281.35	-191.417	590.336	0.223106	0	0.974794	0		$|
4245382	0	object/static/flora/flora_tree_palm_thk.iff	0	1295.78	-192	580.83	0.737204	0	0.67567	0		$|
4245383	0	object/static/flora/flora_tree_palm_fngi.iff	0	1286.91	-192	579.463	0.943445	0	-0.33153	0		$|
4245384	0	object/static/flora/flora_tree_palm_sm.iff	0	1251.89	-192	570.813	0.997971	0	-0.0636687	0		$|
4245385	0	object/static/flora/flora_tree_palm_sm.iff	0	1249.32	-192	571.915	0.210195	0	0.977659	0		$|
4245396	0	object/static/structure/naboo/nboo_imprv_short_curved_wall_large_s01.iff	0	1204.74	-192	659.994	-0.382683	0	0.92388	0		$|
4245397	0	object/static/structure/naboo/nboo_imprv_pillar_pillar_s03.iff	0	1193.74	-193.489	659.994	0.707109	0	-0.707104	0		$|
4245398	0	object/static/structure/naboo/nboo_imprv_pillar_pillar_s03.iff	0	1204.74	-193.489	659.994	0.707109	0	-0.707104	0		$|
4245403	0	object/static/structure/naboo/nboo_imprv_pristine_wall_sml_s03.iff	0	1220.58	-191.352	649.04	0.707108	0	0.707105	0		$|
4245405	0	object/static/structure/naboo/nboo_imprv_pillar_pillar_s03.iff	0	1220.58	-192	660.04	1	0	0	0		$|
4245407	0	object/static/structure/naboo/nboo_imprv_pillar_pillar_s03.iff	0	1156.94	-192.285	660.028	1	0	0	0		$|
4245408	0	object/static/structure/naboo/nboo_imprv_short_curved_wall_large_s01.iff	0	1218.32	-192	660.012	-0.382683	0	0.92388	0		$|
4245409	0	object/static/structure/naboo/nboo_imprv_pillar_pillar_s03.iff	0	1207.32	-193.489	660.012	-0.707107	0	0.707107	0		$|
4245410	0	object/static/structure/naboo/nboo_imprv_pillar_pillar_s03.iff	0	1218.32	-193.489	660.012	-0.707107	0	0.707107	0		$|
4245411	0	object/static/structure/naboo/nboo_imprv_short_curved_wall_large_s01.iff	0	1170.23	-192	659.982	-0.382683	0	0.92388	0		$|
4245412	0	object/static/structure/naboo/nboo_imprv_pillar_pillar_s03.iff	0	1159.23	-193.489	659.982	-0.707107	0	0.707107	0		$|
4245413	0	object/static/structure/naboo/nboo_imprv_pillar_pillar_s03.iff	0	1170.23	-193.489	659.982	-0.707107	0	0.707107	0		$|
4245414	0	object/static/structure/naboo/nboo_imprv_short_curved_wall_large_s01.iff	0	1183.75	-192	659.992	-0.382683	0	0.92388	0		$|
4245415	0	object/static/structure/naboo/nboo_imprv_pillar_pillar_s03.iff	0	1172.75	-193.489	659.992	-0.707107	0	0.707107	0		$|
4245416	0	object/static/structure/naboo/nboo_imprv_pillar_pillar_s03.iff	0	1183.75	-193.489	659.992	-0.707107	0	0.707107	0		$|
4245417	0	object/static/structure/naboo/gate_narrow_s01.iff	0	1188.75	-192	659.992	1	0	0	0		$|
4245441	0	object/static/flora/flora_tree_palm_thk.iff	0	1144.84	-192	586.611	0.773716	0	-0.633533	0		$|
4245443	0	object/static/flora/flora_tree_palm_fngi.iff	0	1119.78	-192	601.34	0.049475	0	0.998775	0		$|
4245444	0	object/static/flora/flora_tree_palm_sm.iff	0	1144.09	-192	583.919	0.928157	0	-0.37219	0		$|
4245445	0	object/static/flora/flora_tree_palm_fngi.iff	0	907.772	-192	682.734	0.926407	0	-0.376524	0		$|
4245446	0	object/static/flora/flora_tree_palm_thk.iff	0	907.749	-192	677.708	-0.404237	0	0.914654	0		$|
4245447	0	object/static/flora/flora_tree_palm_fngi.iff	0	910.599	-192	681.684	0.998494	0	0.0548566	0		$|
4245448	0	object/static/flora/flora_tree_palm_thk.iff	0	859.246	-192	638.783	0.97164	0	-0.236465	0		$|
4245449	0	object/static/flora/flora_tree_palm_thk.iff	0	861.729	-192	650.796	0.610276	0	0.792189	0		$|
4245450	0	object/static/flora/flora_tree_palm_sm.iff	0	861.337	-192	644.329	0.72613	0	0.687558	0		$|
4435352	0	object/static/structure/naboo/nboo_imprv_pristine_wall_sml_s03.iff	0	1156.95	-192	649.299	0.707107	0	0.707107	0		$|
4655653	0	object/tangible/sign/streetsign_upright_style_01.iff	0	874.392	-192	646.663	0.92388	0	-0.382683	0		$|
4655655	0	object/tangible/sign/streetsign_upright_style_01.iff	0	898.936	-192	670.382	0.963048	0	-0.269331	0		$|
4655656	0	object/tangible/sign/streetsign_upright_style_01.iff	0	986.053	-192	670.336	0.999089	0	-0.0426858	0		$|
4655657	0	object/tangible/sign/streetsign_upright_style_01.iff	0	1065.58	-192	686.507	0.996157	0	-0.0875864	0		$|
4655659	0	object/tangible/sign/streetsign_upright_style_01.iff	0	1185.41	-192	660.776	1	0	0	0		$|
4655663	0	object/tangible/sign/streetsign_upright_style_01.iff	0	1313.24	-192	583.362	0.707108	0	0.707106	0		$|
4655664	0	object/tangible/sign/streetsign_upright_style_01.iff	0	1311.52	-192	554.425	0.707107	0	-0.707106	0		$|
4655665	0	object/tangible/sign/streetsign_upright_style_01.iff	0	1315.19	-192	480.669	0.796084	0	-0.605186	0		$|
4655666	0	object/tangible/sign/streetsign_upright_style_01.iff	0	1275.36	-192	426.168	0.937647	0	0.34759	0		$|
4655667	0	object/tangible/sign/streetsign_upright_style_01.iff	0	1195.33	-192	417.388	0.617372	0	0.786671	0		$|
4655668	0	object/tangible/sign/streetsign_upright_style_01.iff	0	1128.17	-192	423.804	0.881059	0	-0.473006	0		$|
4655670	0	object/tangible/sign/streetsign_upright_style_01.iff	0	1085.63	-192	438.104	0.94441	0	-0.328769	0		$|
4655671	0	object/tangible/sign/streetsign_upright_style_01.iff	0	1036.47	-192	420.439	0.921061	0	0.389418	0		$|
4655672	0	object/tangible/sign/streetsign_upright_style_01.iff	0	913.626	-192	481.725	0.953033	0	-0.302867	0		$|
4655673	0	object/tangible/sign/streetsign_upright_style_01.iff	0	868.687	-192	486.04	0.947651	0	0.319309	0		$|
4655674	0	object/tangible/sign/streetsign_upright_style_01.iff	0	824.941	-192	598.228	-0.376297	0	0.926499	0		$|
4655675	0	object/static/item/item_katana.iff	0	1078.75	-191.399	494.279	0.0397945	0.912539	0.0915593	0.396618		$|
4655676	0	object/static/item/item_ryyk_blade.iff	0	1078.96	-191.241	493.994	0.0337547	0.923047	0.0832993	0.374039		$|
4655677	0	object/static/structure/tatooine/debris_tatt_crate_1.iff	0	1084.79	-192	487.347	0.449134	0	0.893464	0		$|
4655678	0	object/static/structure/tatooine/debris_tatt_crate_1.iff	0	1083.53	-192	488.569	0.338946	0	0.940806	0		$|
4655680	0	object/static/item/item_pistol.iff	0	1084.75	-191.273	487.568	0.665441	-0.239141	-0.239141	0.665441		$|
4655682	0	object/static/item/item_rifle.iff	0	1083.51	-191.273	488.825	-0.0488954	0.705414	-0.705414	0.0488954		$|
4655684	0	object/static/item/item_medic_stimpack.iff	0	923.91	-191.675	640.049	-0.460945	0.557617	0.54086	-0.429026		$|
4776016	0	object/tangible/terminal/terminal_bazaar.iff	0	964.017	-191.589	579.754	0.382683	0	0.92388	0		$|
4776017	0	object/tangible/terminal/terminal_bazaar.iff	0	967.532	-191.589	583.249	0.382683	0	0.92388	0		$|
4776018	0	object/tangible/terminal/terminal_bazaar.iff	0	998.599	-191.546	552.236	0.92388	0	-0.382683	0		$|
4776019	0	object/tangible/terminal/terminal_bazaar.iff	0	995.088	-191.589	548.73	0.92388	0	-0.382683	0		$|
4795355	0	object/static/structure/naboo/gate_wide_s02.iff	0	1167.53	-192	605.759	0.707107	0	-0.707106	0		$|
4845364	0	object/static/structure/naboo/nboo_imprv_pillar_pillar_s01.iff	0	1104.1	-192	413.15	0.924909	0	0.380188	0		$|
5425833	0	object/static/item/item_container_inorganic_minerals.iff	0	1049.24	-192	670.976	0.930508	0	-0.366273	0		$|
5425834	0	object/static/item/item_container_organic_structure.iff	0	1050.56	-192	669.196	0.896053	0	-0.443948	0		$|
5425836	0	object/static/item/item_container_energy_liquid.iff	0	1050.26	-192	669.701	0.990901	0	0.13459	0		$|
5425837	0	object/static/item/item_container_energy_liquid.iff	0	1049.95	-192	669.777	0.990901	0	0.13459	0		$|
5425838	0	object/static/structure/tatooine/debris_tatt_crate_metal_1.iff	0	1050.65	-192	669.987	0.913089	0	0.407761	0		$|
5425839	0	object/static/structure/tatooine/debris_tatt_drum_dented_1.iff	0	1045.06	-192	674.532	0.875174	0	0.483807	0		$|
5425840	0	object/static/structure/tatooine/debris_tatt_crate_1.iff	0	1045.84	-192	673.594	0.367013	0	0.930216	0		$|
5425841	0	object/static/structure/tatooine/debris_tatt_drum_storage_1.iff	0	1047.62	-192	671.759	0.922997	0	0.384808	0		$|
5425842	0	object/static/structure/tatooine/debris_tatt_drum_storage_2.iff	0	1046.9	-192	672.136	0.965092	0	0.261909	0		$|
5425843	0	object/static/item/item_tool_demagnetizer.iff	0	1045.59	-191.304	673.719	1	0	0	0		$|
5425844	0	object/static/item/item_wood_staff.iff	0	1049.67	-190.893	670.218	-0.675464	-0.156885	0.702352	-0.160741		$|
5425845	0	object/static/item/item_tool_radio.iff	0	1045.99	-191.273	673.77	-0.69517	0.700602	-0.116045	-0.111483		$|
5425848	0	object/static/item/item_tool_instrument_calibrator.iff	0	1047.62	-191.146	671.689	1	0	0	0		$|
5425851	0	object/static/item/item_tank_gas.iff	0	1046.2	-192	672.923	1	0	0	0		$|
5425853	0	object/static/item/item_painting_naboo_style_01.iff	0	1049.72	-193.328	671.993	0.360568	-0.127827	0.922236	-0.0559684		$|
5425861	0	object/static/item/item_shisha.iff	0	1050.56	-191.715	670.074	1	0	0	0		$|
5425862	0	object/static/item/item_nemodian_bird_cage.iff	0	1048.86	-191.146	671.445	0.959662	0	0.281157	0		$|
5425864	0	object/static/item/item_kitchen_pot_style_01.iff	0	1045.04	-190.841	674.216	1	0	0	0		$|
5425868	0	object/static/item/item_basket_closed.iff	0	1049.49	-191.115	670.789	1	0	0	0		$|
5425873	0	object/static/item/item_jar_empty.iff	0	1050.72	-191.715	669.879	1	0	0	0		$|
5425887	0	object/static/item/wp_carbine_elite_combined.iff	0	1084.75	-191.273	487.376	0.562916	-0.427931	-0.427931	0.562916		$|
5425889	0	object/static/item/item_container_energy_solid.iff	0	1083.89	-192	487.999	0.898261	0	0.439462	0		$|
5665384	0	object/soundobject/soundobject_cantina_medium.iff	0	1235.69	-192	449.063	1	0	0	0		$|
5665385	0	object/soundobject/soundobject_city_crowd_medium.iff	0	1183.68	-192	616.349	1	0	0	0		$|
5665386	0	object/soundobject/soundobject_city_crowd_sentients_large.iff	0	1049.88	-192	605.043	1	0	0	0		$|
5785383	0	object/tangible/crafting/station/public_food_station.iff	0	1074.49	-192	665.42	0.920007	0	0.391903	0		$|
5785384	0	object/tangible/crafting/station/public_food_station.iff	0	1071.13	-192	668.855	0.920006	0	0.391903	0		$|
5785385	0	object/tangible/crafting/station/public_food_station.iff	0	1067.94	-192	672.269	0.920006	0	0.391903	0		$|
5785387	0	object/static/structure/naboo/nboo_imprv_lattice_wall_long_s01.iff	0	1073.59	-192	664.377	-0.396498	0	0.918035	0		$|
5785388	0	object/static/structure/naboo/nboo_imprv_pillar_lattice_s01.iff	0	1070.24	-192	667.923	0.919102	0	0.394019	0		$|
5785389	0	object/static/structure/naboo/nboo_imprv_lattice_wall_long_s01.iff	0	1066.85	-192	671.554	0.918036	0	0.396498	0		$|
5785390	0	object/tangible/crafting/station/public_weapon_station.iff	0	1070.03	-192	666.126	-0.401083	0	0.916042	0		$|
5785391	0	object/tangible/crafting/station/public_weapon_station.iff	0	1066.75	-192	669.917	-0.401083	0	0.916042	0		$|
5785392	0	object/tangible/crafting/station/public_weapon_station.iff	0	1073.84	-192	662.494	-0.401083	0	0.916042	0		$|
6015393	0	object/static/structure/general/streetlamp_large_green_style_02.iff	0	1097.18	-192.839	528.145	0.707107	-7.73E-09	0.707106	-7.73E-09		$|
6015394	0	object/static/structure/naboo/streetlamp_naboo_theed_style_1.iff	0	1274.65	-192	439.978	0.92388	0	-0.382683	0		$|
6015395	0	object/static/structure/general/streetlamp_small_style_02.iff	0	1085.4	-186.835	472.598	1	0	0	0		$|
6015398	0	object/static/structure/naboo/streetlamp_naboo_theed_style_1.iff	0	1155.22	-192	435.629	0.990901	0	0.13459	0		$|
6015399	0	object/static/structure/general/streetlamp_small_style_01.iff	0	1122.97	-179.373	444.337	1	0	0	0		$|
6015401	0	object/static/structure/general/streetlamp_medium_blue_style_02.iff	0	1286.84	-191.482	590.873	-0.382683	0	0.92388	0		$|
6015403	0	object/static/structure/general/streetlamp_large_green_style_02.iff	0	1198.11	-192	597.069	1	0	0	0		$|
6015404	0	object/static/structure/general/streetlamp_large_green_style_02.iff	0	1198.3	-192	645.52	1	0	0	0		$|
6015405	0	object/static/structure/naboo/streetlamp_naboo_theed_style_1.iff	0	1145.81	-192	611.144	1	0	0	0		$|
6015408	0	object/static/structure/general/streetlamp_small_green_style_02.iff	0	965.896	-192	581.471	1	0	0	0		$|
6015409	0	object/static/structure/general/streetlamp_small_green_style_02.iff	0	996.485	-192	550.833	1	0	0	0		$|
6015417	0	object/static/structure/general/streetlamp_medium_blue_style_02.iff	0	891.473	-191.623	689.105	1	0	0	0		$|
6015418	0	object/static/structure/general/streetlamp_medium_blue_style_02.iff	0	896.342	-191.606	690.919	0.92388	0	-0.382683	0		$|
6015423	0	object/static/structure/naboo/streetlamp_naboo_theed_style_1.iff	0	922.829	-192	643.942	1	0	0	0		$|
6015424	0	object/static/structure/naboo/streetlamp_naboo_theed_style_1.iff	0	883.327	-192	643.02	0.908966	0	0.416871	0		$|
6015425	0	object/static/structure/naboo/streetlamp_naboo_theed_style_1.iff	0	856.653	-196	610.01	0.949957	0	-0.312382	0		$|
6015426	0	object/static/structure/naboo/streetlamp_naboo_theed_style_1.iff	0	931.326	-192	578.819	0.913089	0	0.407761	0		$|
6015427	0	object/static/structure/naboo/streetlamp_naboo_theed_style_1.iff	0	958.816	-192	621.132	1	0	0	0		$|
6015428	0	object/static/structure/naboo/streetlamp_naboo_theed_style_1.iff	0	924.071	-194.896	531.981	0.956802	0	-0.29074	0		$|
6015432	0	object/static/structure/general/streetlamp_large_blue_style_01.iff	0	1023.39	-191.989	477.523	0.405658	0	0.914025	0		$|
6015433	0	object/static/structure/general/streetlamp_small_green_style_01.iff	0	1101.55	-190.451	411.774	1	0	0	0		$|
6015434	0	object/static/structure/general/streetlamp_large_red_style_01.iff	0	1081.72	-192	402.25	1	0	0	0		$|
6015435	0	object/static/structure/general/streetlamp_large_red_style_01.iff	0	1048.46	-192	417.491	1	0	0	0		$|
6015437	0	object/static/structure/general/streetlamp_small_style_01.iff	0	1063.73	-187.62	421.242	0.270598	0.270598	-0.653281	0.653282		$|
6015440	0	object/building/endor/endor_tiki_torch.iff	0	1056.94	-192	705.081	1	0	0	0		$|
6015441	0	object/building/endor/endor_tiki_torch.iff	0	1067.61	-192	705.78	1	0	0	0		$|
6075389	0	object/tangible/furniture/all/frn_bench_generic.iff	0	1021.49	-192	475.471	0.382683	0	0.92388	0		$|
6075390	0	object/tangible/furniture/all/frn_bench_generic.iff	0	1025.5	-192	479.508	0.382683	0	0.92388	0		$|
6075392	0	object/static/flora/potted_plant_flowers_purple.iff	0	1019.19	-192	472.934	0.93123	0	0.364431	0		$|
6075393	0	object/static/flora/potted_plant_flowers_purple.iff	0	1028.07	-192	482.04	-0.364431	0	0.93123	0		$|
6075394	0	object/tangible/furniture/all/frn_bench_generic.iff	0	1030.45	-192	484.524	0.382683	0	0.92388	0		$|
6075395	0	object/tangible/furniture/all/frn_bench_generic.iff	0	1016.67	-192	470.526	0.382683	0	0.92388	0		$|
6075440	0	object/static/structure/naboo/nboo_imprv_metal_fence_wall_lg_s02.iff	0	1221.48	-193.98	460.584	0.847255	0	0.531186	0		$|
6075444	0	object/static/structure/naboo/nboo_imprv_metal_fence_wall_lg_s02.iff	0	1224.08	-193.98	455.201	0.884675	0	0.466208	0		$|
6075448	0	object/static/structure/naboo/nboo_imprv_pillar_lattice_s01.iff	0	1230.69	-192.5	448.583	1	0	0	0		$|
6075449	0	object/static/structure/naboo/nboo_imprv_pillar_lattice_s01.iff	0	1241.14	-192.5	448.625	1	0	0	0		$|
6075453	0	object/static/structure/naboo/nboo_imprv_metal_fence_wall_lg_s02.iff	0	1249.56	-193.98	456.238	0.51482	0	0.857298	0		$|
6075458	0	object/static/structure/naboo/nboo_imprv_metal_fence_wall_lg_s01.iff	0	1227.48	-193.98	450.374	0.958244	0	0.285951	0		$|
6075459	0	object/static/structure/naboo/nboo_imprv_metal_fence_wall_lg_s01.iff	0	1220.43	-193.98	463.951	0.802096	0	0.597195	0		$|
6075460	0	object/static/structure/naboo/nboo_imprv_metal_fence_wall_lg_s02.iff	0	1246.66	-193.98	451.134	0.228754	0	0.973483	0		$|
6075466	0	object/static/structure/naboo/planter_naboo_theed_style_1.iff	0	1233.77	-192	464.813	0.248176	0	0.968715	0		$|
6075490	0	object/tangible/furniture/all/frn_all_chair_wooden_s1.iff	0	1229.1	-192	452.193	1	0	0	0		$|
6075491	0	object/tangible/furniture/all/frn_all_chair_wooden_s1.iff	0	1227.85	-192	454.196	0.50622	0	0.862404	0		$|
6075492	0	object/tangible/furniture/all/frn_all_chair_wooden_s1.iff	0	1230.34	-192	453.826	-0.601835	0	0.798621	0		$|
6075493	0	object/tangible/furniture/all/frn_all_chair_wooden_s1.iff	0	1230.15	-192	459.782	0.42666	0	0.904412	0		$|
6075494	0	object/tangible/furniture/all/frn_all_chair_wooden_s1.iff	0	1230.34	-192	458.209	0.921061	0	0.389418	0		$|
6075495	0	object/tangible/furniture/all/frn_all_chair_wooden_s1.iff	0	1232.17	-192	458.288	0.90687	0	-0.42141	0		$|
6075496	0	object/tangible/furniture/all/frn_all_chair_wooden_s1.iff	0	1232.02	-192	459.92	-0.390152	0	0.920751	0		$|
6075497	0	object/tangible/furniture/all/frn_all_chair_wooden_s1.iff	0	1224.71	-192	461.042	0.403919	0	0.914795	0		$|
6075498	0	object/tangible/furniture/all/frn_all_chair_wooden_s1.iff	0	1226.53	-192	461.228	-0.285189	0	0.958471	0		$|
6075499	0	object/tangible/furniture/all/frn_all_chair_wooden_s1.iff	0	1226.17	-192	459.124	0.987227	0	-0.159318	0		$|
6075500	0	object/tangible/furniture/all/frn_all_chair_wooden_s1.iff	0	1242.89	-192	453.827	0.305817	0	0.95209	0		$|
6075501	0	object/tangible/furniture/all/frn_all_chair_wooden_s1.iff	0	1243.36	-192	451.538	0.991562	0	0.129634	0		$|
6075502	0	object/tangible/furniture/all/frn_all_chair_wooden_s1.iff	0	1245.13	-192	453.344	-0.501902	0	0.864925	0		$|
6075508	0	object/tangible/furniture/modern/table_modern_style_01.iff	0	1228.94	-192	453.496	1	0	0	0		$|
6075509	0	object/tangible/furniture/modern/table_modern_style_01.iff	0	1231.19	-192	459.071	1	0	0	0		$|
6075510	0	object/tangible/furniture/modern/table_modern_style_01.iff	0	1225.63	-192	460.185	1	0	0	0		$|
6075511	0	object/tangible/furniture/modern/table_modern_style_01.iff	0	1243.78	-192	452.781	1	0	0	0		$|
6075523	0	object/static/structure/general/streetlamp_large_style_01.iff	0	1239.32	-192	459.222	-0.385543	0	0.92269	0		$|
6075524	0	object/tangible/furniture/all/frn_bench_generic.iff	0	1237.66	-192	460.76	-0.380925	0	0.924606	0		$|
6075525	0	object/tangible/furniture/all/frn_bench_generic.iff	0	1240.83	-192	457.57	-0.380925	0	0.924606	0		$|
6075526	0	object/static/flora/potted_plant_flowers_orange.iff	0	1236.58	-192	462.308	0.924909	0	0.380188	0		$|
6075527	0	object/static/flora/potted_plant_flowers_orange.iff	0	1242.53	-192	456.377	0.924909	0	0.380188	0		$|
6075528	0	object/static/flora/potted_plant_flowers_purple.iff	0	1241.15	-192	449.679	1	0	0	0		$|
6075529	0	object/static/flora/potted_plant_flowers_purple.iff	0	1230.75	-192	449.657	1	0	0	0		$|
6336320	0	object/tangible/terminal/terminal_mission_artisan.iff	0	1096.39	-192	526.238	0.707107	0	-0.707106	0		$|
6336322	0	object/tangible/terminal/terminal_mission_artisan.iff	0	1096.39	-192	524.238	-0.707107	0	0.707107	0		$|
6336324	0	object/tangible/terminal/terminal_mission_scout.iff	0	1095.61	-192	534.223	0.707107	0	-0.707106	0		$|
6336326	0	object/tangible/terminal/terminal_mission_scout.iff	0	1095.77	-192	522.267	-0.707107	0	0.707107	0		$|
6336328	0	object/tangible/terminal/terminal_mission_entertainer.iff	0	1098.56	-192	534.362	0.707107	0	0.707107	0		$|
6336330	0	object/tangible/terminal/terminal_mission_entertainer.iff	0	1098.58	-192	522.264	0.707107	0	0.707107	0		$|
6336332	0	object/tangible/terminal/terminal_mission_entertainer.iff	0	1209.88	-191.456	623.429	0.707107	0	-0.707106	0		$|
6336334	0	object/tangible/terminal/terminal_mission_entertainer.iff	0	1209.88	-191.456	621.429	-0.707107	0	0.707107	0		$|
6336336	0	object/tangible/terminal/terminal_mission_entertainer.iff	0	1209.88	-191.456	619.429	-0.707107	0	0.707107	0		$|
6336340	0	object/tangible/terminal/terminal_mission_entertainer.iff	0	905.88	-192	524.735	0.288538	0	0.957469	0		$|
6336342	0	object/tangible/terminal/terminal_mission_entertainer.iff	0	909.879	-192	527.384	0.288538	0	0.957469	0		$|
6336344	0	object/tangible/terminal/terminal_mission_entertainer.iff	0	913.808	-192	530.052	0.288538	0	0.957469	0		$|
6336346	0	object/tangible/terminal/terminal_mission.iff	0	906.014	-192	521.284	0.886995	0	0.461779	0		$|
6336350	0	object/tangible/terminal/terminal_mission_scout.iff	0	911.524	-192	529.19	0.293321	0	0.956014	0		$|
6336352	0	object/tangible/terminal/terminal_mission.iff	0	917.144	-192	528.494	-0.461779	0	0.886995	0		$|
6336354	0	object/tangible/terminal/terminal_mission_scout.iff	0	907.534	-192	526.413	0.293321	0	0.956014	0		$|
6336356	0	object/tangible/terminal/terminal_mission_artisan.iff	0	1061.99	-189.497	583.035	-0.382683	0	0.92388	0		$|
6336358	0	object/tangible/terminal/terminal_mission_artisan.iff	0	1046.15	-189.598	567.207	0.92388	0	0.382683	0		$|
6336360	0	object/tangible/terminal/terminal_mission_scout.iff	0	1010.02	-189.49	612.926	0.382683	0	0.92388	0		$|
6336362	0	object/tangible/terminal/terminal_mission_scout.iff	0	1022.82	-189.56	625.607	0.382683	0	0.92388	0		$|
6336364	0	object/tangible/terminal/terminal_mission.iff	0	1012.5	-189.497	608.068	0.92388	0	0.382683	0		$|
6336366	0	object/tangible/terminal/terminal_mission.iff	0	1028.04	-189.193	623.315	-0.382683	0	0.92388	0		$|
6685364	0	object/static/item/item_tool_droid_toolkit.iff	0	1093.51	-192	552.794	0.552863	0	0.833272	0		$|
6695493	0	object/soundobject/soundobject_cantina_small.iff	0	1278.07	-192	588.233	1	0	0	0		$|
6695495	0	object/soundobject/soundobject_city_crowd_sentients_large.iff	0	1280.09	-192	504.24	1	0	0	0		$|
6875353	0	object/soundobject/soundobject_city_crowd_sentients.iff	0	981.776	-192	564.995	1	0	0	0		$|
6875365	0	object/soundobject/soundobject_city_crowd_sentients.iff	0	1093.62	-192	525.524	1	0	0	0		$|
6875368	0	object/soundobject/soundobject_city_crowd_medium.iff	0	879.741	-192	625.055	1	0	0	0		$|
6875369	0	object/soundobject/soundobject_cantina_medium.iff	0	883.707	-192	668.027	1	0	0	0		$|
7596562	0	object/static/item/item_container_organic_food.iff	0	1088.59	-192	664.477	-0.385543	0	0.92269	0		$|
7596563	0	object/static/item/item_container_organic_food.iff	0	1088.91	-192	664.187	-0.243329	0	0.969944	0		$|
7596564	0	object/tangible/terminal/terminal_mission_imperial.iff	0	1116.52	-192	574.95	0.367673	0	0.929955	0		$|
7596566	0	object/tangible/terminal/terminal_mission_imperial.iff	0	1117.88	-192	576.158	0.360873	0	0.932615	0		$|
7825517	0	object/soundobject/soundobject_starport_exterior.iff	0	1196.13	-192	480.501	1	0	0	0		$|
7875860	0	object/tangible/terminal/terminal_mission_entertainer.iff	0	876.45	-192	611.434	0.883413	0	0.468594	0		$|
7875862	0	object/tangible/terminal/terminal_mission_entertainer.iff	0	877.584	-192	609.88	0.883414	0	0.468594	0		$|
8315462	0	object/tangible/terminal/terminal_mission_imperial.iff	0	1049.36	-192	528.69	0.922997	0	0.384808	0		$|
8315465	0	object/static/item/item_container_armor.iff	0	1047.23	-192	532.817	0.768054	0	-0.640385	0		$|
8315466	0	object/static/structure/tatooine/debris_tatt_crate_1.iff	0	1047.39	-192	533.931	0.7485	0	-0.663135	0		$|
8315467	0	object/static/structure/tatooine/debris_tatt_crate_metal_1.iff	0	1048.31	-192	533.509	0.802096	0	0.597196	0		$|
8905426	0	object/static/structure/naboo/nboo_imprv_flagpole_s01.iff	0	1021.93	-184.319	455.471	1	0	0	0		$|
8905427	0	object/static/structure/naboo/nboo_imprv_flagpole_s01.iff	0	1168.55	-166.304	582.016	1	0	0	0		$|
8905428	0	object/static/structure/naboo/nboo_imprv_flagpole_s01.iff	0	1156.64	-162.978	465.969	1	0	0	0		$|
8905432	0	object/static/structure/naboo/nboo_imprv_flagpole_s01.iff	0	1251.36	-168.337	470.847	1	0	0	0		$|
8905433	0	object/static/structure/naboo/nboo_imprv_flagpole_s01.iff	0	1264.64	-168.805	551.968	1	0	0	0		$|
8905435	0	object/static/structure/naboo/nboo_imprv_flagpole_s01.iff	0	1095.67	-178.41	618.356	1	0	0	0		$|
8905436	0	object/static/structure/naboo/nboo_imprv_flagpole_s01.iff	0	1074.68	-178.309	598.12	1	0	0	0		$|
8905437	0	object/static/structure/naboo/nboo_imprv_flagpole_s01.iff	0	1085.14	-183.656	674.22	1	0	0	0		$|
8905438	0	object/static/structure/naboo/nboo_imprv_flagpole_s01.iff	0	1119.26	-183.656	637.666	1	0	0	0		$|
9525865	0	object/tangible/crafting/station/public_food_station.iff	0	1088.18	-192	547.142	0.380189	0	0.924909	0		$|
9525866	0	object/static/structure/general/droid_21bmedical_powerdown.iff	0	1117.5	-192	546.032	0.764842	0	-0.644218	0		$|
9525870	0	object/tangible/crafting/station/public_weapon_station.iff	0	1077.44	-192	536.179	0.381948	0	0.924184	0		$|
9525871	0	object/tangible/crafting/station/public_clothing_station.iff	0	1074.07	-192	532.499	-0.38027	0	0.924876	0		$|
9525879	0	object/static/structure/dantooine/dant_rack_spears.iff	0	1078.92	-192	493.995	0.910381	0	0.413772	0		$|
321	0	object/building/naboo/thm_nboo_block_bldg_32x16_style_01.iff	0	856.104	-191.974	524.499	0.907038	0	0.421049	0		$|
1153869	0	object/static/structure/general/droid_r3_torso.iff	0	1096.21	-192	555.187	0.7991	0	-0.601198	0		$|
1153882	0	object/static/structure/general/droid_r5_head.iff	0	1095.97	-192.696	554.458	0.955262	-0.295454	-0.0110306	0.00773154		$|
1153893	0	object/static/structure/general/droid_r3_leg.iff	0	1096.61	-192.032	554.278	0.924724	-0.018497	-0.380112	-0.00760326		$|
1741353	0	object/building/naboo/thm_nboo_block_bldg_32x16_style_02.iff	0	958.722	-192	636.604	0.92388	0	-0.382683	0		$|
1741356	0	object/building/naboo/filler_building_naboo_theed_style_6.iff	0	921.249	-192	681.502	0	0	1	0		$|
1741366	0	object/building/naboo/filler_building_naboo_theed_style_10.iff	0	950.33	-192	667.135	-0.373426	0	0.92766	0		$|
1741369	0	object/building/naboo/thm_nboo_block_bldg_32x16_style_02.iff	0	918.77	-192	623.348	0.92388	0	0.382683	0		$|
1741372	0	object/building/naboo/thm_nboo_block_bldg_32x16_style_02.iff	0	897.486	-192	647.425	-0.382683	0	0.92388	0		$|
1741375	0	object/building/naboo/thm_nboo_block_bldg_64x32_style_01.iff	0	838.828	-192	625.364	0.387665	0	0.9218	0		$|
1741378	0	object/building/naboo/thm_nboo_block_bldg_64x32_s02.iff	0	827.803	-193.667	563.455	-0.494536	0	0.869157	0		$|
1741381	0	object/building/naboo/filler_building_naboo_theed_style_6.iff	0	969.289	-192	623.2	-0.382683	0	0.92388	0		$|
1741382	0	object/building/naboo/filler_building_naboo_theed_style_8.iff	0	913.589	-192	651.876	0.92388	0	0.382683	0		$|
1741400	0	object/building/naboo/filler_building_naboo_theed_style_8.iff	0	931.048	-192	635.321	0.92388	0	0.382683	0		$|
1741428	0	object/building/naboo/filler_building_naboo_theed_style_10.iff	0	922.515	-192	500.55	0.953033	0	-0.302867	0		$|
1741431	0	object/building/naboo/filler_building_naboo_theed_style_5.iff	0	952.999	-192	521.511	0.382684	0	0.923879	0		$|
1741437	0	object/building/naboo/hospital_naboo_style01.iff	0	1005.25	-192	495.498	0.38591	0	0.922536	0		$|
1741519	0	object/building/naboo/thm_nboo_block_bldg_32x16_style_01.iff	0	1118.68	-192	437.772	0.959662	0	0.281157	0		$|
1741521	0	object/building/naboo/thm_nboo_block_bldg_64x32_s02.iff	0	1164.7	-192	414.099	-0.129634	0	0.991562	0		$|
1741524	0	object/building/naboo/thm_nboo_block_bldg_64x32_style_01.iff	0	1315.38	-192	519.035	0.717635	0	-0.69642	0		$|
1741527	0	object/building/naboo/thm_nboo_block_bldg_64x32_style_01.iff	0	1077.27	-192	471.047	0.907838	0	0.419322	0		$|
1741530	0	object/building/naboo/thm_nboo_block_bldg_32x16_style_01.iff	0	1303.72	-191.993	468.879	0.801858	0	-0.597515	0		$|
1741532	0	object/building/naboo/thm_nboo_block_bldg_32x16_style_02.iff	0	1308.54	-192	566.997	0.707108	0	-0.707105	0		$|
4105621	0	object/building/naboo/thm_nboo_block_bldg_32x16_style_02.iff	0	1285.03	-192.062	438.5	0.910874	0	-0.412684	0		$|
4245390	0	object/building/naboo/filler_building_naboo_theed_style_6.iff	0	1156.02	-192	650.551	0.70711	0	0.707103	0		$|
4245439	0	object/building/naboo/thm_nboo_block_bldg_32x16_style_01.iff	0	1132.78	-192	628.756	0.382683	0	0.92388	0		$|
4795352	0	object/building/naboo/thm_nboo_block_bldg_32x16_style_02.iff	0	1160.38	-192	627.713	0.92388	0	0.382683	0		$|
5425869	0	object/static/item/item_armor_bone_helmet.iff	0	1045.06	-192.379	675.117	0.956251	-0.124575	0.26465	-0.00498565		$|
