db_id	templateFilename
s	s
hair_rodian_male_s02	object/tangible/hair/rodian/hair_rodian_male_s02.iff
hair_rodian_male_s03	object/tangible/hair/rodian/hair_rodian_male_s03.iff
hair_rodian_male_s04	object/tangible/hair/rodian/hair_rodian_male_s04.iff
hair_rodian_male_s08	object/tangible/hair/rodian/hair_rodian_male_s08.iff
hair_rodian_male_s13	object/tangible/hair/rodian/hair_rodian_male_s13.iff
hair_rodian_male_s14	object/tangible/hair/rodian/hair_rodian_male_s14.iff
