set_bh_dps	set_bh_utility_a	set_bh_utility_b	set_medic_dps	set_medic_utility_a	set_medic_utility_b	set_jedi_dps	set_jedi_utility_a	set_jedi_utility_b	set_commando_dps	set_commando_utility_a	set_commando_utility_b	set_smuggler_dps	set_smuggler_utility_a	set_smuggler_utility_b	set_spy_dps	set_spy_utility_a	set_spy_utility_b	set_officer_dps	set_officer_utility_a	set_officer_utility_b	set_hero
s	s	s	s	s	s	s	s	s	s	s	s	s	s	s	s	s	s	s	s	s	s
item_ring_set_bh_dps_01_01	item_ring_set_bh_utility_a_01_01	item_ring_set_bh_utility_b_01_01	item_ring_set_medic_dps_01_01	item_ring_set_medic_utility_a_01_01	item_ring_set_medic_utility_b_01_01	item_ring_set_jedi_dps_01_01	item_ring_set_jedi_utility_a_01_01	item_ring_set_jedi_utility_b_01_01	item_ring_set_commando_dps_01_01	item_ring_set_commando_utility_a_01_01	item_ring_set_commando_utility_b_01_01	item_ring_set_smuggler_dps_01_01	item_ring_set_smuggler_utility_a_01_01	item_ring_set_smuggler_utility_b_01_01	item_ring_set_spy_dps_01_01	item_ring_set_spy_utility_a_01_01	item_ring_set_spy_utility_b_01_01	item_ring_set_officer_dps_01_01	item_ring_set_officer_utility_a_01_01	item_ring_set_officer_utility_b_01_01	item_ring_set_hero_01_01
item_band_set_bh_dps_01_01	item_band_set_bh_utility_a_01_01	item_band_set_bh_utility_b_01_01	item_band_set_medic_dps_01_01	item_band_set_medic_utility_a_01_01	item_band_set_medic_utility_b_01_01	item_band_set_jedi_dps_01_01	item_band_set_jedi_utility_a_01_01	item_band_set_jedi_utility_b_01_01	item_band_set_commando_dps_01_01	item_band_set_commando_utility_a_01_01	item_band_set_commando_utility_b_01_01	item_band_set_smuggler_dps_01_01	item_band_set_smuggler_utility_a_01_01	item_band_set_smuggler_utility_b_01_01	item_band_set_spy_dps_01_01	item_band_set_spy_utility_a_01_01	item_band_set_spy_utility_b_01_01	item_band_set_officer_dps_01_01	item_band_set_officer_utility_a_01_01	item_band_set_officer_utility_b_01_01	item_band_set_hero_01_01
item_necklace_set_bh_dps_01_01	item_necklace_set_bh_utility_a_01_01	item_necklace_set_bh_utility_b_01_01	item_necklace_set_medic_dps_01_01	item_necklace_set_medic_utility_a_01_01	item_necklace_set_medic_utility_b_01_01	item_necklace_set_jedi_dps_01_01	item_necklace_set_jedi_utility_a_01_01	item_necklace_set_jedi_utility_b_01_01	item_necklace_set_commando_dps_01_01	item_necklace_set_commando_utility_a_01_01	item_necklace_set_commando_utility_b_01_01	item_necklace_set_smuggler_dps_01_01	item_necklace_set_smuggler_utility_a_01_01	item_necklace_set_smuggler_utility_b_01_01	item_necklace_set_spy_dps_01_01	item_necklace_set_spy_utility_a_01_01	item_necklace_set_spy_utility_b_01_01	item_necklace_set_officer_dps_01_01	item_necklace_set_officer_utility_a_01_01	item_necklace_set_officer_utility_b_01_01	item_necklace_set_hero_01_01
item_bracelet_r_set_bh_dps_01_01	item_bracelet_r_set_bh_utility_a_01_01	item_bracelet_r_set_bh_utility_b_01_01	item_bracelet_r_set_medic_dps_01_01	item_bracelet_r_set_medic_utility_a_01_01	item_bracelet_r_set_medic_utility_b_01_01	item_bracelet_r_set_jedi_dps_01_01	item_bracelet_r_set_jedi_utility_a_01_01	item_bracelet_r_set_jedi_utility_b_01_01	item_bracelet_r_set_commando_dps_01_01	item_bracelet_r_set_commando_utility_a_01_01	item_bracelet_r_set_commando_utility_b_01_01	item_bracelet_r_set_smuggler_dps_01_01	item_bracelet_r_set_smuggler_utility_a_01_01	item_bracelet_r_set_smuggler_utility_b_01_01	item_bracelet_r_set_spy_dps_01_01	item_bracelet_r_set_spy_utility_a_01_01	item_bracelet_r_set_spy_utility_b_01_01	item_bracelet_r_set_officer_dps_01_01	item_bracelet_r_set_officer_utility_a_01_01	item_bracelet_r_set_officer_utility_b_01_01	item_bracelet_r_set_hero_01_01
item_bracelet_l_set_bh_dps_01_01	item_bracelet_l_set_bh_utility_a_01_01	item_bracelet_l_set_bh_utility_b_01_01	item_bracelet_l_set_medic_dps_01_01	item_bracelet_l_set_medic_utility_a_01_01	item_bracelet_l_set_medic_utility_b_01_01	item_bracelet_l_set_jedi_dps_01_01	item_bracelet_l_set_jedi_utility_a_01_01	item_bracelet_l_set_jedi_utility_b_01_01	item_bracelet_l_set_commando_dps_01_01	item_bracelet_l_set_commando_utility_a_01_01	item_bracelet_l_set_commando_utility_b_01_01	item_bracelet_l_set_smuggler_dps_01_01	item_bracelet_l_set_smuggler_utility_a_01_01	item_bracelet_l_set_smuggler_utility_b_01_01	item_bracelet_l_set_spy_dps_01_01	item_bracelet_l_set_spy_utility_a_01_01	item_bracelet_l_set_spy_utility_b_01_01	item_bracelet_l_set_officer_dps_01_01	item_bracelet_l_set_officer_utility_a_01_01	item_bracelet_l_set_officer_utility_b_01_01	item_bracelet_l_set_hero_01_01
