spawns	name	room	loc_x	loc_y	loc_z	yaw	script	mood	animation_mood	respawn_time	spawn_objvar	special_room	special_room_script	room_objvar	room_objvar_name	room_objvar_value
s	s	s	f	f	f	f	s	s	s	i	s	s	s	s	s	s
object/tangible/region/deliver_region_5.iff		world	-106.4	28	-4529.3		systems.missions.dynamic.deliver_npc_spawner
object/tangible/region/deliver_region_5.iff		world	-302.3	28	-4300.8		systems.missions.dynamic.deliver_npc_spawner
object/tangible/region/deliver_region_5.iff		world	-163.8	28	-4181.6		systems.missions.dynamic.deliver_npc_spawner
object/tangible/region/deliver_region_5.iff		world	-64	28	-4398.4		systems.missions.dynamic.deliver_npc_spawner
object/tangible/region/deliver_region_5.iff		world	39.7	28	-4416.6		systems.missions.dynamic.deliver_npc_spawner
object/tangible/region/deliver_region_5.iff		world	-112.3	28	-4310.6		systems.missions.dynamic.deliver_npc_spawner
object/tangible/region/deliver_region_5.iff		world	-351.2	28	-4220.6		systems.missions.dynamic.deliver_npc_spawner
object/tangible/region/deliver_region_5.iff		world	-305.2	28	-4600.4		systems.missions.dynamic.deliver_npc_spawner
object/tangible/region/deliver_region_5.iff		world	-119	28	-4285.5		systems.missions.dynamic.deliver_npc_spawner
object/tangible/region/deliver_region_5.iff		world	-158.7	28	-4527.7		systems.missions.dynamic.deliver_npc_spawner
object/tangible/region/deliver_region_5.iff		world	-15.9	28	-4415.3		systems.missions.dynamic.deliver_npc_spawner
object/tangible/region/deliver_region_5.iff		world	-351.1	28	-4250.9		systems.missions.dynamic.deliver_npc_spawner
object/tangible/region/deliver_region_5.iff		world	-282.5	28	-4344.3		systems.missions.dynamic.deliver_npc_spawner
object/tangible/region/deliver_region_5.iff		world	-196.3	28	-4451.4		systems.missions.dynamic.deliver_npc_spawner
object/tangible/region/deliver_region_5.iff		world	-121.9	28	-4393.4		systems.missions.dynamic.deliver_npc_spawner
object/tangible/region/deliver_region_5.iff		world	-92.1	28	-4471.5		systems.missions.dynamic.deliver_npc_spawner
object/tangible/region/deliver_region_5.iff		world	-164.1	28	-4605.9		systems.missions.dynamic.deliver_npc_spawner
object/tangible/region/deliver_region_5.iff		world	-37.7	28	-4477.5		systems.missions.dynamic.deliver_npc_spawner
object/tangible/region/deliver_region_5.iff		world	-358.2	28	-4268.3		systems.missions.dynamic.deliver_npc_spawner
object/tangible/region/deliver_region_5.iff		world	-79.2	28	-4286.9		systems.missions.dynamic.deliver_npc_spawner
object/tangible/region/deliver_region_5.iff		world	-180.9	28	-4504.7		systems.missions.dynamic.deliver_npc_spawner
object/tangible/region/deliver_region_5.iff		world	14.6	28	-4407.3		systems.missions.dynamic.deliver_npc_spawner
object/tangible/region/deliver_region_5.iff		world	-87.5	28	-4302.4		systems.missions.dynamic.deliver_npc_spawner
object/tangible/region/deliver_region_5.iff		world	-103.3	28	-4182.2		systems.missions.dynamic.deliver_npc_spawner
object/tangible/region/deliver_region_5.iff		world	-71	28	-4324.8		systems.missions.dynamic.deliver_npc_spawner
object/tangible/region/deliver_region_5.iff		world	-350.2	28	-4287.3		systems.missions.dynamic.deliver_npc_spawner
object/tangible/region/deliver_region_5.iff		world	-25.7	28	-4558.6		systems.missions.dynamic.deliver_npc_spawner
object/tangible/region/deliver_region_5.iff		world	-258.2	28	-4619.7		systems.missions.dynamic.deliver_npc_spawner
object/tangible/region/deliver_region_5.iff		world	-164.2	28	-4552.3		systems.missions.dynamic.deliver_npc_spawner
object/tangible/region/deliver_region_5.iff		world	-240.1	28	-4522.4		systems.missions.dynamic.deliver_npc_spawner
object/tangible/region/deliver_region_5.iff		world	-54.9	28	-4530.5		systems.missions.dynamic.deliver_npc_spawner
object/tangible/region/deliver_region_5.iff		world	-306.4	28	-4546.2		systems.missions.dynamic.deliver_npc_spawner
object/tangible/region/deliver_region_5.iff		world	-56.8	28	-4229.7		systems.missions.dynamic.deliver_npc_spawner
object/tangible/region/deliver_region_5.iff		world	-15.1	28	-4452.2		systems.missions.dynamic.deliver_npc_spawner
object/tangible/region/deliver_region_5.iff		world	6920.6	330	-5522.2		systems.missions.dynamic.deliver_npc_spawner
object/tangible/region/deliver_region_5.iff		world	6847.7	315	-5617.3		systems.missions.dynamic.deliver_npc_spawner
object/tangible/region/deliver_region_5.iff		world	6821.4	315	-5611.2		systems.missions.dynamic.deliver_npc_spawner
object/tangible/region/deliver_region_5.iff		world	6876.4	330	-5458		systems.missions.dynamic.deliver_npc_spawner
object/tangible/region/deliver_region_5.iff		world	6846.3	315	-5589		systems.missions.dynamic.deliver_npc_spawner
object/tangible/region/deliver_region_5.iff		world	6810.5	315	-5699		systems.missions.dynamic.deliver_npc_spawner
object/tangible/region/deliver_region_5.iff		world	6972.2	330	-5556.5		systems.missions.dynamic.deliver_npc_spawner
object/tangible/region/deliver_region_5.iff		world	6809.2	315	-5779.1		systems.missions.dynamic.deliver_npc_spawner
object/tangible/region/deliver_region_5.iff		world	6896.3	330	-5577.3		systems.missions.dynamic.deliver_npc_spawner
object/tangible/region/deliver_region_5.iff		world	6828.8	315	-5813.1		systems.missions.dynamic.deliver_npc_spawner
object/tangible/region/deliver_region_5.iff		world	6715.8	315	-5697.1		systems.missions.dynamic.deliver_npc_spawner
object/tangible/region/deliver_region_5.iff		world	6867.6	315	-5758.1		systems.missions.dynamic.deliver_npc_spawner
object/tangible/region/deliver_region_5.iff		world	6734.5	315	-5529.5		systems.missions.dynamic.deliver_npc_spawner
object/tangible/region/deliver_region_5.iff		world	6830	315	-5745.9		systems.missions.dynamic.deliver_npc_spawner
object/tangible/region/deliver_region_5.iff		world	6760.3	315	-5732.8		systems.missions.dynamic.deliver_npc_spawner
object/tangible/region/deliver_region_5.iff		world	6845.4	330	-5468.9		systems.missions.dynamic.deliver_npc_spawner
object/tangible/region/deliver_region_5.iff		world	6907.5	330	-5550.7		systems.missions.dynamic.deliver_npc_spawner
object/tangible/region/deliver_region_5.iff		world	6834.2	315	-5577.4		systems.missions.dynamic.deliver_npc_spawner
object/tangible/region/deliver_region_5.iff		world	6797.7	315	-5732.3		systems.missions.dynamic.deliver_npc_spawner
object/tangible/region/deliver_region_5.iff		world	6754.8	314.9	-5626.2		systems.missions.dynamic.deliver_npc_spawner
object/tangible/region/deliver_region_5.iff		world	6761.6	315	-5695.9		systems.missions.dynamic.deliver_npc_spawner
object/tangible/region/deliver_region_5.iff		world	6741.4	315	-5675.2		systems.missions.dynamic.deliver_npc_spawner
object/tangible/region/deliver_region_5.iff		world	6782.5	315	-5492.3		systems.missions.dynamic.deliver_npc_spawner
object/tangible/region/deliver_region_5.iff		world	6828.5	315	-5625.7		systems.missions.dynamic.deliver_npc_spawner
object/tangible/region/deliver_region_5.iff		world	-5079.3	21	-2445.1		systems.missions.dynamic.deliver_npc_spawner
object/tangible/region/deliver_region_5.iff		world	-5634	21	-2758.1		systems.missions.dynamic.deliver_npc_spawner
object/tangible/region/deliver_region_5.iff		world	-5465.7	21	-2602.1		systems.missions.dynamic.deliver_npc_spawner
object/tangible/region/deliver_region_5.iff		world	-5583.7	21	-2764.9		systems.missions.dynamic.deliver_npc_spawner
object/tangible/region/deliver_region_5.iff		world	-5538.9	21	-2601.1		systems.missions.dynamic.deliver_npc_spawner
object/tangible/region/deliver_region_5.iff		world	-5501.6	21	-2778.1		systems.missions.dynamic.deliver_npc_spawner
object/tangible/region/deliver_region_5.iff		world	-5114.9	21	-2424.5		systems.missions.dynamic.deliver_npc_spawner
object/tangible/region/deliver_region_5.iff		world	-5207.9	21	-2333.9		systems.missions.dynamic.deliver_npc_spawner
object/tangible/region/deliver_region_5.iff		world	-5291	21	-2480.1		systems.missions.dynamic.deliver_npc_spawner
object/tangible/region/deliver_region_5.iff		world	-5110.7	21	-2504.7		systems.missions.dynamic.deliver_npc_spawner
object/tangible/region/deliver_region_5.iff		world	-5004.3	21	-2342.6		systems.missions.dynamic.deliver_npc_spawner
object/tangible/region/deliver_region_5.iff		world	-5278.7	21	-2390.4		systems.missions.dynamic.deliver_npc_spawner
object/tangible/region/deliver_region_5.iff		world	-5162.8	21	-2277.6		systems.missions.dynamic.deliver_npc_spawner
object/tangible/region/deliver_region_5.iff		world	-5089.6	21	-2344.8		systems.missions.dynamic.deliver_npc_spawner
object/tangible/region/deliver_region_5.iff		world	-5259.3	21	-2447.2		systems.missions.dynamic.deliver_npc_spawner
object/tangible/region/deliver_region_5.iff		world	-5090.4	21	-2580.9		systems.missions.dynamic.deliver_npc_spawner
object/tangible/region/deliver_region_5.iff		world	-5200.6	21	-2505.2		systems.missions.dynamic.deliver_npc_spawner
object/tangible/region/deliver_region_5.iff		world	-5064.6	21	-2392.4		systems.missions.dynamic.deliver_npc_spawner
object/tangible/region/deliver_region_5.iff		world	-5409.5	21	-2699.8		systems.missions.dynamic.deliver_npc_spawner
object/tangible/region/deliver_region_5.iff		world	-5274.6	21	-2574.1		systems.missions.dynamic.deliver_npc_spawner
object/tangible/region/deliver_region_5.iff		world	-3522.9	70	3234.2		systems.missions.dynamic.deliver_npc_spawner
object/tangible/region/deliver_region_5.iff		world	-3188.7	101	3156.9		systems.missions.dynamic.deliver_npc_spawner
object/tangible/region/deliver_region_5.iff		world	-3573.1	70	3208		systems.missions.dynamic.deliver_npc_spawner
object/tangible/region/deliver_region_5.iff		world	-3445.3	86	3143.7		systems.missions.dynamic.deliver_npc_spawner
object/tangible/region/deliver_region_5.iff		world	-3417	86	3034.1		systems.missions.dynamic.deliver_npc_spawner
object/tangible/region/deliver_region_5.iff		world	-3157.2	101	3077.4		systems.missions.dynamic.deliver_npc_spawner
object/tangible/region/deliver_region_5.iff		world	-3458.3	78	3027.8		systems.missions.dynamic.deliver_npc_spawner
object/tangible/region/deliver_region_5.iff		world	-3403.4	86	3113.3		systems.missions.dynamic.deliver_npc_spawner
object/tangible/region/deliver_region_5.iff		world	-3256.4	86	3124.5		systems.missions.dynamic.deliver_npc_spawner
object/tangible/region/deliver_region_5.iff		world	-3408.3	86	3125.5		systems.missions.dynamic.deliver_npc_spawner
object/tangible/region/deliver_region_5.iff		world	-3199.9	30.6	2786.5		systems.missions.dynamic.deliver_npc_spawner
object/tangible/region/deliver_region_5.iff		world	-3322.8	86	3230.9		systems.missions.dynamic.deliver_npc_spawner
object/tangible/region/deliver_region_5.iff		world	-3272	86	3071.8		systems.missions.dynamic.deliver_npc_spawner
object/tangible/region/deliver_region_5.iff		world	-3028.1	29.9	2793.7		systems.missions.dynamic.deliver_npc_spawner
object/tangible/region/deliver_region_5.iff		world	-3153.6	101	3112.2		systems.missions.dynamic.deliver_npc_spawner
object/tangible/region/deliver_region_5.iff		world	-3435.2	86	3119.4		systems.missions.dynamic.deliver_npc_spawner
object/tangible/region/deliver_region_5.iff		world	-3447.8	78	3219.2		systems.missions.dynamic.deliver_npc_spawner
object/tangible/region/deliver_region_5.iff		world	3412	308	5515.3		systems.missions.dynamic.deliver_npc_spawner
object/tangible/region/deliver_region_5.iff		world	3277.7	300	5439		systems.missions.dynamic.deliver_npc_spawner
object/tangible/region/deliver_region_5.iff		world	3140.4	300	5247.7		systems.missions.dynamic.deliver_npc_spawner
object/tangible/region/deliver_region_5.iff		world	3244.2	300.7	5458.8		systems.missions.dynamic.deliver_npc_spawner
object/tangible/region/deliver_region_5.iff		world	3181.4	300	5352.8		systems.missions.dynamic.deliver_npc_spawner
object/tangible/region/deliver_region_5.iff		world	-5571.5	23.4	-6130.3		systems.missions.dynamic.deliver_npc_spawner
object/tangible/region/deliver_region_5.iff		world	-5468.1	23.4	-6144.6		systems.missions.dynamic.deliver_npc_spawner
object/tangible/region/deliver_region_5.iff		world	-5488.5	23.9	-6242.2		systems.missions.dynamic.deliver_npc_spawner
object/tangible/region/deliver_region_5.iff		world	-3393.5	86	3007.8		systems.missions.dynamic.deliver_npc_spawner
object/tangible/region/deliver_region_5.iff		world	-3402.9	86	2997.7		systems.missions.dynamic.deliver_npc_spawner
object/tangible/region/deliver_region_5.iff		world	-3378.7	86	2985.8		systems.missions.dynamic.deliver_npc_spawner
object/tangible/region/deliver_region_5.iff		world	-3461.4	86	3156.1		systems.missions.dynamic.deliver_npc_spawner
object/tangible/region/deliver_region_5.iff		world	-3068.1	30.7	2772.5		systems.missions.dynamic.deliver_npc_spawner
object/tangible/region/deliver_region_5.iff		world	-3185.5	101	3104.6		systems.missions.dynamic.deliver_npc_spawner
object/tangible/region/deliver_region_5.iff		world	-3392.2	86	3139.9		systems.missions.dynamic.deliver_npc_spawner
object/tangible/region/deliver_region_5.iff		world	-3191.6	101	3052.6		systems.missions.dynamic.deliver_npc_spawner
object/tangible/region/deliver_region_5.iff		world	-3088.3	31	2984.7		systems.missions.dynamic.deliver_npc_spawner
object/tangible/region/deliver_region_5.iff		world	-3378.4	86	3171.3		systems.missions.dynamic.deliver_npc_spawner
object/tangible/region/deliver_region_5.iff		world	-3115.3	31	2800.1		systems.missions.dynamic.deliver_npc_spawner
object/tangible/region/deliver_region_5.iff		world	-3331.9	86	3307		systems.missions.dynamic.deliver_npc_spawner
object/tangible/region/deliver_region_5.iff		world	-3190.4	101	3073.6		systems.missions.dynamic.deliver_npc_spawner
object/tangible/region/deliver_region_5.iff		world	-3066.9	31	2925.4		systems.missions.dynamic.deliver_npc_spawner
object/tangible/region/deliver_region_5.iff		world	-3352.4	86	3303.5		systems.missions.dynamic.deliver_npc_spawner
object/tangible/region/deliver_region_5.iff		world	-3384.1	86	2958		systems.missions.dynamic.deliver_npc_spawner
object/tangible/region/deliver_region_5.iff		world	6826.9	330	-5448.5		systems.missions.dynamic.deliver_npc_spawner
object/tangible/region/deliver_region_5.iff		world	3420.7	300	5415.3		systems.missions.dynamic.deliver_npc_spawner
object/tangible/region/deliver_region_5.iff		world	-5158.7	4.2	-6426.6		systems.missions.dynamic.deliver_npc_spawner
object/tangible/region/deliver_region_5.iff		world	-5551.5	23.4	-6221.4		systems.missions.dynamic.deliver_npc_spawner
